%!PS-Adobe-3.0 EPSF-3.0
%%Creator: (MATLAB, The Mathworks, Inc. Version 9.2.0.538062 \(R2017a\). Operating System: Windows 8)
%%Title: C:/Users/jack/ANU/engn3712-report/images/egtest02-success.eps
%%CreationDate: 2017-10-15T15:04:45
%%Pages: (atend)
%%BoundingBox: 0 0 420 315
%%LanguageLevel: 3
%%EndComments
%%BeginProlog
%%BeginResource: procset (Apache XML Graphics Std ProcSet) 1.2 0
%%Version: 1.2 0
%%Copyright: (Copyright 2001-2003,2010 The Apache Software Foundation. License terms: http://www.apache.org/licenses/LICENSE-2.0)
/bd{bind def}bind def
/ld{load def}bd
/GR/grestore ld
/M/moveto ld
/LJ/setlinejoin ld
/C/curveto ld
/f/fill ld
/LW/setlinewidth ld
/GC/setgray ld
/t/show ld
/N/newpath ld
/CT/concat ld
/cp/closepath ld
/S/stroke ld
/L/lineto ld
/CC/setcmykcolor ld
/A/ashow ld
/GS/gsave ld
/RC/setrgbcolor ld
/RM/rmoveto ld
/ML/setmiterlimit ld
/re {4 2 roll M
1 index 0 rlineto
0 exch rlineto
neg 0 rlineto
cp } bd
/_ctm matrix def
/_tm matrix def
/BT { _ctm currentmatrix pop matrix _tm copy pop 0 0 moveto } bd
/ET { _ctm setmatrix } bd
/iTm { _ctm setmatrix _tm concat } bd
/Tm { _tm astore pop iTm 0 0 moveto } bd
/ux 0.0 def
/uy 0.0 def
/F {
  /Tp exch def
  /Tf exch def
  Tf findfont Tp scalefont setfont
  /cf Tf def  /cs Tp def
} bd
/ULS {currentpoint /uy exch def /ux exch def} bd
/ULE {
  /Tcx currentpoint pop def
  gsave
  newpath
  cf findfont cs scalefont dup
  /FontMatrix get 0 get /Ts exch def /FontInfo get dup
  /UnderlinePosition get Ts mul /To exch def
  /UnderlineThickness get Ts mul /Tt exch def
  ux uy To add moveto  Tcx uy To add lineto
  Tt setlinewidth stroke
  grestore
} bd
/OLE {
  /Tcx currentpoint pop def
  gsave
  newpath
  cf findfont cs scalefont dup
  /FontMatrix get 0 get /Ts exch def /FontInfo get dup
  /UnderlinePosition get Ts mul /To exch def
  /UnderlineThickness get Ts mul /Tt exch def
  ux uy To add cs add moveto Tcx uy To add cs add lineto
  Tt setlinewidth stroke
  grestore
} bd
/SOE {
  /Tcx currentpoint pop def
  gsave
  newpath
  cf findfont cs scalefont dup
  /FontMatrix get 0 get /Ts exch def /FontInfo get dup
  /UnderlinePosition get Ts mul /To exch def
  /UnderlineThickness get Ts mul /Tt exch def
  ux uy To add cs 10 mul 26 idiv add moveto Tcx uy To add cs 10 mul 26 idiv add lineto
  Tt setlinewidth stroke
  grestore
} bd
/QT {
/Y22 exch store
/X22 exch store
/Y21 exch store
/X21 exch store
currentpoint
/Y21 load 2 mul add 3 div exch
/X21 load 2 mul add 3 div exch
/X21 load 2 mul /X22 load add 3 div
/Y21 load 2 mul /Y22 load add 3 div
/X22 load /Y22 load curveto
} bd
/SSPD {
dup length /d exch dict def
{
/v exch def
/k exch def
currentpagedevice k known {
/cpdv currentpagedevice k get def
v cpdv ne {
/upd false def
/nullv v type /nulltype eq def
/nullcpdv cpdv type /nulltype eq def
nullv nullcpdv or
{
/upd true def
} {
/sametype v type cpdv type eq def
sametype {
v type /arraytype eq {
/vlen v length def
/cpdvlen cpdv length def
vlen cpdvlen eq {
0 1 vlen 1 sub {
/i exch def
/obj v i get def
/cpdobj cpdv i get def
obj cpdobj ne {
/upd true def
exit
} if
} for
} {
/upd true def
} ifelse
} {
v type /dicttype eq {
v {
/dv exch def
/dk exch def
/cpddv cpdv dk get def
dv cpddv ne {
/upd true def
exit
} if
} forall
} {
/upd true def
} ifelse
} ifelse
} if
} ifelse
upd true eq {
d k v put
} if
} if
} if
} forall
d length 0 gt {
d setpagedevice
} if
} bd
/RE { % /NewFontName [NewEncodingArray] /FontName RE -
  findfont dup length dict begin
  {
    1 index /FID ne
    {def} {pop pop} ifelse
  } forall
  /Encoding exch def
  /FontName 1 index def
  currentdict definefont pop
  end
} bind def
%%EndResource
%%BeginResource: procset (Apache XML Graphics EPS ProcSet) 1.0 0
%%Version: 1.0 0
%%Copyright: (Copyright 2002-2003 The Apache Software Foundation. License terms: http://www.apache.org/licenses/LICENSE-2.0)
/BeginEPSF { %def
/b4_Inc_state save def         % Save state for cleanup
/dict_count countdictstack def % Count objects on dict stack
/op_count count 1 sub def      % Count objects on operand stack
userdict begin                 % Push userdict on dict stack
/showpage { } def              % Redefine showpage, { } = null proc
0 setgray 0 setlinecap         % Prepare graphics state
1 setlinewidth 0 setlinejoin
10 setmiterlimit [ ] 0 setdash newpath
/languagelevel where           % If level not equal to 1 then
{pop languagelevel             % set strokeadjust and
1 ne                           % overprint to their defaults.
{false setstrokeadjust false setoverprint
} if
} if
} bd
/EndEPSF { %def
count op_count sub {pop} repeat            % Clean up stacks
countdictstack dict_count sub {end} repeat
b4_Inc_state restore
} bd
%%EndResource
%FOPBeginFontDict
%%IncludeResource: font Courier-Bold
%%IncludeResource: font Helvetica
%%IncludeResource: font Courier-BoldOblique
%%IncludeResource: font Courier-Oblique
%%IncludeResource: font Times-Roman
%%IncludeResource: font Helvetica-BoldOblique
%%IncludeResource: font Helvetica-Bold
%%IncludeResource: font Helvetica-Oblique
%%IncludeResource: font Times-BoldItalic
%%IncludeResource: font Courier
%%IncludeResource: font Times-Italic
%%IncludeResource: font Times-Bold
%%IncludeResource: font Symbol
%%IncludeResource: font ZapfDingbats
%FOPEndFontDict
%%BeginResource: encoding WinAnsiEncoding
/WinAnsiEncoding [
/.notdef /.notdef /.notdef /.notdef /.notdef
/.notdef /.notdef /.notdef /.notdef /.notdef
/.notdef /.notdef /.notdef /.notdef /.notdef
/.notdef /.notdef /.notdef /.notdef /.notdef
/.notdef /.notdef /.notdef /.notdef /.notdef
/.notdef /.notdef /.notdef /.notdef /.notdef
/.notdef /.notdef /space /exclam /quotedbl
/numbersign /dollar /percent /ampersand /quotesingle
/parenleft /parenright /asterisk /plus /comma
/hyphen /period /slash /zero /one
/two /three /four /five /six
/seven /eight /nine /colon /semicolon
/less /equal /greater /question /at
/A /B /C /D /E
/F /G /H /I /J
/K /L /M /N /O
/P /Q /R /S /T
/U /V /W /X /Y
/Z /bracketleft /backslash /bracketright /asciicircum
/underscore /quoteleft /a /b /c
/d /e /f /g /h
/i /j /k /l /m
/n /o /p /q /r
/s /t /u /v /w
/x /y /z /braceleft /bar
/braceright /asciitilde /bullet /Euro /bullet
/quotesinglbase /florin /quotedblbase /ellipsis /dagger
/daggerdbl /circumflex /perthousand /Scaron /guilsinglleft
/OE /bullet /Zcaron /bullet /bullet
/quoteleft /quoteright /quotedblleft /quotedblright /bullet
/endash /emdash /asciitilde /trademark /scaron
/guilsinglright /oe /bullet /zcaron /Ydieresis
/space /exclamdown /cent /sterling /currency
/yen /brokenbar /section /dieresis /copyright
/ordfeminine /guillemotleft /logicalnot /sfthyphen /registered
/macron /degree /plusminus /twosuperior /threesuperior
/acute /mu /paragraph /middot /cedilla
/onesuperior /ordmasculine /guillemotright /onequarter /onehalf
/threequarters /questiondown /Agrave /Aacute /Acircumflex
/Atilde /Adieresis /Aring /AE /Ccedilla
/Egrave /Eacute /Ecircumflex /Edieresis /Igrave
/Iacute /Icircumflex /Idieresis /Eth /Ntilde
/Ograve /Oacute /Ocircumflex /Otilde /Odieresis
/multiply /Oslash /Ugrave /Uacute /Ucircumflex
/Udieresis /Yacute /Thorn /germandbls /agrave
/aacute /acircumflex /atilde /adieresis /aring
/ae /ccedilla /egrave /eacute /ecircumflex
/edieresis /igrave /iacute /icircumflex /idieresis
/eth /ntilde /ograve /oacute /ocircumflex
/otilde /odieresis /divide /oslash /ugrave
/uacute /ucircumflex /udieresis /yacute /thorn
/ydieresis
] def
%%EndResource
%FOPBeginFontReencode
/Courier-Bold findfont
dup length dict begin
  {1 index /FID ne {def} {pop pop} ifelse} forall
  /Encoding WinAnsiEncoding def
  currentdict
end
/Courier-Bold exch definefont pop
/Helvetica findfont
dup length dict begin
  {1 index /FID ne {def} {pop pop} ifelse} forall
  /Encoding WinAnsiEncoding def
  currentdict
end
/Helvetica exch definefont pop
/Courier-BoldOblique findfont
dup length dict begin
  {1 index /FID ne {def} {pop pop} ifelse} forall
  /Encoding WinAnsiEncoding def
  currentdict
end
/Courier-BoldOblique exch definefont pop
/Courier-Oblique findfont
dup length dict begin
  {1 index /FID ne {def} {pop pop} ifelse} forall
  /Encoding WinAnsiEncoding def
  currentdict
end
/Courier-Oblique exch definefont pop
/Times-Roman findfont
dup length dict begin
  {1 index /FID ne {def} {pop pop} ifelse} forall
  /Encoding WinAnsiEncoding def
  currentdict
end
/Times-Roman exch definefont pop
/Helvetica-BoldOblique findfont
dup length dict begin
  {1 index /FID ne {def} {pop pop} ifelse} forall
  /Encoding WinAnsiEncoding def
  currentdict
end
/Helvetica-BoldOblique exch definefont pop
/Helvetica-Bold findfont
dup length dict begin
  {1 index /FID ne {def} {pop pop} ifelse} forall
  /Encoding WinAnsiEncoding def
  currentdict
end
/Helvetica-Bold exch definefont pop
/Helvetica-Oblique findfont
dup length dict begin
  {1 index /FID ne {def} {pop pop} ifelse} forall
  /Encoding WinAnsiEncoding def
  currentdict
end
/Helvetica-Oblique exch definefont pop
/Times-BoldItalic findfont
dup length dict begin
  {1 index /FID ne {def} {pop pop} ifelse} forall
  /Encoding WinAnsiEncoding def
  currentdict
end
/Times-BoldItalic exch definefont pop
/Courier findfont
dup length dict begin
  {1 index /FID ne {def} {pop pop} ifelse} forall
  /Encoding WinAnsiEncoding def
  currentdict
end
/Courier exch definefont pop
/Times-Italic findfont
dup length dict begin
  {1 index /FID ne {def} {pop pop} ifelse} forall
  /Encoding WinAnsiEncoding def
  currentdict
end
/Times-Italic exch definefont pop
/Times-Bold findfont
dup length dict begin
  {1 index /FID ne {def} {pop pop} ifelse} forall
  /Encoding WinAnsiEncoding def
  currentdict
end
/Times-Bold exch definefont pop
%FOPEndFontReencode
%%EndProlog
%%Page: 1 1
%%PageBoundingBox: 0 0 420 315
%%BeginPageSetup
[1 0 0 -1 0 315] CT
%%EndPageSetup
GS
[0.75 0 0 0.75 0 0] CT
1 GC
N
0 0 560 420 re
f
GR
GS
[0.75 0 0 0.75 0 0] CT
1 GC
N
0 0 560 420 re
f
GR
GS
[0.75 0 0 0.75 0 0] CT
1 GC
N
73 374 M
507 374 L
507 31 L
73 31 L
cp
f
GR
GS
[0.75 0 0 0.75 0 0] CT
0.149 GC
2 setlinecap
1 LJ
0.667 LW
N
73 374 M
507 374 L
S
GR
GS
[0.75 0 0 0.75 0 0] CT
0.149 GC
2 setlinecap
1 LJ
0.667 LW
N
73 374 M
73 369.66 L
S
GR
GS
[0.75 0 0 0.75 0 0] CT
0.149 GC
2 setlinecap
1 LJ
0.667 LW
N
116.4 374 M
116.4 369.66 L
S
GR
GS
[0.75 0 0 0.75 0 0] CT
0.149 GC
2 setlinecap
1 LJ
0.667 LW
N
159.8 374 M
159.8 369.66 L
S
GR
GS
[0.75 0 0 0.75 0 0] CT
0.149 GC
2 setlinecap
1 LJ
0.667 LW
N
203.2 374 M
203.2 369.66 L
S
GR
GS
[0.75 0 0 0.75 0 0] CT
0.149 GC
2 setlinecap
1 LJ
0.667 LW
N
246.6 374 M
246.6 369.66 L
S
GR
GS
[0.75 0 0 0.75 0 0] CT
0.149 GC
2 setlinecap
1 LJ
0.667 LW
N
290 374 M
290 369.66 L
S
GR
GS
[0.75 0 0 0.75 0 0] CT
0.149 GC
2 setlinecap
1 LJ
0.667 LW
N
333.4 374 M
333.4 369.66 L
S
GR
GS
[0.75 0 0 0.75 0 0] CT
0.149 GC
2 setlinecap
1 LJ
0.667 LW
N
376.8 374 M
376.8 369.66 L
S
GR
GS
[0.75 0 0 0.75 0 0] CT
0.149 GC
2 setlinecap
1 LJ
0.667 LW
N
420.2 374 M
420.2 369.66 L
S
GR
GS
[0.75 0 0 0.75 0 0] CT
0.149 GC
2 setlinecap
1 LJ
0.667 LW
N
463.6 374 M
463.6 369.66 L
S
GR
GS
[0.75 0 0 0.75 0 0] CT
0.149 GC
2 setlinecap
1 LJ
0.667 LW
N
507 374 M
507 369.66 L
S
GR
GS
[0.75 0 0 0.75 54.75 284.50001] CT
0.149 GC
/Helvetica 13.333 F
GS
[1 0 0 1 0 0] CT
-4 14 moveto 
1 -1 scale
(0) t 
GR
GR
GS
[0.75 0 0 0.75 87.3 284.50001] CT
0.149 GC
/Helvetica 13.333 F
GS
[1 0 0 1 0 0] CT
-9.5 14 moveto 
1 -1 scale
(0.1) t 
GR
GR
GS
[0.75 0 0 0.75 119.85 284.50001] CT
0.149 GC
/Helvetica 13.333 F
GS
[1 0 0 1 0 0] CT
-9.5 14 moveto 
1 -1 scale
(0.2) t 
GR
GR
GS
[0.75 0 0 0.75 152.40001 284.50001] CT
0.149 GC
/Helvetica 13.333 F
GS
[1 0 0 1 0 0] CT
-9.5 14 moveto 
1 -1 scale
(0.3) t 
GR
GR
GS
[0.75 0 0 0.75 184.95 284.50001] CT
0.149 GC
/Helvetica 13.333 F
GS
[1 0 0 1 0 0] CT
-9.5 14 moveto 
1 -1 scale
(0.4) t 
GR
GR
GS
[0.75 0 0 0.75 217.5 284.50001] CT
0.149 GC
/Helvetica 13.333 F
GS
[1 0 0 1 0 0] CT
-9.5 14 moveto 
1 -1 scale
(0.5) t 
GR
GR
GS
[0.75 0 0 0.75 250.05002 284.50001] CT
0.149 GC
/Helvetica 13.333 F
GS
[1 0 0 1 0 0] CT
-9.5 14 moveto 
1 -1 scale
(0.6) t 
GR
GR
GS
[0.75 0 0 0.75 282.59999 284.50001] CT
0.149 GC
/Helvetica 13.333 F
GS
[1 0 0 1 0 0] CT
-9.5 14 moveto 
1 -1 scale
(0.7) t 
GR
GR
GS
[0.75 0 0 0.75 315.15001 284.50001] CT
0.149 GC
/Helvetica 13.333 F
GS
[1 0 0 1 0 0] CT
-9.5 14 moveto 
1 -1 scale
(0.8) t 
GR
GR
GS
[0.75 0 0 0.75 347.69998 284.50001] CT
0.149 GC
/Helvetica 13.333 F
GS
[1 0 0 1 0 0] CT
-9.5 14 moveto 
1 -1 scale
(0.9) t 
GR
GR
GS
[0.75 0 0 0.75 380.25 284.50001] CT
0.149 GC
/Helvetica 13.333 F
GS
[1 0 0 1 0 0] CT
-4 14 moveto 
1 -1 scale
(1) t 
GR
GR
GS
[0.75 0 0 0.75 217.50016 298.24999] CT
0.149 GC
/Helvetica 14.667 F
GS
[1 0 0 1 0 0] CT
-33.5 16 moveto 
1 -1 scale
(Threshold) t 
GR
GR
GS
[0.75 0 0 0.75 0 0] CT
0.149 GC
2 setlinecap
1 LJ
0.667 LW
N
73 374 M
73 31 L
S
GR
GS
[0.75 0 0 0.75 0 0] CT
0.149 GC
2 setlinecap
1 LJ
0.667 LW
N
73 374 M
77.34 374 L
S
GR
GS
[0.75 0 0 0.75 0 0] CT
0.149 GC
2 setlinecap
1 LJ
0.667 LW
N
73 339.7 M
77.34 339.7 L
S
GR
GS
[0.75 0 0 0.75 0 0] CT
0.149 GC
2 setlinecap
1 LJ
0.667 LW
N
73 305.4 M
77.34 305.4 L
S
GR
GS
[0.75 0 0 0.75 0 0] CT
0.149 GC
2 setlinecap
1 LJ
0.667 LW
N
73 271.1 M
77.34 271.1 L
S
GR
GS
[0.75 0 0 0.75 0 0] CT
0.149 GC
2 setlinecap
1 LJ
0.667 LW
N
73 236.8 M
77.34 236.8 L
S
GR
GS
[0.75 0 0 0.75 0 0] CT
0.149 GC
2 setlinecap
1 LJ
0.667 LW
N
73 202.5 M
77.34 202.5 L
S
GR
GS
[0.75 0 0 0.75 0 0] CT
0.149 GC
2 setlinecap
1 LJ
0.667 LW
N
73 168.2 M
77.34 168.2 L
S
GR
GS
[0.75 0 0 0.75 0 0] CT
0.149 GC
2 setlinecap
1 LJ
0.667 LW
N
73 133.9 M
77.34 133.9 L
S
GR
GS
[0.75 0 0 0.75 0 0] CT
0.149 GC
2 setlinecap
1 LJ
0.667 LW
N
73 99.6 M
77.34 99.6 L
S
GR
GS
[0.75 0 0 0.75 0 0] CT
0.149 GC
2 setlinecap
1 LJ
0.667 LW
N
73 65.3 M
77.34 65.3 L
S
GR
GS
[0.75 0 0 0.75 0 0] CT
0.149 GC
2 setlinecap
1 LJ
0.667 LW
N
73 31 M
77.34 31 L
S
GR
GS
[0.75 0 0 0.75 50.75 280.5] CT
0.149 GC
/Helvetica 13.333 F
GS
[1 0 0 1 0 0] CT
-8 5.5 moveto 
1 -1 scale
(0) t 
GR
GR
GS
[0.75 0 0 0.75 50.75 254.77501] CT
0.149 GC
/Helvetica 13.333 F
GS
[1 0 0 1 0 0] CT
-19 5.5 moveto 
1 -1 scale
(0.1) t 
GR
GR
GS
[0.75 0 0 0.75 50.75 229.05] CT
0.149 GC
/Helvetica 13.333 F
GS
[1 0 0 1 0 0] CT
-19 5.5 moveto 
1 -1 scale
(0.2) t 
GR
GR
GS
[0.75 0 0 0.75 50.75 203.325] CT
0.149 GC
/Helvetica 13.333 F
GS
[1 0 0 1 0 0] CT
-19 5.5 moveto 
1 -1 scale
(0.3) t 
GR
GR
GS
[0.75 0 0 0.75 50.75 177.6] CT
0.149 GC
/Helvetica 13.333 F
GS
[1 0 0 1 0 0] CT
-19 5.5 moveto 
1 -1 scale
(0.4) t 
GR
GR
GS
[0.75 0 0 0.75 50.75 151.875] CT
0.149 GC
/Helvetica 13.333 F
GS
[1 0 0 1 0 0] CT
-19 5.5 moveto 
1 -1 scale
(0.5) t 
GR
GR
GS
[0.75 0 0 0.75 50.75 126.15] CT
0.149 GC
/Helvetica 13.333 F
GS
[1 0 0 1 0 0] CT
-19 5.5 moveto 
1 -1 scale
(0.6) t 
GR
GR
GS
[0.75 0 0 0.75 50.75 100.42501] CT
0.149 GC
/Helvetica 13.333 F
GS
[1 0 0 1 0 0] CT
-19 5.5 moveto 
1 -1 scale
(0.7) t 
GR
GR
GS
[0.75 0 0 0.75 50.75 74.7] CT
0.149 GC
/Helvetica 13.333 F
GS
[1 0 0 1 0 0] CT
-19 5.5 moveto 
1 -1 scale
(0.8) t 
GR
GR
GS
[0.75 0 0 0.75 50.75 48.97501] CT
0.149 GC
/Helvetica 13.333 F
GS
[1 0 0 1 0 0] CT
-19 5.5 moveto 
1 -1 scale
(0.9) t 
GR
GR
GS
[0.75 0 0 0.75 50.75 23.25] CT
0.149 GC
/Helvetica 13.333 F
GS
[1 0 0 1 0 0] CT
-8 5.5 moveto 
1 -1 scale
(1) t 
GR
GR
GS
[0 -0.75 0.75 0 33.5 151.87487] CT
0.149 GC
/Helvetica 14.667 F
GS
[1 0 0 1 0 0] CT
-130 -4 moveto 
1 -1 scale
(Fraction of successfully tracked frames) t 
GR
GR
GS
[0.75 0 0 0.75 0 0] CT
1 0 0 RC
1 LJ
2.667 LW
N
507 374 M
457.613 373.715 L
454.471 373.43 L
449.805 373.145 L
448.191 372.86 L
447.822 372.576 L
445.801 372.291 L
442.404 372.006 L
442.367 371.721 L
442.349 371.436 L
440.796 371.151 L
440.773 370.866 L
437.283 370.581 L
437.156 370.297 L
437.132 370.012 L
436.919 369.727 L
436.473 369.442 L
435.803 369.157 L
434.746 368.872 L
434.265 368.587 L
433.943 368.302 L
429.795 368.017 L
428.605 367.733 L
427.759 367.448 L
427.478 367.163 L
426.349 366.878 L
425.929 366.593 L
425.883 366.308 L
423.892 366.023 L
422.488 365.738 L
421.938 365.453 L
421.935 365.169 L
420.431 364.884 L
419.281 364.599 L
418.589 364.314 L
418.007 364.029 L
418.007 363.744 L
417.615 363.459 L
417.227 363.174 L
417.117 362.89 L
417.04 362.605 L
416.851 362.32 L
416.348 362.035 L
416.32 361.75 L
415.657 361.465 L
415.655 361.18 L
415.589 360.895 L
414.973 360.61 L
414.618 360.326 L
414.592 360.041 L
414.488 359.756 L
414.356 359.471 L
413.901 359.186 L
413.626 358.901 L
413.204 358.616 L
412.889 358.331 L
412.243 358.047 L
411.184 357.762 L
410.231 357.477 L
410.121 357.192 L
409.381 356.907 L
409.227 356.622 L
409.007 356.337 L
408.61 356.052 L
408.299 355.767 L
408.163 355.483 L
407.944 355.198 L
407.763 354.913 L
407.552 354.628 L
407.552 354.343 L
407.323 354.058 L
405.928 353.773 L
405.367 353.488 L
404.883 353.203 L
403.849 352.919 L
403.766 352.634 L
403.648 352.349 L
403.613 352.064 L
402.578 351.779 L
402.278 351.494 L
401.84 351.209 L
401.751 350.924 L
401.632 350.64 L
401.372 350.355 L
400.901 350.07 L
400.737 349.785 L
400.701 349.5 L
400.592 349.215 L
400.451 348.93 L
400.18 348.645 L
399.969 348.36 L
399.748 348.076 L
398.887 347.791 L
398.682 347.506 L
398.18 347.221 L
398.122 346.936 L
397.683 346.651 L
397.043 346.366 L
396.897 346.081 L
396.812 345.797 L
396.807 345.512 L
396.701 345.227 L
396.613 344.942 L
396.118 344.657 L
395.708 344.372 L
395.693 344.087 L
395.468 343.802 L
395.454 343.517 L
395.059 343.233 L
394.8 342.948 L
394.342 342.663 L
394.293 342.378 L
392.667 342.093 L
392.206 341.808 L
391.994 341.523 L
391.994 341.238 L
391.994 340.954 L
391.994 340.669 L
391.911 340.384 L
391.848 340.099 L
391.506 339.814 L
391.407 339.529 L
391.054 339.244 L
390.904 338.959 L
389.899 338.674 L
389.747 338.39 L
389.634 338.105 L
389.621 337.82 L
389.607 337.535 L
389.453 337.25 L
389.158 336.965 L
388.997 336.68 L
388.588 336.395 L
388.443 336.111 L
388.384 335.826 L
387.842 335.541 L
387.822 335.256 L
387.564 334.971 L
387.33 334.686 L
387.262 334.401 L
387.247 334.116 L
386.754 333.831 L
386.286 333.547 L
385.987 333.262 L
385.74 332.977 L
385.72 332.692 L
385.662 332.407 L
385.381 332.122 L
385.173 331.837 L
384.966 331.552 L
384.706 331.267 L
384.464 330.983 L
384.04 330.698 L
384.019 330.413 L
383.679 330.128 L
383.485 329.843 L
383.165 329.558 L
383.086 329.273 L
382.76 328.988 L
382.702 328.704 L
382.66 328.419 L
382.551 328.134 L
382.469 327.849 L
382.228 327.564 L
381.807 327.279 L
381.736 326.994 L
381.729 326.709 L
381.396 326.424 L
381.191 326.14 L
380.773 325.855 L
380.62 325.57 L
380.379 325.285 L
379.952 325 L
379.814 324.715 L
379.615 324.43 L
379.531 324.145 L
379.491 323.861 L
379.449 323.576 L
379.432 323.291 L
379.413 323.006 L
379.241 322.721 L
378.927 322.436 L
378.362 322.151 L
378.242 321.866 L
378.212 321.581 L
378.157 321.297 L
378.143 321.012 L
378.046 320.727 L
378.005 320.442 L
377.998 320.157 L
376.983 319.872 L
376.644 319.587 L
376.633 319.302 L
376.568 319.017 L
376.461 318.733 L
376.379 318.448 L
376.349 318.163 L
376.102 317.878 L
376.044 317.593 L
375.942 317.308 L
375.746 317.023 L
375.651 316.738 L
375.471 316.454 L
375.44 316.169 L
374.807 315.884 L
374.592 315.599 L
374.518 315.314 L
374.473 315.029 L
374.329 314.744 L
374.287 314.459 L
374.202 314.174 L
374.197 313.89 L
374.129 313.605 L
374.09 313.32 L
374.025 313.035 L
373.94 312.75 L
373.762 312.465 L
373.709 312.18 L
373.446 311.895 L
373.376 311.611 L
373.024 311.326 L
372.837 311.041 L
372.494 310.756 L
372.452 310.471 L
372.441 310.186 L
372.127 309.901 L
372.038 309.616 L
372.019 309.331 L
371.881 309.047 L
371.804 308.762 L
371.524 308.477 L
371.219 308.192 L
370.948 307.907 L
370.908 307.622 L
370.721 307.337 L
370.44 307.052 L
370.438 306.767 L
370.274 306.483 L
370.255 306.198 L
370.134 305.913 L
369.919 305.628 L
369.865 305.343 L
369.803 305.058 L
369.783 304.773 L
369.709 304.488 L
369.62 304.204 L
369.585 303.919 L
369.579 303.634 L
369.167 303.349 L
369.131 303.064 L
369.104 302.779 L
368.992 302.494 L
368.778 302.209 L
368.292 301.924 L
368.172 301.64 L
368.07 301.355 L
368.07 301.07 L
368.061 300.785 L
367.866 300.5 L
367.555 300.215 L
367.424 299.93 L
367.178 299.645 L
367.102 299.361 L
367.079 299.076 L
366.912 298.791 L
366.903 298.506 L
366.813 298.221 L
366.543 297.936 L
366.5 297.651 L
366.289 297.366 L
366.146 297.081 L
365.907 296.797 L
365.653 296.512 L
365.482 296.227 L
365.364 295.942 L
365.356 295.657 L
365.296 295.372 L
365.278 295.087 L
365.132 294.802 L
365.046 294.517 L
364.861 294.233 L
364.746 293.948 L
364.7 293.663 L
364.57 293.378 L
364.384 293.093 L
364.38 292.808 L
364.28 292.523 L
363.957 292.238 L
363.516 291.954 L
363.466 291.669 L
363.183 291.384 L
363.142 291.099 L
363.111 290.814 L
363.088 290.529 L
362.903 290.244 L
362.881 289.959 L
362.867 289.674 L
362.817 289.39 L
362.815 289.105 L
362.485 288.82 L
362.429 288.535 L
362.313 288.25 L
362.301 287.965 L
362.076 287.68 L
362.057 287.395 L
361.71 287.111 L
360.981 286.826 L
360.61 286.541 L
360.522 286.256 L
360.473 285.971 L
360.095 285.686 L
360.095 285.401 L
360.095 285.116 L
359.858 284.831 L
359.755 284.547 L
359.699 284.262 L
359.584 283.977 L
359.557 283.692 L
359.302 283.407 L
359.024 283.122 L
358.916 282.837 L
358.416 282.552 L
358.365 282.267 L
358.308 281.983 L
358.076 281.698 L
358.005 281.413 L
357.92 281.128 L
357.829 280.843 L
357.81 280.558 L
357.778 280.273 L
357.775 279.988 L
357.617 279.704 L
357.595 279.419 L
357.579 279.134 L
357.411 278.849 L
357.306 278.564 L
356.861 278.279 L
356.74 277.994 L
356.513 277.709 L
356.294 277.424 L
355.506 277.14 L
355.467 276.855 L
355.367 276.57 L
355.309 276.285 L
355.284 276 L
355.247 275.715 L
355.185 275.43 L
355.064 275.145 L
355.036 274.861 L
354.946 274.576 L
354.709 274.291 L
354.649 274.006 L
354.548 273.721 L
354.541 273.436 L
354.511 273.151 L
354.479 272.866 L
354.431 272.581 L
354.404 272.297 L
354.154 272.012 L
353.963 271.727 L
353.938 271.442 L
353.536 271.157 L
353.449 270.872 L
353.427 270.587 L
353.411 270.302 L
353.283 270.018 L
353.132 269.733 L
352.759 269.448 L
352.569 269.163 L
352.54 268.878 L
352.511 268.593 L
352.385 268.308 L
352.378 268.023 L
352.334 267.738 L
352.293 267.454 L
352.138 267.169 L
352.078 266.884 L
352.077 266.599 L
351.914 266.314 L
351.908 266.029 L
351.709 265.744 L
351.673 265.459 L
351.559 265.174 L
351.373 264.89 L
351.288 264.605 L
351.28 264.32 L
351.28 264.035 L
351.28 263.75 L
351.28 263.465 L
351.28 263.18 L
351.033 262.895 L
350.809 262.611 L
350.751 262.326 L
350.692 262.041 L
350.415 261.756 L
350.36 261.471 L
350.204 261.186 L
349.959 260.901 L
349.88 260.616 L
349.862 260.331 L
349.789 260.047 L
349.753 259.762 L
349.658 259.477 L
349.382 259.192 L
349.368 258.907 L
348.971 258.622 L
348.84 258.337 L
348.798 258.052 L
348.774 257.768 L
348.603 257.483 L
348.591 257.198 L
348.434 256.913 L
348.175 256.628 L
347.943 256.343 L
347.865 256.058 L
347.636 255.773 L
347.347 255.488 L
347.296 255.204 L
347.198 254.919 L
346.78 254.634 L
346.715 254.349 L
346.665 254.064 L
346.42 253.779 L
346.347 253.494 L
346.241 253.209 L
346.147 252.924 L
346.14 252.64 L
346.063 252.355 L
345.713 252.07 L
345.695 251.785 L
345.648 251.5 L
345.579 251.215 L
345.544 250.93 L
345.45 250.645 L
345.419 250.361 L
345.417 250.076 L
345.201 249.791 L
344.985 249.506 L
344.971 249.221 L
344.652 248.936 L
344.452 248.651 L
344.416 248.366 L
344.253 248.081 L
344.145 247.797 L
344.145 247.512 L
344.145 247.227 L
344.145 246.942 L
344.145 246.657 L
344.145 246.372 L
344.145 246.087 L
344.122 245.802 L
343.976 245.518 L
343.934 245.233 L
343.408 244.948 L
343.375 244.663 L
343.157 244.378 L
342.93 244.093 L
342.845 243.808 L
342.646 243.523 L
342.549 243.238 L
341.938 242.954 L
341.773 242.669 L
341.733 242.384 L
341.648 242.099 L
341.452 241.814 L
340.966 241.529 L
340.825 241.244 L
340.788 240.959 L
339.974 240.674 L
339.794 240.39 L
339.68 240.105 L
339.672 239.82 L
339.467 239.535 L
339.189 239.25 L
339.162 238.965 L
338.931 238.68 L
338.712 238.395 L
338.516 238.111 L
338.436 237.826 L
338.347 237.541 L
338.276 237.256 L
338.074 236.971 L
337.436 236.686 L
337.32 236.401 L
337.01 236.116 L
336.976 235.831 L
336.84 235.547 L
336.645 235.262 L
336.609 234.977 L
336.526 234.692 L
336.514 234.407 L
336.479 234.122 L
336.156 233.837 L
335.723 233.552 L
335.668 233.268 L
335.152 232.983 L
335.042 232.698 L
334.911 232.413 L
334.738 232.128 L
334.578 231.843 L
333.884 231.558 L
333.715 231.273 L
333.69 230.988 L
333.688 230.704 L
333.656 230.419 L
333.135 230.134 L
332.938 229.849 L
332.909 229.564 L
332.59 229.279 L
332.493 228.994 L
332.465 228.709 L
332.128 228.425 L
331.958 228.14 L
331.822 227.855 L
331.306 227.57 L
330.605 227.285 L
330.515 227 L
330.381 226.715 L
329.715 226.43 L
329.242 226.145 L
329.157 225.861 L
328.902 225.576 L
328.754 225.291 L
328.695 225.006 L
328.3 224.721 L
328.287 224.436 L
328.195 224.151 L
328.195 223.866 L
328.195 223.581 L
328.195 223.297 L
328.028 223.012 L
327.854 222.727 L
327.682 222.442 L
327.567 222.157 L
327.337 221.872 L
327.256 221.587 L
326.796 221.302 L
326.55 221.018 L
326.396 220.733 L
325.326 220.448 L
324.861 220.163 L
324.574 219.878 L
324.521 219.593 L
324.494 219.308 L
324.212 219.023 L
324.164 218.738 L
323.707 218.454 L
323.162 218.169 L
322.97 217.884 L
322.786 217.599 L
322.618 217.314 L
322.516 217.029 L
321.768 216.744 L
321.748 216.459 L
321.48 216.175 L
321.48 215.89 L
321.48 215.605 L
321.064 215.32 L
319.788 215.035 L
319.404 214.75 L
319.03 214.465 L
318.435 214.18 L
318.372 213.895 L
318.166 213.611 L
318.153 213.326 L
317.971 213.041 L
317.103 212.756 L
316.92 212.471 L
316.719 212.186 L
316.707 211.901 L
316.137 211.616 L
316.115 211.332 L
316.077 211.047 L
315.937 210.762 L
315.92 210.477 L
315.848 210.192 L
315.285 209.907 L
314.998 209.622 L
314.64 209.337 L
313.735 209.052 L
313.611 208.768 L
313.575 208.483 L
312.576 208.198 L
311.075 207.913 L
311.014 207.628 L
310.991 207.343 L
310.752 207.058 L
309.703 206.773 L
309.414 206.488 L
309.096 206.204 L
308.934 205.919 L
308.602 205.634 L
308.585 205.349 L
308.49 205.064 L
307.999 204.779 L
307.963 204.494 L
307.707 204.209 L
307.284 203.925 L
306.626 203.64 L
306.594 203.355 L
306.533 203.07 L
306.516 202.785 L
305.95 202.5 L
305.429 202.215 L
304.705 201.93 L
304.573 201.645 L
303.93 201.361 L
303.691 201.076 L
303.308 200.791 L
302.608 200.506 L
302.16 200.221 L
301.828 199.936 L
301.598 199.651 L
301.196 199.366 L
300.334 199.082 L
299.892 198.797 L
299.654 198.512 L
299.07 198.227 L
298.701 197.942 L
298.681 197.657 L
298.34 197.372 L
298.203 197.087 L
297.025 196.802 L
295.936 196.518 L
295.906 196.233 L
295.769 195.948 L
295.151 195.663 L
295.148 195.378 L
294.955 195.093 L
294.524 194.808 L
293.861 194.523 L
293.32 194.238 L
293.041 193.954 L
292.262 193.669 L
292.1 193.384 L
290.918 193.099 L
290.07 192.814 L
290 192.529 L
289.624 192.244 L
289.52 191.959 L
289.376 191.675 L
285.614 191.39 L
285.103 191.105 L
284.266 190.82 L
284.021 190.535 L
282.893 190.25 L
279.315 189.965 L
279.197 189.68 L
278.963 189.395 L
277.883 189.111 L
277.599 188.826 L
277.526 188.541 L
276.606 188.256 L
276.192 187.971 L
276.176 187.686 L
275.846 187.401 L
275.7 187.116 L
275.611 186.832 L
275.478 186.547 L
275.124 186.262 L
274.301 185.977 L
274.161 185.692 L
273.496 185.407 L
272.693 185.122 L
272.613 184.837 L
272.385 184.552 L
272.224 184.268 L
272.102 183.983 L
272.101 183.698 L
271.783 183.413 L
271.132 183.128 L
270.688 182.843 L
270.563 182.558 L
270.513 182.273 L
269.934 181.989 L
269.598 181.704 L
269.541 181.419 L
269 181.134 L
268.834 180.849 L
268.332 180.564 L
268.164 180.279 L
267.959 179.994 L
267.921 179.709 L
267.541 179.425 L
267.069 179.14 L
266.9 178.855 L
265.904 178.57 L
265.61 178.285 L
265.6 178 L
264.918 177.715 L
264.9 177.43 L
264.63 177.145 L
263.151 176.861 L
262.665 176.576 L
262.176 176.291 L
261.775 176.006 L
261.742 175.721 L
261.518 175.436 L
261.019 175.151 L
260.756 174.866 L
260.562 174.582 L
260.416 174.297 L
260.237 174.012 L
260.218 173.727 L
259.926 173.442 L
259.784 173.157 L
259.115 172.872 L
258.994 172.587 L
258.387 172.302 L
258.331 172.018 L
257.212 171.733 L
256.598 171.448 L
256.574 171.163 L
255.374 170.878 L
255.366 170.593 L
255.186 170.308 L
255.079 170.023 L
255.071 169.739 L
254.681 169.454 L
253.452 169.169 L
253.375 168.884 L
253.115 168.599 L
253.019 168.314 L
252.761 168.029 L
252.6 167.744 L
252.512 167.459 L
252.386 167.175 L
251.979 166.89 L
251.678 166.605 L
251.423 166.32 L
250.649 166.035 L
250.551 165.75 L
250.497 165.465 L
250.29 165.18 L
250.032 164.895 L
249.897 164.611 L
249.662 164.326 L
249.527 164.041 L
249.204 163.756 L
249.188 163.471 L
249.17 163.186 L
249.153 162.901 L
248.86 162.616 L
248.127 162.332 L
247.326 162.047 L
246.82 161.762 L
246.728 161.477 L
246.488 161.192 L
246.123 160.907 L
246.022 160.622 L
245.917 160.337 L
245.832 160.052 L
245.363 159.768 L
245.272 159.483 L
245.023 159.198 L
244.932 158.913 L
244.285 158.628 L
244.027 158.343 L
243.355 158.058 L
242.227 157.773 L
242.205 157.489 L
242.171 157.204 L
241.417 156.919 L
241.305 156.634 L
240.637 156.349 L
240.567 156.064 L
240.402 155.779 L
239.945 155.494 L
239.751 155.209 L
239.144 154.925 L
239.03 154.64 L
238.797 154.355 L
238.651 154.07 L
238.191 153.785 L
237.998 153.5 L
237.226 153.215 L
237.057 152.93 L
236.669 152.646 L
236.564 152.361 L
236.384 152.076 L
235.947 151.791 L
235.857 151.506 L
235.713 151.221 L
235.609 150.936 L
235.572 150.651 L
235.39 150.366 L
235.297 150.082 L
234.764 149.797 L
234.733 149.512 L
234.695 149.227 L
234.629 148.942 L
232.622 148.657 L
232.384 148.372 L
232.377 148.087 L
232.368 147.802 L
231.86 147.518 L
231.584 147.233 L
231.066 146.948 L
230.803 146.663 L
229.087 146.378 L
228.846 146.093 L
228.467 145.808 L
228.44 145.523 L
228.437 145.239 L
228.197 144.954 L
227.99 144.669 L
227.843 144.384 L
227.702 144.099 L
227.571 143.814 L
226.641 143.529 L
226.174 143.244 L
226.01 142.959 L
225.014 142.675 L
224.661 142.39 L
224.592 142.105 L
224.293 141.82 L
223.812 141.535 L
223.783 141.25 L
223.75 140.965 L
222.912 140.68 L
221.466 140.396 L
221.453 140.111 L
220.238 139.826 L
220.119 139.541 L
220.043 139.256 L
219.804 138.971 L
218.662 138.686 L
218.504 138.401 L
218.089 138.116 L
217.629 137.832 L
217.527 137.547 L
217.467 137.262 L
217.379 136.977 L
217.145 136.692 L
216.899 136.407 L
216.402 136.122 L
216.11 135.837 L
215.934 135.552 L
215.785 135.268 L
215.642 134.983 L
215.63 134.698 L
215.487 134.413 L
214.734 134.128 L
214.368 133.843 L
214.266 133.558 L
214.214 133.273 L
213.898 132.989 L
213.693 132.704 L
213.571 132.419 L
212.813 132.134 L
212.697 131.849 L
212.673 131.564 L
212.673 131.279 L
212.619 130.994 L
212.401 130.709 L
212.241 130.425 L
211.425 130.14 L
211.286 129.855 L
210.108 129.57 L
210.086 129.285 L
210.051 129 L
209.927 128.715 L
209.914 128.43 L
209.154 128.146 L
208.725 127.861 L
207.531 127.576 L
207.4 127.291 L
207.209 127.006 L
206.962 126.721 L
205.289 126.436 L
203.482 126.151 L
203.219 125.866 L
202.229 125.582 L
202.217 125.297 L
202.122 125.012 L
201.825 124.727 L
201.026 124.442 L
200.979 124.157 L
200.93 123.872 L
200.848 123.587 L
200.788 123.302 L
200.67 123.018 L
200.436 122.733 L
200.028 122.448 L
199.938 122.163 L
199.709 121.878 L
199.672 121.593 L
199.174 121.308 L
199.144 121.023 L
198.874 120.739 L
198.451 120.454 L
198.198 120.169 L
197.206 119.884 L
196.196 119.599 L
195.973 119.314 L
195.835 119.029 L
195.777 118.744 L
195.587 118.459 L
194.753 118.175 L
194.161 117.89 L
193.544 117.605 L
193.224 117.32 L
193.107 117.035 L
192.585 116.75 L
192.348 116.465 L
191.859 116.18 L
191.786 115.896 L
191.269 115.611 L
191.244 115.326 L
191.197 115.041 L
190.89 114.756 L
190.528 114.471 L
190.109 114.186 L
189.248 113.901 L
188.947 113.616 L
188.8 113.332 L
188.577 113.047 L
188.523 112.762 L
188.373 112.477 L
188.159 112.192 L
188.007 111.907 L
187.143 111.622 L
186.483 111.337 L
186.451 111.053 L
186.342 110.768 L
186.06 110.483 L
185.89 110.198 L
185.552 109.913 L
185.311 109.628 L
184.852 109.343 L
184.698 109.058 L
184.196 108.773 L
183.888 108.489 L
183.803 108.204 L
183.779 107.919 L
183.092 107.634 L
182.94 107.349 L
182.734 107.064 L
181.999 106.779 L
181.885 106.494 L
180.918 106.209 L
180.831 105.925 L
180.785 105.64 L
180.5 105.355 L
180.052 105.07 L
179.894 104.785 L
178.644 104.5 L
178.091 104.215 L
177.629 103.93 L
177.629 103.646 L
177.62 103.361 L
177.211 103.076 L
177.036 102.791 L
176.958 102.506 L
176.922 102.221 L
176.695 101.936 L
176.692 101.651 L
176.289 101.366 L
176.071 101.082 L
175.849 100.797 L
175.554 100.512 L
174.691 100.227 L
174.541 99.942 L
174.536 99.657 L
174.412 99.372 L
174.198 99.087 L
173.961 98.803 L
173.829 98.518 L
173.497 98.233 L
173.308 97.948 L
173.152 97.663 L
172.556 97.378 L
172.216 97.093 L
172.112 96.808 L
171.61 96.523 L
171.436 96.239 L
171.064 95.954 L
170.68 95.669 L
170.632 95.384 L
170.565 95.099 L
170.561 94.814 L
170.411 94.529 L
170.075 94.244 L
169.77 93.959 L
169.687 93.675 L
169.633 93.39 L
169.622 93.105 L
169.566 92.82 L
169.339 92.535 L
168.849 92.25 L
168.729 91.965 L
168.727 91.68 L
168.703 91.396 L
168.608 91.111 L
168.607 90.826 L
168.593 90.541 L
168.559 90.256 L
168.502 89.971 L
168.383 89.686 L
168.342 89.401 L
168.319 89.116 L
168.247 88.832 L
167.939 88.547 L
167.779 88.262 L
167.766 87.977 L
167.655 87.692 L
167.589 87.407 L
167.587 87.122 L
167.422 86.837 L
167.268 86.553 L
167.053 86.268 L
166.925 85.983 L
166.862 85.698 L
166.719 85.413 L
166.314 85.128 L
166.233 84.843 L
166.02 84.558 L
165.648 84.273 L
165.474 83.989 L
165.196 83.704 L
164.868 83.419 L
164.818 83.134 L
164.488 82.849 L
164.259 82.564 L
164.175 82.279 L
164.038 81.994 L
163.855 81.709 L
163.687 81.425 L
163.666 81.14 L
163.264 80.855 L
163.178 80.57 L
163.143 80.285 L
163.09 80 L
163.053 79.715 L
162.492 79.43 L
162.249 79.146 L
162.241 78.861 L
162.159 78.576 L
162.123 78.291 L
161.77 78.006 L
161.728 77.721 L
161.688 77.436 L
161.363 77.151 L
161.346 76.866 L
161.274 76.582 L
161.244 76.297 L
161.243 76.012 L
161.095 75.727 L
161.058 75.442 L
161.044 75.157 L
161.008 74.872 L
159.917 74.587 L
159.042 74.303 L
158.669 74.018 L
158.319 73.733 L
158.196 73.448 L
158.085 73.163 L
157.973 72.878 L
157.912 72.593 L
157.132 72.308 L
156.664 72.023 L
156.51 71.739 L
156.228 71.454 L
155.681 71.169 L
155.629 70.884 L
155.366 70.599 L
155.23 70.314 L
154.611 70.029 L
154.558 69.744 L
154.305 69.46 L
153.818 69.175 L
153.479 68.89 L
152.832 68.605 L
152.745 68.32 L
152.744 68.035 L
152.364 67.75 L
152.331 67.465 L
151.983 67.18 L
151.931 66.896 L
151.582 66.611 L
151.153 66.326 L
150.449 66.041 L
150.033 65.756 L
149.722 65.471 L
149.328 65.186 L
148.977 64.901 L
148.883 64.616 L
148.864 64.332 L
148.312 64.047 L
147.172 63.762 L
146.766 63.477 L
146.542 63.192 L
146.172 62.907 L
146.153 62.622 L
145.424 62.337 L
145.333 62.053 L
145.061 61.768 L
144.908 61.483 L
143.846 61.198 L
143.264 60.913 L
143.055 60.628 L
142.881 60.343 L
142.349 60.058 L
141.999 59.773 L
141.74 59.489 L
141.736 59.204 L
141.346 58.919 L
140.602 58.634 L
140.551 58.349 L
140.391 58.064 L
140.315 57.779 L
139.592 57.494 L
139.539 57.21 L
138.515 56.925 L
138.43 56.64 L
138.009 56.355 L
137.289 56.07 L
136.134 55.785 L
134.624 55.5 L
134.491 55.215 L
134.117 54.93 L
133.912 54.646 L
133.68 54.361 L
133.265 54.076 L
132.675 53.791 L
132.179 53.506 L
132.025 53.221 L
131.952 52.936 L
131.754 52.651 L
131.351 52.366 L
131.264 52.082 L
131.151 51.797 L
131.118 51.512 L
131.107 51.227 L
131.1 50.942 L
130.702 50.657 L
130.698 50.372 L
130.68 50.087 L
130.606 49.803 L
130.591 49.518 L
130.283 49.233 L
129.706 48.948 L
129.221 48.663 L
129.178 48.378 L
129.134 48.093 L
129.026 47.808 L
128.982 47.523 L
128.878 47.239 L
128.753 46.954 L
128.565 46.669 L
128.155 46.384 L
128.133 46.099 L
128.064 45.814 L
127.732 45.529 L
127.626 45.244 L
127.363 44.96 L
127.027 44.675 L
126.591 44.39 L
126.089 44.105 L
125.729 43.82 L
125.466 43.535 L
125.313 43.25 L
124.846 42.965 L
122.82 42.68 L
122.759 42.396 L
121.506 42.111 L
121.448 41.826 L
121.248 41.541 L
121.159 41.256 L
121.124 40.971 L
120.691 40.686 L
120.39 40.401 L
119.704 40.117 L
119.674 39.832 L
119.374 39.547 L
118.701 39.262 L
118.561 38.977 L
118.508 38.692 L
118.506 38.407 L
118.264 38.122 L
118.205 37.837 L
118.004 37.553 L
117.713 37.268 L
116.563 36.983 L
116.451 36.698 L
116.185 36.413 L
115.301 36.128 L
112.164 35.843 L
111.21 35.558 L
111.132 35.273 L
111.011 34.989 L
107.387 34.704 L
106.709 34.419 L
106.556 34.134 L
105.848 33.849 L
102.387 33.564 L
101.092 33.279 L
99.335 32.994 L
98.317 32.71 L
97.137 32.425 L
96.832 32.14 L
94.772 31.855 L
94.044 31.57 L
93.452 31.285 L
87.052 31 L
73 31 L
S
GR
GS
[0.75 0 0 0.75 0 0] CT
0 1 0 RC
[8 2 4 2] 0 setdash
2 LJ
2.667 LW
N
507 374 M
488.532 373.712 L
488.333 373.424 L
486.09 373.136 L
476.911 372.848 L
474.616 372.56 L
469.667 372.272 L
466.218 371.984 L
466.218 371.696 L
466.111 371.408 L
465.691 371.12 L
465.691 370.832 L
465.691 370.544 L
463.141 370.256 L
461.316 369.968 L
460.83 369.68 L
460.83 369.392 L
460.83 369.104 L
458.778 368.816 L
458.004 368.528 L
456.766 368.24 L
456.766 367.952 L
454.991 367.664 L
454.471 367.376 L
454.471 367.088 L
454.471 366.8 L
454.471 366.512 L
454.471 366.224 L
454.471 365.936 L
453.118 365.648 L
451.98 365.36 L
451.98 365.072 L
451.98 364.784 L
451.98 364.496 L
451.98 364.208 L
451.971 363.92 L
449.133 363.632 L
447.841 363.344 L
447.841 363.056 L
445.801 362.768 L
445.801 362.48 L
445 362.192 L
445 361.904 L
445 361.616 L
445 361.328 L
445 361.04 L
444.065 360.752 L
443.708 360.464 L
443.708 360.176 L
443.708 359.888 L
443.708 359.6 L
443.708 359.312 L
443.112 359.024 L
443.112 358.736 L
443.112 358.448 L
443.112 358.16 L
443.112 357.872 L
443.112 357.584 L
439.489 357.296 L
439.489 357.008 L
439.489 356.72 L
438.5 356.432 L
437.823 356.144 L
437.823 355.856 L
437.132 355.568 L
437.132 355.28 L
437.132 354.992 L
437.132 354.704 L
437.132 354.416 L
436.859 354.128 L
436.85 353.84 L
436.85 353.552 L
436.85 353.264 L
436.85 352.977 L
436.85 352.689 L
436.85 352.401 L
436.85 352.113 L
436.85 351.825 L
436.85 351.537 L
435.737 351.249 L
435.737 350.961 L
435.737 350.673 L
435.737 350.385 L
435.737 350.097 L
435.608 349.809 L
435.608 349.521 L
435.421 349.233 L
435.421 348.945 L
435.421 348.657 L
435.421 348.369 L
435.421 348.081 L
435.421 347.793 L
435.421 347.505 L
434.837 347.217 L
434.837 346.929 L
434.226 346.641 L
434.226 346.353 L
434.226 346.065 L
434.226 345.777 L
434.226 345.489 L
434.226 345.201 L
434.226 344.913 L
431.05 344.625 L
430.763 344.337 L
430.763 344.049 L
429.844 343.761 L
429.844 343.473 L
429.844 343.185 L
428.699 342.897 L
428.668 342.609 L
428.668 342.321 L
428.668 342.033 L
428.668 341.745 L
428.668 341.457 L
428.668 341.169 L
428.668 340.881 L
428.668 340.593 L
428.668 340.305 L
428.668 340.017 L
428.668 339.729 L
428.668 339.441 L
428.668 339.153 L
428.668 338.865 L
428.668 338.577 L
428.462 338.289 L
428.462 338.001 L
428.462 337.713 L
428.462 337.425 L
428.462 337.137 L
428.462 336.849 L
427.404 336.561 L
427.404 336.273 L
427.404 335.985 L
427.123 335.697 L
427.109 335.409 L
427.109 335.121 L
427.109 334.833 L
427.109 334.545 L
427.109 334.257 L
427.109 333.969 L
427.109 333.681 L
426.422 333.393 L
426.422 333.105 L
426.422 332.817 L
426.422 332.529 L
426.422 332.241 L
426.103 331.953 L
426.103 331.665 L
425.321 331.377 L
425.321 331.089 L
424.892 330.801 L
422.882 330.513 L
422.037 330.225 L
422.037 329.937 L
422.037 329.649 L
420.661 329.361 L
420.661 329.073 L
420.661 328.785 L
420.661 328.497 L
420.455 328.209 L
420.455 327.921 L
420.455 327.633 L
420.455 327.345 L
420.455 327.057 L
420.455 326.769 L
420.455 326.481 L
420.455 326.193 L
420.455 325.905 L
420.2 325.617 L
419.792 325.329 L
419.792 325.041 L
419.792 324.753 L
419.792 324.465 L
419.524 324.177 L
419.153 323.889 L
419.066 323.601 L
419.066 323.313 L
419.066 323.025 L
419.066 322.737 L
418.773 322.449 L
418.773 322.161 L
418.773 321.873 L
418.773 321.585 L
418.773 321.297 L
418.757 321.009 L
418.757 320.721 L
418.103 320.433 L
418.007 320.145 L
418.007 319.857 L
418.007 319.569 L
418.007 319.281 L
418.007 318.993 L
418.007 318.705 L
418.007 318.417 L
418.007 318.129 L
418.007 317.841 L
418.007 317.553 L
418.007 317.265 L
418.007 316.977 L
418.007 316.689 L
418.007 316.401 L
417.804 316.113 L
417.024 315.825 L
417.024 315.537 L
417.024 315.249 L
416.925 314.961 L
416.925 314.673 L
416.399 314.385 L
415.712 314.097 L
415.712 313.809 L
415.712 313.521 L
415.712 313.233 L
415.712 312.945 L
415.712 312.657 L
415.712 312.369 L
415.712 312.081 L
415.712 311.793 L
415.712 311.505 L
415.712 311.217 L
415.712 310.93 L
414.301 310.642 L
414.244 310.354 L
412.852 310.066 L
412.367 309.778 L
412.345 309.49 L
412.209 309.202 L
412.209 308.914 L
412.209 308.626 L
412.209 308.338 L
412.209 308.05 L
411.52 307.762 L
411.445 307.474 L
411.445 307.186 L
411.279 306.898 L
410.82 306.61 L
410.527 306.322 L
410.411 306.034 L
410.411 305.746 L
410.411 305.458 L
409.947 305.17 L
409.592 304.882 L
409.592 304.594 L
409.592 304.306 L
409.592 304.018 L
409.592 303.73 L
409.592 303.442 L
409.592 303.154 L
409.592 302.866 L
409.592 302.578 L
408.643 302.29 L
408.544 302.002 L
407.766 301.714 L
407.731 301.426 L
407.695 301.138 L
407.695 300.85 L
407.695 300.562 L
407.695 300.274 L
407.695 299.986 L
407.695 299.698 L
407.552 299.41 L
407.552 299.122 L
407.552 298.834 L
407.552 298.546 L
407.552 298.258 L
407.552 297.97 L
407.552 297.682 L
407.552 297.394 L
407.552 297.106 L
407.552 296.818 L
407.552 296.53 L
407.552 296.242 L
407.552 295.954 L
407.552 295.666 L
407.552 295.378 L
407.552 295.09 L
407.552 294.802 L
407.552 294.514 L
407.552 294.226 L
407.552 293.938 L
407.552 293.65 L
407.552 293.362 L
407.552 293.074 L
406.604 292.786 L
406.604 292.498 L
406.469 292.21 L
406.221 291.922 L
406.221 291.634 L
406.221 291.346 L
405.923 291.058 L
405.767 290.77 L
405.767 290.482 L
405.002 290.194 L
405.002 289.906 L
405.002 289.618 L
405.002 289.33 L
405.002 289.042 L
404.585 288.754 L
404.585 288.466 L
404.413 288.178 L
404.249 287.89 L
403.162 287.602 L
403.162 287.314 L
402.919 287.026 L
402.919 286.738 L
402.344 286.45 L
402.025 286.162 L
402.025 285.874 L
402.025 285.586 L
402.025 285.298 L
401.942 285.01 L
401.378 284.722 L
401.378 284.434 L
401.378 284.146 L
401.378 283.858 L
401.177 283.57 L
401.177 283.282 L
400.558 282.994 L
400.395 282.706 L
400.395 282.418 L
399.392 282.13 L
399.392 281.842 L
399.392 281.554 L
399.392 281.266 L
399.392 280.978 L
399.392 280.69 L
399.392 280.402 L
399.392 280.114 L
399.392 279.826 L
399.392 279.538 L
399.392 279.25 L
399.392 278.962 L
399.392 278.674 L
399.392 278.386 L
399.392 278.098 L
399.392 277.81 L
399.392 277.522 L
399.392 277.234 L
399.05 276.946 L
399.009 276.658 L
398.5 276.37 L
397.71 276.082 L
397.486 275.794 L
397.098 275.506 L
397.098 275.218 L
397.098 274.93 L
397.098 274.642 L
397.098 274.354 L
396.965 274.066 L
396.453 273.778 L
395.859 273.49 L
395.859 273.202 L
395.859 272.914 L
395.859 272.626 L
395.859 272.338 L
395.839 272.05 L
395.839 271.762 L
395.839 271.474 L
395.522 271.186 L
395.4 270.898 L
395.339 270.61 L
395.298 270.323 L
395.298 270.034 L
395.298 269.746 L
394.293 269.459 L
394.293 269.171 L
394.293 268.883 L
394.293 268.595 L
393.973 268.307 L
393.869 268.019 L
393.869 267.731 L
393.783 267.443 L
392.863 267.155 L
392.863 266.867 L
392.763 266.579 L
391.757 266.291 L
391.233 266.003 L
391.233 265.715 L
391.233 265.427 L
391.233 265.139 L
391.233 264.851 L
391.233 264.563 L
391.233 264.275 L
391.233 263.987 L
391.233 263.699 L
391.233 263.411 L
391.233 263.123 L
391.233 262.835 L
391.233 262.547 L
390.978 262.259 L
390.978 261.971 L
390.978 261.683 L
390.978 261.395 L
390.154 261.107 L
390.154 260.819 L
389.601 260.531 L
389.193 260.243 L
389.193 259.955 L
389.193 259.667 L
389.193 259.379 L
389.193 259.091 L
389.193 258.803 L
389.193 258.515 L
389.193 258.227 L
389.193 257.939 L
389.193 257.651 L
389.193 257.363 L
389.141 257.075 L
389.092 256.787 L
388.636 256.499 L
388.625 256.211 L
388.131 255.923 L
388.131 255.635 L
387.564 255.347 L
387.443 255.059 L
387.153 254.771 L
387.133 254.483 L
387.133 254.195 L
387.133 253.907 L
386.643 253.619 L
386.643 253.331 L
386.633 253.043 L
386.375 252.755 L
386.331 252.467 L
385.735 252.179 L
385.735 251.891 L
385.422 251.603 L
385.296 251.315 L
385.296 251.027 L
385.039 250.739 L
384.625 250.451 L
384.625 250.163 L
383.437 249.875 L
383.073 249.587 L
383.073 249.299 L
383.073 249.011 L
383.073 248.723 L
382.29 248.435 L
382.225 248.147 L
382.225 247.859 L
381.396 247.571 L
381.288 247.283 L
380.107 246.995 L
380.013 246.707 L
380.013 246.419 L
379.903 246.131 L
379.473 245.843 L
378.993 245.555 L
378.993 245.267 L
378.993 244.979 L
378.993 244.691 L
378.993 244.403 L
378.867 244.115 L
377.973 243.827 L
377.493 243.539 L
377.489 243.251 L
377.489 242.963 L
377.489 242.675 L
377.489 242.387 L
377.489 242.099 L
377.146 241.811 L
377.146 241.523 L
377.146 241.235 L
377.128 240.947 L
375.25 240.659 L
375.044 240.371 L
374.463 240.083 L
374.44 239.795 L
373.384 239.507 L
373.384 239.219 L
373.383 238.931 L
372.813 238.643 L
372.413 238.355 L
372.259 238.067 L
371.343 237.779 L
371.343 237.491 L
371.343 237.203 L
371.343 236.915 L
371.343 236.627 L
371.343 236.339 L
371.11 236.051 L
370.665 235.763 L
370.6 235.475 L
370.6 235.187 L
370.462 234.899 L
369.925 234.611 L
369.925 234.323 L
369.681 234.035 L
369.681 233.747 L
369.681 233.459 L
369.681 233.171 L
369.681 232.883 L
369.263 232.595 L
369.263 232.307 L
369.263 232.019 L
369 231.731 L
367.901 231.443 L
367.342 231.155 L
366.9 230.867 L
366.9 230.579 L
366.854 230.291 L
366.748 230.003 L
366.243 229.715 L
365.792 229.427 L
365.792 229.139 L
365.791 228.851 L
364.661 228.563 L
363.195 228.275 L
363.168 227.988 L
363.168 227.7 L
363.16 227.412 L
362.333 227.124 L
362.333 226.836 L
362.126 226.548 L
361.998 226.26 L
361.998 225.972 L
361.998 225.684 L
361.998 225.396 L
361.998 225.108 L
361.874 224.82 L
360.845 224.532 L
360.845 224.244 L
360.397 223.956 L
360.397 223.668 L
360.168 223.38 L
359.578 223.092 L
357.874 222.804 L
356.803 222.516 L
356.803 222.228 L
356.803 221.94 L
356.803 221.652 L
354.998 221.364 L
354.947 221.076 L
354.938 220.788 L
354.067 220.5 L
353.867 220.212 L
353.794 219.924 L
352.23 219.636 L
352.23 219.348 L
352.23 219.06 L
350.599 218.772 L
349.182 218.484 L
349.182 218.196 L
349.182 217.908 L
346.611 217.62 L
346.401 217.332 L
346.259 217.044 L
345.8 216.756 L
345.686 216.468 L
345.686 216.18 L
345.686 215.892 L
345.616 215.604 L
345.489 215.316 L
344.881 215.028 L
344.881 214.74 L
344.881 214.452 L
344.695 214.164 L
343.96 213.876 L
343.088 213.588 L
343.088 213.3 L
342.008 213.012 L
341.925 212.724 L
341.925 212.436 L
341.171 212.148 L
339.782 211.86 L
339.226 211.572 L
339.057 211.284 L
338.813 210.996 L
338.452 210.708 L
338.357 210.42 L
338.357 210.132 L
338.296 209.844 L
338.296 209.556 L
338.296 209.268 L
338.296 208.98 L
338.172 208.692 L
338.172 208.404 L
337.865 208.116 L
337.611 207.828 L
337.533 207.54 L
336.863 207.252 L
336.801 206.964 L
336.06 206.676 L
335.973 206.388 L
335.789 206.1 L
335.765 205.812 L
335.765 205.524 L
335.321 205.236 L
334.778 204.948 L
334.778 204.66 L
334.55 204.372 L
333.671 204.084 L
332.273 203.796 L
331.437 203.508 L
331.437 203.22 L
331.437 202.932 L
331.437 202.644 L
331.437 202.356 L
331.328 202.068 L
330.644 201.78 L
330.644 201.492 L
330.644 201.204 L
330.644 200.916 L
330.644 200.628 L
330.533 200.34 L
330.185 200.052 L
330.185 199.764 L
329.267 199.476 L
328.949 199.188 L
328.949 198.9 L
328.949 198.612 L
328.551 198.324 L
327.889 198.036 L
327.8 197.748 L
327.786 197.46 L
327.761 197.172 L
326.052 196.884 L
325.709 196.596 L
325.709 196.308 L
325.709 196.02 L
325.709 195.732 L
324.477 195.444 L
324.263 195.156 L
324.191 194.868 L
323.981 194.58 L
322.837 194.292 L
321.421 194.004 L
321.036 193.716 L
321 193.428 L
321 193.14 L
321 192.852 L
320.386 192.564 L
320.095 192.276 L
319.713 191.988 L
319.324 191.7 L
319.13 191.412 L
318.368 191.124 L
318.368 190.836 L
318.128 190.548 L
318.128 190.26 L
318.128 189.972 L
318.128 189.684 L
318.128 189.396 L
318.128 189.108 L
318.128 188.82 L
317.618 188.532 L
317.482 188.244 L
317.482 187.956 L
317.326 187.668 L
317.201 187.38 L
317.201 187.092 L
316.934 186.804 L
316.322 186.517 L
315.999 186.229 L
315.999 185.941 L
315.489 185.653 L
315.389 185.365 L
315.389 185.077 L
315.03 184.789 L
313.969 184.501 L
313.969 184.213 L
313.614 183.925 L
313.614 183.637 L
313.614 183.349 L
313.614 183.061 L
313.614 182.773 L
312.745 182.485 L
312.745 182.197 L
312.733 181.909 L
312.733 181.621 L
312.733 181.333 L
312.388 181.045 L
312.388 180.757 L
312.388 180.469 L
312.388 180.181 L
312.388 179.893 L
311.887 179.605 L
311.494 179.317 L
311.033 179.029 L
311 178.741 L
310.144 178.453 L
309.831 178.165 L
309.831 177.877 L
309.831 177.589 L
309.472 177.301 L
309.228 177.013 L
308.996 176.725 L
308.917 176.437 L
308.615 176.149 L
308.61 175.861 L
308.407 175.573 L
307.874 175.285 L
307.739 174.997 L
307.716 174.709 L
307.699 174.421 L
307.222 174.133 L
306.692 173.845 L
306.561 173.557 L
306.561 173.269 L
306.561 172.981 L
306.561 172.693 L
306.467 172.405 L
305.4 172.117 L
305.219 171.829 L
305.011 171.541 L
305.011 171.253 L
305.011 170.965 L
305.011 170.677 L
305.011 170.389 L
305.011 170.101 L
305.011 169.813 L
305.011 169.525 L
304.998 169.237 L
304.467 168.949 L
304.467 168.661 L
304.331 168.373 L
304.162 168.085 L
304.162 167.797 L
302.94 167.509 L
302.94 167.221 L
302.94 166.933 L
302.94 166.645 L
302.94 166.357 L
302.94 166.069 L
302.677 165.781 L
302.552 165.493 L
302.552 165.205 L
302.552 164.917 L
302.552 164.629 L
302.552 164.341 L
302.552 164.053 L
302.552 163.765 L
302.495 163.477 L
302.495 163.189 L
302.495 162.901 L
302.495 162.613 L
302.346 162.325 L
302.346 162.037 L
301.704 161.749 L
301.704 161.461 L
301.704 161.173 L
301.418 160.885 L
301.042 160.597 L
300.832 160.309 L
300.453 160.021 L
300.285 159.733 L
300.285 159.445 L
299.967 159.157 L
299.967 158.869 L
299.967 158.581 L
299.967 158.293 L
299.967 158.005 L
299.967 157.717 L
299.94 157.429 L
299.874 157.141 L
299.874 156.853 L
299.741 156.565 L
299.741 156.277 L
299.606 155.989 L
299.581 155.701 L
299.415 155.413 L
299.415 155.125 L
298.936 154.837 L
298.757 154.549 L
298.757 154.261 L
298.757 153.973 L
298.757 153.685 L
298.757 153.397 L
298.757 153.109 L
298.757 152.821 L
298.624 152.533 L
298.619 152.245 L
298.619 151.957 L
298.615 151.669 L
297.533 151.381 L
297.533 151.093 L
297.395 150.805 L
297.395 150.517 L
297.395 150.229 L
297.395 149.941 L
297.395 149.653 L
297.395 149.365 L
297.395 149.077 L
297.395 148.789 L
297.395 148.501 L
297.063 148.213 L
297.063 147.925 L
297.063 147.637 L
297.063 147.349 L
297.063 147.061 L
297.063 146.773 L
297.063 146.485 L
297.063 146.197 L
296.911 145.909 L
296.294 145.621 L
296.2 145.333 L
296.2 145.046 L
296.2 144.758 L
296.074 144.47 L
295.878 144.182 L
295.878 143.894 L
295.878 143.606 L
295.878 143.318 L
295.733 143.03 L
295.041 142.742 L
295.041 142.454 L
295.041 142.166 L
295.041 141.878 L
294.68 141.59 L
294.576 141.302 L
294.576 141.014 L
294.576 140.726 L
294.576 140.438 L
294.576 140.15 L
294.576 139.862 L
293.807 139.574 L
293.6 139.286 L
293.526 138.998 L
293.468 138.71 L
292.374 138.422 L
292.374 138.134 L
292.374 137.846 L
292.374 137.558 L
292.374 137.27 L
292.295 136.982 L
292.295 136.694 L
292.295 136.406 L
292.295 136.118 L
292.295 135.83 L
292.242 135.542 L
292.144 135.254 L
292.144 134.966 L
291.607 134.678 L
291.607 134.39 L
291.607 134.102 L
291.607 133.814 L
291.607 133.526 L
291.607 133.238 L
291.607 132.95 L
291.607 132.662 L
291.607 132.374 L
291.148 132.086 L
291.148 131.798 L
291.148 131.51 L
291.134 131.222 L
291.134 130.934 L
291.134 130.646 L
291.134 130.358 L
291.134 130.07 L
291.002 129.782 L
291.002 129.494 L
291.002 129.206 L
290.171 128.918 L
289.764 128.63 L
289.764 128.342 L
289.764 128.054 L
289.759 127.766 L
289.759 127.478 L
289.759 127.19 L
289.759 126.902 L
289.759 126.614 L
289.748 126.326 L
289.748 126.038 L
288.547 125.75 L
288.547 125.462 L
288.547 125.174 L
288.075 124.886 L
287.573 124.598 L
287.436 124.31 L
287.436 124.022 L
287.436 123.734 L
287.321 123.446 L
287.321 123.158 L
286.517 122.87 L
286.081 122.582 L
285.549 122.294 L
284.827 122.006 L
283.955 121.718 L
283.8 121.43 L
283.8 121.142 L
283.8 120.854 L
283.8 120.566 L
283.8 120.278 L
283.685 119.99 L
283.085 119.702 L
282.744 119.414 L
282.616 119.126 L
282.422 118.838 L
282.422 118.55 L
282.422 118.262 L
282.277 117.974 L
282.277 117.686 L
282.109 117.398 L
280.462 117.11 L
280.136 116.822 L
280.136 116.534 L
280.125 116.246 L
280.125 115.958 L
279.939 115.67 L
279.667 115.382 L
279.667 115.094 L
279.494 114.806 L
279.127 114.518 L
278.998 114.23 L
278.859 113.942 L
278.859 113.654 L
277.063 113.366 L
277.063 113.078 L
277.063 112.79 L
277.063 112.502 L
277.063 112.214 L
276.195 111.926 L
275.828 111.638 L
275.086 111.35 L
275.086 111.062 L
274.895 110.774 L
274.895 110.486 L
274.34 110.198 L
273.696 109.91 L
273.696 109.622 L
273.645 109.334 L
273.088 109.046 L
273.088 108.758 L
271.4 108.47 L
271.4 108.182 L
271.4 107.894 L
271.4 107.606 L
271.4 107.318 L
271.4 107.03 L
271.4 106.742 L
271.4 106.454 L
271.303 106.166 L
271.303 105.878 L
271.303 105.59 L
271.303 105.302 L
270.537 105.014 L
270.317 104.726 L
270.317 104.438 L
270.317 104.15 L
270.317 103.862 L
270.317 103.574 L
269.811 103.287 L
269.401 102.999 L
268.697 102.711 L
268.352 102.423 L
268.185 102.135 L
268.185 101.847 L
268.185 101.559 L
267.402 101.271 L
266.547 100.983 L
266.486 100.695 L
266.486 100.407 L
266.486 100.119 L
266.231 99.831 L
266.143 99.543 L
265.391 99.255 L
265.309 98.967 L
264.397 98.679 L
263.711 98.391 L
263.711 98.103 L
263.47 97.815 L
263.47 97.527 L
263.47 97.239 L
263.47 96.951 L
263.36 96.663 L
263.343 96.375 L
263.133 96.087 L
263.133 95.799 L
263.133 95.511 L
263.133 95.223 L
263.133 94.935 L
263.133 94.647 L
262.695 94.359 L
262.695 94.071 L
262.639 93.783 L
262.213 93.495 L
261.785 93.207 L
261.785 92.919 L
261.023 92.631 L
260.378 92.343 L
260.378 92.055 L
260.378 91.767 L
258.478 91.479 L
258.443 91.191 L
257.486 90.903 L
257.24 90.615 L
256.029 90.327 L
255.629 90.039 L
255.629 89.751 L
255.629 89.463 L
255.629 89.175 L
255.448 88.887 L
255.214 88.599 L
254.867 88.311 L
254.867 88.023 L
254.867 87.735 L
254.867 87.447 L
254.867 87.159 L
254.867 86.871 L
252.57 86.583 L
252.57 86.295 L
252.57 86.007 L
252.57 85.719 L
252.57 85.431 L
252.57 85.143 L
252.57 84.855 L
252.57 84.567 L
252.57 84.279 L
252.276 83.991 L
252.136 83.703 L
252.136 83.415 L
251.982 83.127 L
250.867 82.839 L
250.729 82.551 L
250.37 82.263 L
250.226 81.975 L
250.054 81.687 L
250.054 81.399 L
249.356 81.111 L
249.356 80.823 L
249.356 80.535 L
248.882 80.247 L
248.193 79.959 L
248.193 79.671 L
248.193 79.383 L
247.78 79.095 L
247.78 78.807 L
247.78 78.519 L
247.692 78.231 L
247.692 77.943 L
247.43 77.655 L
245.743 77.367 L
245.633 77.079 L
244.763 76.791 L
244.763 76.503 L
244.763 76.215 L
244.763 75.927 L
244.763 75.639 L
244.763 75.351 L
242.919 75.063 L
242.007 74.775 L
242.007 74.487 L
241.668 74.199 L
241.15 73.911 L
241.15 73.623 L
240.801 73.335 L
240.291 73.047 L
239.923 72.759 L
238.333 72.471 L
237.591 72.183 L
236.956 71.895 L
236.842 71.607 L
236.7 71.319 L
236.44 71.031 L
235.08 70.743 L
234.659 70.455 L
234.659 70.167 L
234.086 69.879 L
233.304 69.591 L
231.666 69.303 L
231.616 69.015 L
231.444 68.727 L
231.444 68.439 L
231.444 68.151 L
231.444 67.863 L
230.847 67.575 L
230.847 67.287 L
230.847 66.999 L
230.235 66.711 L
228.155 66.423 L
226.888 66.135 L
226.158 65.847 L
225.004 65.559 L
224.664 65.271 L
224.556 64.983 L
224.556 64.695 L
223.729 64.407 L
223.729 64.119 L
222.435 63.831 L
222.257 63.543 L
221.528 63.255 L
219.225 62.967 L
217.973 62.679 L
217.094 62.391 L
216.931 62.103 L
216.834 61.816 L
216.62 61.528 L
216.282 61.24 L
215.863 60.952 L
213.089 60.664 L
212.774 60.376 L
212.659 60.088 L
212.404 59.8 L
212.39 59.512 L
211.713 59.224 L
211.713 58.936 L
211.277 58.648 L
210.531 58.36 L
209.317 58.072 L
207.744 57.784 L
206.882 57.496 L
205.21 57.208 L
203.158 56.92 L
203.158 56.632 L
202.807 56.344 L
201.526 56.056 L
197.81 55.768 L
197.788 55.48 L
197.786 55.192 L
197.49 54.904 L
197.387 54.616 L
193.602 54.328 L
193.506 54.04 L
192.142 53.752 L
191.364 53.464 L
191.274 53.176 L
189.846 52.888 L
189.033 52.6 L
188.87 52.312 L
188.749 52.024 L
188.749 51.736 L
188.727 51.448 L
181.5 51.16 L
181.448 50.872 L
181.448 50.584 L
180.68 50.296 L
180.049 50.008 L
178.702 49.72 L
177.709 49.432 L
175.517 49.144 L
173.803 48.856 L
173.597 48.568 L
173.597 48.28 L
172.404 47.992 L
172.404 47.704 L
170.941 47.416 L
170 47.128 L
169.887 46.84 L
169.217 46.552 L
168.852 46.264 L
165.656 45.976 L
164.448 45.688 L
163.992 45.4 L
163.44 45.112 L
162.013 44.824 L
160.595 44.536 L
158.799 44.248 L
155.989 43.96 L
155.083 43.672 L
146.8 43.384 L
145.977 43.096 L
144.544 42.808 L
143.597 42.52 L
141.299 42.232 L
138.816 41.944 L
138.092 41.656 L
137.721 41.368 L
137.482 41.08 L
137.167 40.792 L
135.526 40.504 L
135.526 40.216 L
135.526 39.928 L
135.095 39.64 L
134.034 39.352 L
132.167 39.064 L
132.156 38.776 L
131.75 38.488 L
131.452 38.2 L
131.072 37.912 L
131.072 37.624 L
130.055 37.336 L
128.763 37.048 L
127.715 36.76 L
127.06 36.472 L
125.649 36.184 L
125.005 35.896 L
124.883 35.608 L
119.085 35.32 L
116.481 35.032 L
115.671 34.744 L
115.235 34.456 L
114.86 34.168 L
112.438 33.88 L
112.438 33.592 L
111.349 33.304 L
104 33.016 L
102.312 32.728 L
101.546 32.44 L
100.457 32.152 L
96.597 31.864 L
93.426 31.576 L
85.779 31.288 L
84.322 31 L
73 31 L
S
GR
GS
[0.75 0 0 0.75 0 0] CT
0 0 1 RC
[8 8] 0 setdash
2 LJ
2.667 LW
N
507 374 M
486.363 373.722 L
477.226 373.444 L
476.911 373.166 L
476.911 372.888 L
474.616 372.61 L
474.616 372.332 L
465.691 372.054 L
463.141 371.776 L
463.141 371.498 L
460.655 371.22 L
459.532 370.942 L
456.766 370.665 L
456.371 370.387 L
455.795 370.109 L
454.471 369.831 L
454.471 369.553 L
454.471 369.275 L
454.471 368.997 L
454.471 368.719 L
454.471 368.441 L
454.471 368.163 L
449.033 367.885 L
449.033 367.607 L
448.036 367.329 L
447.841 367.051 L
446.565 366.773 L
445.801 366.495 L
445.801 366.217 L
445.801 365.939 L
445.801 365.661 L
445.801 365.383 L
438.5 365.105 L
437.983 364.827 L
437.823 364.549 L
437.823 364.271 L
437.823 363.994 L
437.132 363.716 L
437.132 363.438 L
437.132 363.16 L
437.132 362.882 L
437.132 362.604 L
437.132 362.326 L
437.132 362.048 L
434.837 361.77 L
431.714 361.492 L
428.699 361.214 L
428.462 360.936 L
428.462 360.658 L
428.462 360.38 L
428.462 360.102 L
428.462 359.824 L
428.462 359.546 L
428.462 359.268 L
428.462 358.99 L
428.462 358.712 L
426.422 358.434 L
426.422 358.156 L
426.422 357.878 L
426.422 357.6 L
426.422 357.323 L
425.92 357.045 L
424.909 356.767 L
423.734 356.489 L
421.5 356.211 L
419.792 355.933 L
419.792 355.655 L
419.792 355.377 L
419.792 355.099 L
418.007 354.821 L
418.007 354.543 L
418.007 354.265 L
418.007 353.987 L
418.007 353.709 L
418.007 353.431 L
418.007 353.153 L
418.007 352.875 L
418.007 352.597 L
418.007 352.319 L
418.007 352.041 L
418.007 351.763 L
418.007 351.485 L
417.911 351.207 L
417.911 350.93 L
415.712 350.652 L
415.712 350.374 L
415.712 350.096 L
415.712 349.818 L
415.712 349.54 L
415.712 349.262 L
415.712 348.984 L
415.712 348.706 L
415.712 348.428 L
415.712 348.15 L
415.712 347.872 L
412.345 347.594 L
411.445 347.316 L
411.279 347.038 L
410.527 346.76 L
409.892 346.482 L
409.592 346.204 L
409.592 345.926 L
409.592 345.648 L
409.592 345.37 L
409.592 345.092 L
409.592 344.814 L
409.592 344.536 L
409.592 344.259 L
408.736 343.981 L
407.552 343.703 L
407.552 343.425 L
407.552 343.147 L
407.552 342.869 L
407.552 342.591 L
407.552 342.313 L
407.552 342.035 L
407.552 341.757 L
407.552 341.479 L
407.552 341.201 L
407.552 340.923 L
407.552 340.645 L
407.552 340.367 L
407.552 340.089 L
407.552 339.811 L
407.552 339.533 L
407.552 339.255 L
407.552 338.977 L
407.552 338.699 L
407.552 338.421 L
407.552 338.143 L
407.552 337.866 L
407.552 337.588 L
406.469 337.31 L
405.923 337.032 L
405.002 336.754 L
405.002 336.476 L
405.002 336.198 L
405.002 335.92 L
405.002 335.642 L
404.551 335.364 L
404.551 335.086 L
402.425 334.808 L
402.344 334.53 L
401.942 334.252 L
401.432 333.974 L
401.378 333.696 L
401.378 333.418 L
401.378 333.14 L
401.378 332.862 L
401.378 332.584 L
401.177 332.306 L
401.177 332.028 L
401.08 331.75 L
400.395 331.472 L
399.392 331.195 L
399.392 330.917 L
399.392 330.639 L
399.392 330.361 L
399.392 330.083 L
399.392 329.805 L
399.392 329.527 L
399.392 329.249 L
399.392 328.971 L
399.392 328.693 L
399.392 328.415 L
399.392 328.137 L
399.392 327.859 L
399.392 327.581 L
399.392 327.303 L
399.392 327.025 L
399.392 326.747 L
399.392 326.469 L
399.29 326.191 L
399.05 325.913 L
397.098 325.635 L
397.098 325.357 L
397.098 325.079 L
397.098 324.801 L
397.098 324.524 L
396.245 324.246 L
395.277 323.968 L
394.293 323.69 L
394.293 323.412 L
394.293 323.134 L
394.293 322.856 L
392.763 322.578 L
391.34 322.3 L
391.233 322.022 L
391.233 321.744 L
391.233 321.466 L
391.233 321.188 L
391.233 320.91 L
391.233 320.632 L
391.233 320.354 L
391.233 320.076 L
391.233 319.798 L
391.233 319.52 L
391.233 319.242 L
391.233 318.964 L
391.233 318.686 L
390.978 318.408 L
390.978 318.13 L
390.978 317.853 L
389.193 317.575 L
389.193 317.297 L
389.193 317.019 L
389.193 316.741 L
389.193 316.463 L
389.193 316.185 L
389.193 315.907 L
389.193 315.629 L
389.193 315.351 L
389.193 315.073 L
389.193 314.795 L
388.636 314.517 L
387.564 314.239 L
387.153 313.961 L
386.643 313.683 L
386.643 313.405 L
386.472 313.127 L
385.48 312.849 L
385.422 312.571 L
384.625 312.293 L
384.625 312.015 L
384.625 311.737 L
383.073 311.46 L
383.073 311.182 L
383.073 310.904 L
383.073 310.626 L
381.288 310.348 L
380.013 310.07 L
378.993 309.792 L
378.993 309.514 L
378.993 309.236 L
378.993 308.958 L
378.993 308.68 L
377.146 308.402 L
377.146 308.124 L
376.103 307.846 L
375.044 307.568 L
374.44 307.29 L
374.44 307.012 L
373.967 306.734 L
373.383 306.456 L
373.132 306.178 L
371.343 305.9 L
371.343 305.622 L
371.343 305.344 L
371.343 305.066 L
371.343 304.789 L
365.573 304.511 L
364.456 304.233 L
360.221 303.955 L
359.319 303.677 L
356.989 303.399 L
356.989 303.121 L
352.689 302.843 L
346.893 302.565 L
346.893 302.287 L
345.591 302.009 L
345.489 301.731 L
344.404 301.453 L
343.198 301.175 L
341.722 300.897 L
336.747 300.619 L
334.628 300.341 L
334.175 300.063 L
334.175 299.785 L
333.197 299.507 L
332.354 299.229 L
332.354 298.951 L
332.354 298.673 L
331.52 298.396 L
331.52 298.118 L
331.462 297.84 L
331.462 297.562 L
331.462 297.284 L
329.977 297.006 L
329.507 296.728 L
328.278 296.45 L
328.278 296.172 L
327.511 295.894 L
327.511 295.616 L
327.511 295.338 L
327.133 295.06 L
327.133 294.782 L
327.133 294.504 L
326.814 294.226 L
326.814 293.948 L
326.636 293.67 L
326.167 293.392 L
326.121 293.114 L
325.886 292.836 L
325.535 292.558 L
324.385 292.28 L
324.238 292.002 L
322.984 291.725 L
322.699 291.447 L
321.827 291.169 L
321.827 290.891 L
321.421 290.613 L
319.277 290.335 L
319.277 290.057 L
319.058 289.779 L
317.781 289.501 L
317.781 289.223 L
317.781 288.945 L
316.321 288.667 L
313.752 288.389 L
312.388 288.111 L
311.7 287.833 L
311.304 287.555 L
311.033 287.277 L
310.532 286.999 L
309.589 286.721 L
309.554 286.443 L
308.917 286.165 L
308.818 285.887 L
308.695 285.609 L
308.695 285.332 L
308.695 285.054 L
308.68 284.776 L
308.615 284.498 L
308.124 284.22 L
308.124 283.942 L
307.959 283.664 L
307.739 283.386 L
307.699 283.108 L
307.699 282.83 L
307.39 282.552 L
307.39 282.274 L
307.39 281.996 L
307.35 281.718 L
306.965 281.44 L
306.692 281.162 L
306.612 280.884 L
306.612 280.606 L
306.561 280.328 L
306.561 280.05 L
306.561 279.772 L
306.561 279.494 L
306.306 279.216 L
306.055 278.938 L
305.787 278.661 L
305.219 278.383 L
305.069 278.105 L
305.069 277.827 L
305.069 277.549 L
305.069 277.271 L
305.019 276.993 L
305.019 276.715 L
304.843 276.437 L
304.843 276.159 L
304.644 275.881 L
304.553 275.603 L
304.553 275.325 L
304.091 275.047 L
303.956 274.769 L
303.956 274.491 L
303.956 274.213 L
303.956 273.935 L
303.513 273.657 L
303.395 273.379 L
303.395 273.101 L
303.329 272.823 L
303.329 272.545 L
303.329 272.267 L
303.005 271.99 L
302.94 271.712 L
302.702 271.434 L
302.683 271.156 L
302.683 270.878 L
302.683 270.6 L
302.683 270.322 L
302.677 270.044 L
302.5 269.766 L
302.495 269.488 L
302.208 269.21 L
302.208 268.932 L
302.13 268.654 L
301.704 268.376 L
301.704 268.098 L
301.244 267.82 L
301.163 267.542 L
300.748 267.264 L
300.748 266.986 L
300.453 266.708 L
300.07 266.43 L
299.967 266.152 L
299.967 265.874 L
299.967 265.596 L
299.967 265.319 L
299.967 265.041 L
299.967 264.763 L
299.967 264.485 L
299.829 264.207 L
299.819 263.929 L
299.781 263.651 L
298.903 263.373 L
298.903 263.095 L
298.757 262.817 L
298.757 262.539 L
298.757 262.261 L
298.757 261.983 L
298.757 261.705 L
298.757 261.427 L
298.741 261.149 L
298.68 260.871 L
298.68 260.593 L
298.314 260.315 L
298.15 260.037 L
297.533 259.759 L
297.533 259.481 L
297.395 259.203 L
297.063 258.926 L
297.031 258.648 L
297.031 258.37 L
297.031 258.092 L
296.911 257.814 L
296.606 257.536 L
296.576 257.258 L
295.773 256.98 L
295.733 256.702 L
295.733 256.424 L
295.733 256.146 L
295.733 255.868 L
295.733 255.59 L
295.733 255.312 L
295.463 255.034 L
295.463 254.756 L
295.212 254.478 L
295.212 254.2 L
295.041 253.922 L
295.041 253.644 L
295.041 253.366 L
294.68 253.088 L
294.429 252.81 L
294.419 252.532 L
294.209 252.255 L
293.994 251.977 L
293.772 251.699 L
293.772 251.421 L
293.772 251.143 L
293.772 250.865 L
293.678 250.587 L
293.61 250.309 L
293.493 250.031 L
293.468 249.753 L
293.468 249.475 L
293.088 249.197 L
292.94 248.919 L
292.94 248.641 L
292.626 248.363 L
292.626 248.085 L
292.489 247.807 L
292.489 247.529 L
292.489 247.251 L
292.489 246.973 L
292.374 246.695 L
292.374 246.417 L
292.374 246.139 L
291.74 245.862 L
291.74 245.584 L
291.614 245.306 L
291.614 245.028 L
291.365 244.75 L
291.348 244.472 L
291.306 244.194 L
291.189 243.916 L
291.134 243.638 L
291.134 243.36 L
291.134 243.082 L
291.134 242.804 L
291.134 242.526 L
290.998 242.248 L
290.998 241.97 L
290.245 241.692 L
289.969 241.414 L
289.759 241.136 L
289.759 240.858 L
289.759 240.58 L
289.042 240.302 L
289.042 240.024 L
288.993 239.746 L
288.993 239.468 L
288.993 239.191 L
288.993 238.913 L
288.993 238.635 L
288.701 238.357 L
288.673 238.079 L
288.611 237.801 L
288.611 237.523 L
288.611 237.245 L
288.547 236.967 L
288.547 236.689 L
288.547 236.411 L
288.318 236.133 L
287.711 235.855 L
287.711 235.577 L
287.711 235.299 L
287.711 235.021 L
287.593 234.743 L
287.593 234.465 L
287.593 234.187 L
287.593 233.909 L
287.447 233.631 L
287.447 233.353 L
287.327 233.075 L
287.327 232.798 L
287.327 232.52 L
287.327 232.242 L
287.321 231.964 L
287.321 231.686 L
287.146 231.408 L
287.146 231.13 L
286.805 230.852 L
286.775 230.574 L
286.534 230.296 L
286.363 230.018 L
286.363 229.74 L
286.339 229.462 L
286.207 229.184 L
286.207 228.906 L
286.207 228.628 L
286.175 228.35 L
286.175 228.072 L
286.175 227.794 L
286.175 227.516 L
286.081 227.238 L
286.028 226.96 L
286.028 226.682 L
286.028 226.404 L
286.028 226.127 L
286.028 225.849 L
285.982 225.571 L
285.937 225.293 L
285.235 225.015 L
285.109 224.737 L
284.886 224.459 L
284.827 224.181 L
284.827 223.903 L
284.812 223.625 L
284.8 223.347 L
284.713 223.069 L
284.713 222.791 L
284.713 222.513 L
284.161 222.235 L
284.161 221.957 L
284.161 221.679 L
283.955 221.401 L
283.955 221.123 L
283.828 220.845 L
283.828 220.567 L
283.685 220.289 L
283.559 220.011 L
283.559 219.733 L
283.559 219.456 L
283.559 219.178 L
283.503 218.9 L
283.485 218.622 L
283.485 218.344 L
283.485 218.066 L
283.485 217.788 L
283 217.51 L
283 217.232 L
283 216.954 L
282.767 216.676 L
282.616 216.398 L
282.616 216.12 L
282.616 215.842 L
282.616 215.564 L
282.616 215.286 L
282.616 215.008 L
282.616 214.73 L
282.616 214.452 L
282.59 214.174 L
282.277 213.896 L
282.277 213.618 L
282.277 213.34 L
282.277 213.063 L
282.277 212.785 L
282.277 212.507 L
282.277 212.229 L
282.277 211.951 L
282.277 211.673 L
282.277 211.395 L
282.277 211.117 L
282.277 210.839 L
282.277 210.561 L
282.277 210.283 L
282.277 210.005 L
282.277 209.727 L
282.219 209.449 L
282.219 209.171 L
282.219 208.893 L
282.001 208.615 L
281.734 208.337 L
281.624 208.059 L
281.624 207.781 L
281.012 207.503 L
280.979 207.225 L
280.932 206.947 L
280.932 206.669 L
280.623 206.392 L
280.565 206.114 L
280.565 205.836 L
280.565 205.558 L
280.522 205.28 L
280.522 205.002 L
280.426 204.724 L
280.426 204.446 L
280.125 204.168 L
280.125 203.89 L
280.072 203.612 L
279.792 203.334 L
279.792 203.056 L
279.792 202.778 L
279.494 202.5 L
279.438 202.222 L
279.369 201.944 L
279.369 201.666 L
279.369 201.388 L
279.078 201.11 L
278.98 200.832 L
278.98 200.554 L
278.98 200.276 L
278.859 199.998 L
278.503 199.721 L
278.503 199.443 L
278.465 199.165 L
278.248 198.887 L
278.248 198.609 L
278.247 198.331 L
277.753 198.053 L
277.699 197.775 L
277.672 197.497 L
277.564 197.219 L
277.162 196.941 L
277.121 196.663 L
277.121 196.385 L
277.121 196.107 L
277.108 195.829 L
277.108 195.551 L
277.063 195.273 L
277.063 194.995 L
277.063 194.717 L
277.063 194.439 L
277.063 194.161 L
277.063 193.883 L
277.042 193.605 L
277.042 193.327 L
276.877 193.05 L
276.877 192.772 L
276.714 192.494 L
276.485 192.216 L
276.279 191.938 L
275.987 191.66 L
275.876 191.382 L
275.828 191.104 L
275.695 190.826 L
275.695 190.548 L
275.628 190.27 L
275.628 189.992 L
275.582 189.714 L
275.006 189.436 L
274.975 189.158 L
274.975 188.88 L
274.975 188.602 L
274.903 188.324 L
274.903 188.046 L
274.677 187.768 L
274.677 187.49 L
274.614 187.212 L
274.579 186.934 L
274.579 186.657 L
274.559 186.379 L
274.48 186.101 L
274.365 185.823 L
274.365 185.545 L
274.365 185.267 L
274.365 184.989 L
274.265 184.711 L
274.265 184.433 L
274.265 184.155 L
273.799 183.877 L
273.771 183.599 L
273.678 183.321 L
273.651 183.043 L
273.651 182.765 L
273.651 182.487 L
273.651 182.209 L
273.336 181.931 L
273.336 181.653 L
273.336 181.375 L
273.088 181.097 L
272.129 180.819 L
272.041 180.541 L
271.912 180.263 L
271.912 179.986 L
271.912 179.708 L
271.555 179.43 L
271.351 179.152 L
271.321 178.874 L
271.267 178.596 L
271.13 178.318 L
270.492 178.04 L
270.492 177.762 L
270.492 177.484 L
270.492 177.206 L
270.492 176.928 L
270.317 176.65 L
270.317 176.372 L
270.159 176.094 L
270.159 175.816 L
270.062 175.538 L
270.062 175.26 L
270.062 174.982 L
270.054 174.704 L
269.866 174.426 L
269.705 174.148 L
269.705 173.87 L
269.705 173.593 L
269.447 173.315 L
269.447 173.037 L
269.447 172.759 L
269.172 172.481 L
269.172 172.203 L
269.172 171.925 L
269.059 171.647 L
268.953 171.369 L
268.363 171.091 L
268.182 170.813 L
268.132 170.535 L
268.129 170.257 L
268.091 169.979 L
268.03 169.701 L
268.03 169.423 L
268.03 169.145 L
267.965 168.867 L
267.965 168.589 L
267.837 168.311 L
267.837 168.033 L
267.837 167.755 L
267.503 167.477 L
267.255 167.199 L
266.905 166.922 L
266.905 166.644 L
266.796 166.366 L
266.796 166.088 L
266.796 165.81 L
266.505 165.532 L
266.488 165.254 L
266.206 164.976 L
265.939 164.698 L
265.939 164.42 L
264.672 164.142 L
264.492 163.864 L
264.49 163.586 L
264.41 163.308 L
263.847 163.03 L
263.711 162.752 L
263.531 162.474 L
263.531 162.196 L
263.498 161.918 L
263.391 161.64 L
263.388 161.362 L
263.388 161.084 L
263.3 160.806 L
263.3 160.529 L
262.604 160.251 L
262.272 159.973 L
262.272 159.695 L
262.216 159.417 L
262.021 159.139 L
261.906 158.861 L
261.685 158.583 L
261.221 158.305 L
261.133 158.027 L
260.858 157.749 L
260.726 157.471 L
260.726 157.193 L
260.724 156.915 L
260.274 156.637 L
260.274 156.359 L
259.892 156.081 L
259.854 155.803 L
259.644 155.525 L
259.566 155.247 L
259.504 154.969 L
259.504 154.691 L
259.449 154.413 L
259.413 154.135 L
258.931 153.858 L
258.931 153.58 L
258.481 153.302 L
258.058 153.024 L
257.58 152.746 L
257.121 152.468 L
257.106 152.19 L
257.106 151.912 L
256.779 151.634 L
256.779 151.356 L
256.138 151.078 L
255.523 150.8 L
255.221 150.522 L
255.214 150.244 L
255.046 149.966 L
254.904 149.688 L
254.773 149.41 L
254.386 149.132 L
254.359 148.854 L
254.253 148.576 L
253.833 148.298 L
253.37 148.02 L
253.085 147.742 L
253.085 147.464 L
253.085 147.187 L
252.261 146.909 L
252.006 146.631 L
252.006 146.353 L
251.47 146.075 L
251.47 145.797 L
251.311 145.519 L
250.978 145.241 L
250.91 144.963 L
250.821 144.685 L
250.625 144.407 L
248.857 144.129 L
248.857 143.851 L
248.857 143.573 L
248.464 143.295 L
247.852 143.017 L
247.416 142.739 L
247.416 142.461 L
247.416 142.183 L
247.283 141.905 L
246.417 141.627 L
246.396 141.349 L
246.396 141.071 L
245.951 140.794 L
245.931 140.516 L
245.931 140.238 L
245.037 139.96 L
245.037 139.682 L
244.962 139.404 L
244.962 139.126 L
244.531 138.848 L
244.528 138.57 L
244.306 138.292 L
243.925 138.014 L
243.803 137.736 L
243.62 137.458 L
243.607 137.18 L
243.558 136.902 L
243.206 136.624 L
242.826 136.346 L
242.233 136.068 L
242.233 135.79 L
242.161 135.512 L
242.161 135.234 L
242.061 134.956 L
242.061 134.678 L
241.698 134.4 L
240.302 134.123 L
239.535 133.845 L
239.535 133.567 L
239.064 133.289 L
239.064 133.011 L
238.709 132.733 L
238.676 132.455 L
238.526 132.177 L
238.236 131.899 L
238.236 131.621 L
237.726 131.343 L
237.726 131.065 L
237.726 130.787 L
237.587 130.509 L
237.01 130.231 L
236.625 129.953 L
236.595 129.675 L
236.563 129.397 L
236.216 129.119 L
236.216 128.841 L
235.75 128.563 L
235.537 128.285 L
235.436 128.007 L
235.23 127.729 L
234.814 127.452 L
234.814 127.174 L
234.444 126.896 L
233.397 126.618 L
233.391 126.34 L
233.246 126.062 L
232.116 125.784 L
232.049 125.506 L
231.805 125.228 L
231.805 124.95 L
231.805 124.672 L
231.805 124.394 L
231.805 124.116 L
231.638 123.838 L
231.638 123.56 L
231.625 123.282 L
231.116 123.004 L
230.125 122.726 L
230.084 122.448 L
229.056 122.17 L
228.983 121.892 L
228.585 121.614 L
228.163 121.336 L
228.036 121.059 L
228.036 120.781 L
228 120.503 L
226.499 120.225 L
225.962 119.947 L
224.722 119.669 L
224.722 119.391 L
224.467 119.113 L
224.467 118.835 L
224.344 118.557 L
224.061 118.279 L
223.957 118.001 L
223.957 117.723 L
223.957 117.445 L
223.758 117.167 L
223.552 116.889 L
222.927 116.611 L
222.551 116.333 L
222.551 116.055 L
222.551 115.777 L
221.568 115.499 L
220.432 115.221 L
220.432 114.943 L
220.432 114.665 L
220.387 114.388 L
220.095 114.11 L
219.877 113.832 L
219.877 113.554 L
218.347 113.276 L
218.347 112.998 L
217.983 112.72 L
217.667 112.442 L
216.821 112.164 L
216.723 111.886 L
216.669 111.608 L
216.35 111.33 L
216.35 111.052 L
216.108 110.774 L
216.052 110.496 L
216.052 110.218 L
216.052 109.94 L
216.052 109.662 L
216.052 109.384 L
215.823 109.106 L
215.797 108.828 L
215.797 108.55 L
215.797 108.272 L
215.797 107.995 L
215.797 107.717 L
215.587 107.439 L
215.521 107.161 L
215.521 106.883 L
215.287 106.605 L
215.287 106.327 L
215.287 106.049 L
215.287 105.771 L
215.287 105.493 L
215.287 105.215 L
215.287 104.937 L
215.287 104.659 L
214.522 104.381 L
214.19 104.103 L
213.502 103.825 L
212.763 103.547 L
212.049 103.269 L
211.717 102.991 L
211.424 102.713 L
211.298 102.435 L
210.697 102.157 L
210.697 101.879 L
210.507 101.601 L
209.94 101.324 L
209.041 101.046 L
208.825 100.768 L
208.657 100.49 L
208.514 100.212 L
208.514 99.934 L
207.69 99.656 L
207.637 99.378 L
207.605 99.1 L
207.382 98.822 L
207.145 98.544 L
206.107 98.266 L
206.107 97.988 L
206.107 97.71 L
206.107 97.432 L
206.107 97.154 L
206.107 96.876 L
206.107 96.598 L
206.107 96.32 L
206.107 96.042 L
206.107 95.764 L
206.107 95.486 L
205.772 95.208 L
205.049 94.93 L
205.049 94.653 L
204.062 94.375 L
203.749 94.097 L
203.749 93.819 L
203.56 93.541 L
203.047 93.263 L
203.013 92.985 L
202.027 92.707 L
201.517 92.429 L
201.517 92.151 L
199.552 91.873 L
198.967 91.595 L
198.967 91.317 L
198.712 91.039 L
198.712 90.761 L
198.242 90.483 L
197.668 90.205 L
197.191 89.927 L
197.191 89.649 L
196.927 89.371 L
196.927 89.093 L
196.927 88.815 L
196.162 88.537 L
196.162 88.26 L
195.641 87.982 L
195.216 87.704 L
194.377 87.426 L
194.377 87.148 L
194.377 86.87 L
194.377 86.592 L
194.377 86.314 L
194.377 86.036 L
194.377 85.758 L
194.377 85.48 L
194.377 85.202 L
194.122 84.924 L
194.122 84.646 L
194.122 84.368 L
194.122 84.09 L
193.9 83.812 L
192.724 83.534 L
192.724 83.256 L
192.337 82.978 L
192.337 82.7 L
192.062 82.422 L
190.099 82.144 L
190.042 81.866 L
190.042 81.589 L
190.042 81.311 L
190.042 81.033 L
190.042 80.755 L
189.277 80.477 L
189.277 80.199 L
189.277 79.921 L
189.277 79.643 L
189.277 79.365 L
189.277 79.087 L
188.733 78.809 L
187.747 78.531 L
187.747 78.253 L
187.747 77.975 L
187.747 77.697 L
187.747 77.419 L
187.747 77.141 L
187.747 76.863 L
187.743 76.585 L
186.011 76.307 L
185.772 76.029 L
184.432 75.751 L
184.432 75.473 L
183.909 75.196 L
183.67 74.918 L
183.157 74.64 L
183.157 74.362 L
183.157 74.084 L
183.157 73.806 L
183.157 73.528 L
183.157 73.25 L
183.157 72.972 L
183.157 72.694 L
183.157 72.416 L
183.157 72.138 L
183.157 71.86 L
183.157 71.582 L
183.157 71.304 L
183.157 71.026 L
183.157 70.748 L
181.597 70.47 L
181.383 70.192 L
181.372 69.914 L
181.372 69.636 L
181.372 69.358 L
180.887 69.08 L
179.99 68.802 L
179.756 68.525 L
179.721 68.247 L
179.588 67.969 L
179.089 67.691 L
179.069 67.413 L
178.568 67.135 L
178.568 66.857 L
178.568 66.579 L
178.568 66.301 L
178.568 66.023 L
178.568 65.745 L
178.568 65.467 L
178.568 65.189 L
178.568 64.911 L
178.568 64.633 L
178.568 64.355 L
178.568 64.077 L
177.038 63.799 L
177.038 63.521 L
177.038 63.243 L
176.333 62.965 L
174.395 62.687 L
174.017 62.409 L
173.978 62.131 L
173.978 61.854 L
173.978 61.576 L
173.978 61.298 L
173.978 61.02 L
173.978 60.742 L
173.978 60.464 L
173.978 60.186 L
173.978 59.908 L
173.978 59.63 L
172.703 59.352 L
172.703 59.074 L
172.703 58.796 L
172.703 58.518 L
172.703 58.24 L
172.703 57.962 L
172.703 57.684 L
172.703 57.406 L
172.703 57.128 L
172.187 56.85 L
170.918 56.572 L
170.918 56.294 L
170.918 56.016 L
169.957 55.738 L
169.655 55.461 L
169.553 55.183 L
169.388 54.905 L
168.368 54.627 L
168.368 54.349 L
168.368 54.071 L
168.368 53.793 L
168.368 53.515 L
168.368 53.237 L
167.316 52.959 L
167.316 52.681 L
166.92 52.403 L
166.838 52.125 L
166.838 51.847 L
165.954 51.569 L
165.369 51.291 L
164.798 51.013 L
164.571 50.735 L
164.571 50.457 L
164.571 50.179 L
164.571 49.901 L
164.086 49.623 L
164.086 49.345 L
164.086 49.067 L
164.033 48.79 L
163.991 48.512 L
162.758 48.234 L
162.758 47.956 L
160.973 47.678 L
160.973 47.4 L
160.973 47.122 L
160.973 46.844 L
160.152 46.566 L
158.343 46.288 L
157.922 46.01 L
157.922 45.732 L
157.683 45.454 L
157.148 45.176 L
157.148 44.898 L
157.077 44.62 L
154.49 44.342 L
154.441 44.064 L
154.037 43.786 L
153.998 43.508 L
149.193 43.23 L
148.405 42.952 L
147.969 42.674 L
147.461 42.396 L
147.461 42.119 L
144.531 41.841 L
144.531 41.563 L
144.301 41.285 L
143.275 41.007 L
142.15 40.729 L
141.526 40.451 L
140.345 40.173 L
139.389 39.895 L
135.297 39.617 L
135.297 39.339 L
134.689 39.061 L
132.862 38.783 L
131.37 38.505 L
131.267 38.227 L
131.199 37.949 L
131.199 37.671 L
131.094 37.393 L
130.579 37.115 L
130.447 36.837 L
127.505 36.559 L
126.612 36.281 L
126.198 36.003 L
124.801 35.725 L
123.701 35.448 L
121.222 35.17 L
119.955 34.892 L
118.302 34.614 L
117.772 34.336 L
115.415 34.058 L
112.738 33.78 L
112.635 33.502 L
109.78 33.224 L
108.012 32.946 L
107.509 32.668 L
106.473 32.39 L
100.225 32.112 L
98.802 31.834 L
96.673 31.556 L
87 31.278 L
85.4 31 L
73 31 L
S
GR
GS
[0.75 0 0 0.75 0 0] CT
1 GC
N
390 97 M
390 44 L
494 44 L
494 97 L
cp
f
GR
GS
[0.75 0 0 0.75 327.75 40.5] CT
/Helvetica 12 F
GS
[1 0 0 1 0 0] CT
0 5 moveto 
1 -1 scale
(Meanshift) t 
GR
GR
GS
[0.75 0 0 0.75 0 0] CT
1 0 0 RC
1 LJ
2.667 LW
N
394 54 M
434 54 L
S
GR
GS
[0.75 0 0 0.75 327.75 52.875] CT
/Helvetica 12 F
GS
[1 0 0 1 0 0] CT
0 5 moveto 
1 -1 scale
(KCF) t 
GR
GR
GS
[0.75 0 0 0.75 0 0] CT
0 1 0 RC
[8 2 4 2] 0 setdash
2 LJ
2.667 LW
N
394 70.5 M
434 70.5 L
S
GR
GS
[0.75 0 0 0.75 327.75 65.25] CT
/Helvetica 12 F
GS
[1 0 0 1 0 0] CT
0 5 moveto 
1 -1 scale
(STRUCK) t 
GR
GR
GS
[0.75 0 0 0.75 0 0] CT
0 0 1 RC
[8 8] 0 setdash
2 LJ
2.667 LW
N
394 87 M
434 87 L
S
GR
GS
[0.75 0 0 0.75 0 0] CT
0.149 GC
10.0 ML
0.667 LW
N
390 97 M
390 44 L
494 44 L
494 97 L
cp
S
GR
%%Trailer
%%Pages: 1
%%EOF
