%!PS-Adobe-3.0 EPSF-3.0
%%Creator: (MATLAB, The Mathworks, Inc. Version 9.2.0.538062 \(R2017a\). Operating System: Windows 8)
%%Title: C:/Users/jack/ANU/engn3712-report/images/egtest02-precision.eps
%%CreationDate: 2017-10-15T15:04:57
%%Pages: (atend)
%%BoundingBox: 0 0 420 315
%%LanguageLevel: 3
%%EndComments
%%BeginProlog
%%BeginResource: procset (Apache XML Graphics Std ProcSet) 1.2 0
%%Version: 1.2 0
%%Copyright: (Copyright 2001-2003,2010 The Apache Software Foundation. License terms: http://www.apache.org/licenses/LICENSE-2.0)
/bd{bind def}bind def
/ld{load def}bd
/GR/grestore ld
/M/moveto ld
/LJ/setlinejoin ld
/C/curveto ld
/f/fill ld
/LW/setlinewidth ld
/GC/setgray ld
/t/show ld
/N/newpath ld
/CT/concat ld
/cp/closepath ld
/S/stroke ld
/L/lineto ld
/CC/setcmykcolor ld
/A/ashow ld
/GS/gsave ld
/RC/setrgbcolor ld
/RM/rmoveto ld
/ML/setmiterlimit ld
/re {4 2 roll M
1 index 0 rlineto
0 exch rlineto
neg 0 rlineto
cp } bd
/_ctm matrix def
/_tm matrix def
/BT { _ctm currentmatrix pop matrix _tm copy pop 0 0 moveto } bd
/ET { _ctm setmatrix } bd
/iTm { _ctm setmatrix _tm concat } bd
/Tm { _tm astore pop iTm 0 0 moveto } bd
/ux 0.0 def
/uy 0.0 def
/F {
  /Tp exch def
  /Tf exch def
  Tf findfont Tp scalefont setfont
  /cf Tf def  /cs Tp def
} bd
/ULS {currentpoint /uy exch def /ux exch def} bd
/ULE {
  /Tcx currentpoint pop def
  gsave
  newpath
  cf findfont cs scalefont dup
  /FontMatrix get 0 get /Ts exch def /FontInfo get dup
  /UnderlinePosition get Ts mul /To exch def
  /UnderlineThickness get Ts mul /Tt exch def
  ux uy To add moveto  Tcx uy To add lineto
  Tt setlinewidth stroke
  grestore
} bd
/OLE {
  /Tcx currentpoint pop def
  gsave
  newpath
  cf findfont cs scalefont dup
  /FontMatrix get 0 get /Ts exch def /FontInfo get dup
  /UnderlinePosition get Ts mul /To exch def
  /UnderlineThickness get Ts mul /Tt exch def
  ux uy To add cs add moveto Tcx uy To add cs add lineto
  Tt setlinewidth stroke
  grestore
} bd
/SOE {
  /Tcx currentpoint pop def
  gsave
  newpath
  cf findfont cs scalefont dup
  /FontMatrix get 0 get /Ts exch def /FontInfo get dup
  /UnderlinePosition get Ts mul /To exch def
  /UnderlineThickness get Ts mul /Tt exch def
  ux uy To add cs 10 mul 26 idiv add moveto Tcx uy To add cs 10 mul 26 idiv add lineto
  Tt setlinewidth stroke
  grestore
} bd
/QT {
/Y22 exch store
/X22 exch store
/Y21 exch store
/X21 exch store
currentpoint
/Y21 load 2 mul add 3 div exch
/X21 load 2 mul add 3 div exch
/X21 load 2 mul /X22 load add 3 div
/Y21 load 2 mul /Y22 load add 3 div
/X22 load /Y22 load curveto
} bd
/SSPD {
dup length /d exch dict def
{
/v exch def
/k exch def
currentpagedevice k known {
/cpdv currentpagedevice k get def
v cpdv ne {
/upd false def
/nullv v type /nulltype eq def
/nullcpdv cpdv type /nulltype eq def
nullv nullcpdv or
{
/upd true def
} {
/sametype v type cpdv type eq def
sametype {
v type /arraytype eq {
/vlen v length def
/cpdvlen cpdv length def
vlen cpdvlen eq {
0 1 vlen 1 sub {
/i exch def
/obj v i get def
/cpdobj cpdv i get def
obj cpdobj ne {
/upd true def
exit
} if
} for
} {
/upd true def
} ifelse
} {
v type /dicttype eq {
v {
/dv exch def
/dk exch def
/cpddv cpdv dk get def
dv cpddv ne {
/upd true def
exit
} if
} forall
} {
/upd true def
} ifelse
} ifelse
} if
} ifelse
upd true eq {
d k v put
} if
} if
} if
} forall
d length 0 gt {
d setpagedevice
} if
} bd
/RE { % /NewFontName [NewEncodingArray] /FontName RE -
  findfont dup length dict begin
  {
    1 index /FID ne
    {def} {pop pop} ifelse
  } forall
  /Encoding exch def
  /FontName 1 index def
  currentdict definefont pop
  end
} bind def
%%EndResource
%%BeginResource: procset (Apache XML Graphics EPS ProcSet) 1.0 0
%%Version: 1.0 0
%%Copyright: (Copyright 2002-2003 The Apache Software Foundation. License terms: http://www.apache.org/licenses/LICENSE-2.0)
/BeginEPSF { %def
/b4_Inc_state save def         % Save state for cleanup
/dict_count countdictstack def % Count objects on dict stack
/op_count count 1 sub def      % Count objects on operand stack
userdict begin                 % Push userdict on dict stack
/showpage { } def              % Redefine showpage, { } = null proc
0 setgray 0 setlinecap         % Prepare graphics state
1 setlinewidth 0 setlinejoin
10 setmiterlimit [ ] 0 setdash newpath
/languagelevel where           % If level not equal to 1 then
{pop languagelevel             % set strokeadjust and
1 ne                           % overprint to their defaults.
{false setstrokeadjust false setoverprint
} if
} if
} bd
/EndEPSF { %def
count op_count sub {pop} repeat            % Clean up stacks
countdictstack dict_count sub {end} repeat
b4_Inc_state restore
} bd
%%EndResource
%FOPBeginFontDict
%%IncludeResource: font Courier-Bold
%%IncludeResource: font Helvetica
%%IncludeResource: font Courier-BoldOblique
%%IncludeResource: font Courier-Oblique
%%IncludeResource: font Times-Roman
%%IncludeResource: font Helvetica-BoldOblique
%%IncludeResource: font Helvetica-Bold
%%IncludeResource: font Helvetica-Oblique
%%IncludeResource: font Times-BoldItalic
%%IncludeResource: font Courier
%%IncludeResource: font Times-Italic
%%IncludeResource: font Times-Bold
%%IncludeResource: font Symbol
%%IncludeResource: font ZapfDingbats
%FOPEndFontDict
%%BeginResource: encoding WinAnsiEncoding
/WinAnsiEncoding [
/.notdef /.notdef /.notdef /.notdef /.notdef
/.notdef /.notdef /.notdef /.notdef /.notdef
/.notdef /.notdef /.notdef /.notdef /.notdef
/.notdef /.notdef /.notdef /.notdef /.notdef
/.notdef /.notdef /.notdef /.notdef /.notdef
/.notdef /.notdef /.notdef /.notdef /.notdef
/.notdef /.notdef /space /exclam /quotedbl
/numbersign /dollar /percent /ampersand /quotesingle
/parenleft /parenright /asterisk /plus /comma
/hyphen /period /slash /zero /one
/two /three /four /five /six
/seven /eight /nine /colon /semicolon
/less /equal /greater /question /at
/A /B /C /D /E
/F /G /H /I /J
/K /L /M /N /O
/P /Q /R /S /T
/U /V /W /X /Y
/Z /bracketleft /backslash /bracketright /asciicircum
/underscore /quoteleft /a /b /c
/d /e /f /g /h
/i /j /k /l /m
/n /o /p /q /r
/s /t /u /v /w
/x /y /z /braceleft /bar
/braceright /asciitilde /bullet /Euro /bullet
/quotesinglbase /florin /quotedblbase /ellipsis /dagger
/daggerdbl /circumflex /perthousand /Scaron /guilsinglleft
/OE /bullet /Zcaron /bullet /bullet
/quoteleft /quoteright /quotedblleft /quotedblright /bullet
/endash /emdash /asciitilde /trademark /scaron
/guilsinglright /oe /bullet /zcaron /Ydieresis
/space /exclamdown /cent /sterling /currency
/yen /brokenbar /section /dieresis /copyright
/ordfeminine /guillemotleft /logicalnot /sfthyphen /registered
/macron /degree /plusminus /twosuperior /threesuperior
/acute /mu /paragraph /middot /cedilla
/onesuperior /ordmasculine /guillemotright /onequarter /onehalf
/threequarters /questiondown /Agrave /Aacute /Acircumflex
/Atilde /Adieresis /Aring /AE /Ccedilla
/Egrave /Eacute /Ecircumflex /Edieresis /Igrave
/Iacute /Icircumflex /Idieresis /Eth /Ntilde
/Ograve /Oacute /Ocircumflex /Otilde /Odieresis
/multiply /Oslash /Ugrave /Uacute /Ucircumflex
/Udieresis /Yacute /Thorn /germandbls /agrave
/aacute /acircumflex /atilde /adieresis /aring
/ae /ccedilla /egrave /eacute /ecircumflex
/edieresis /igrave /iacute /icircumflex /idieresis
/eth /ntilde /ograve /oacute /ocircumflex
/otilde /odieresis /divide /oslash /ugrave
/uacute /ucircumflex /udieresis /yacute /thorn
/ydieresis
] def
%%EndResource
%FOPBeginFontReencode
/Courier-Bold findfont
dup length dict begin
  {1 index /FID ne {def} {pop pop} ifelse} forall
  /Encoding WinAnsiEncoding def
  currentdict
end
/Courier-Bold exch definefont pop
/Helvetica findfont
dup length dict begin
  {1 index /FID ne {def} {pop pop} ifelse} forall
  /Encoding WinAnsiEncoding def
  currentdict
end
/Helvetica exch definefont pop
/Courier-BoldOblique findfont
dup length dict begin
  {1 index /FID ne {def} {pop pop} ifelse} forall
  /Encoding WinAnsiEncoding def
  currentdict
end
/Courier-BoldOblique exch definefont pop
/Courier-Oblique findfont
dup length dict begin
  {1 index /FID ne {def} {pop pop} ifelse} forall
  /Encoding WinAnsiEncoding def
  currentdict
end
/Courier-Oblique exch definefont pop
/Times-Roman findfont
dup length dict begin
  {1 index /FID ne {def} {pop pop} ifelse} forall
  /Encoding WinAnsiEncoding def
  currentdict
end
/Times-Roman exch definefont pop
/Helvetica-BoldOblique findfont
dup length dict begin
  {1 index /FID ne {def} {pop pop} ifelse} forall
  /Encoding WinAnsiEncoding def
  currentdict
end
/Helvetica-BoldOblique exch definefont pop
/Helvetica-Bold findfont
dup length dict begin
  {1 index /FID ne {def} {pop pop} ifelse} forall
  /Encoding WinAnsiEncoding def
  currentdict
end
/Helvetica-Bold exch definefont pop
/Helvetica-Oblique findfont
dup length dict begin
  {1 index /FID ne {def} {pop pop} ifelse} forall
  /Encoding WinAnsiEncoding def
  currentdict
end
/Helvetica-Oblique exch definefont pop
/Times-BoldItalic findfont
dup length dict begin
  {1 index /FID ne {def} {pop pop} ifelse} forall
  /Encoding WinAnsiEncoding def
  currentdict
end
/Times-BoldItalic exch definefont pop
/Courier findfont
dup length dict begin
  {1 index /FID ne {def} {pop pop} ifelse} forall
  /Encoding WinAnsiEncoding def
  currentdict
end
/Courier exch definefont pop
/Times-Italic findfont
dup length dict begin
  {1 index /FID ne {def} {pop pop} ifelse} forall
  /Encoding WinAnsiEncoding def
  currentdict
end
/Times-Italic exch definefont pop
/Times-Bold findfont
dup length dict begin
  {1 index /FID ne {def} {pop pop} ifelse} forall
  /Encoding WinAnsiEncoding def
  currentdict
end
/Times-Bold exch definefont pop
%FOPEndFontReencode
%%EndProlog
%%Page: 1 1
%%PageBoundingBox: 0 0 420 315
%%BeginPageSetup
[1 0 0 -1 0 315] CT
%%EndPageSetup
GS
[0.75 0 0 0.75 0 0] CT
1 GC
N
0 0 560 420 re
f
GR
GS
[0.75 0 0 0.75 0 0] CT
1 GC
N
0 0 560 420 re
f
GR
GS
[0.75 0 0 0.75 0 0] CT
1 GC
N
73 374 M
507 374 L
507 31 L
73 31 L
cp
f
GR
GS
[0.75 0 0 0.75 0 0] CT
0.149 GC
2 setlinecap
1 LJ
0.667 LW
N
73 374 M
507 374 L
S
GR
GS
[0.75 0 0 0.75 0 0] CT
0.149 GC
2 setlinecap
1 LJ
0.667 LW
N
73 374 M
73 369.66 L
S
GR
GS
[0.75 0 0 0.75 0 0] CT
0.149 GC
2 setlinecap
1 LJ
0.667 LW
N
145.333 374 M
145.333 369.66 L
S
GR
GS
[0.75 0 0 0.75 0 0] CT
0.149 GC
2 setlinecap
1 LJ
0.667 LW
N
217.667 374 M
217.667 369.66 L
S
GR
GS
[0.75 0 0 0.75 0 0] CT
0.149 GC
2 setlinecap
1 LJ
0.667 LW
N
290 374 M
290 369.66 L
S
GR
GS
[0.75 0 0 0.75 0 0] CT
0.149 GC
2 setlinecap
1 LJ
0.667 LW
N
362.333 374 M
362.333 369.66 L
S
GR
GS
[0.75 0 0 0.75 0 0] CT
0.149 GC
2 setlinecap
1 LJ
0.667 LW
N
434.667 374 M
434.667 369.66 L
S
GR
GS
[0.75 0 0 0.75 0 0] CT
0.149 GC
2 setlinecap
1 LJ
0.667 LW
N
507 374 M
507 369.66 L
S
GR
GS
[0.75 0 0 0.75 54.75 284.50001] CT
0.149 GC
/Helvetica 13.333 F
GS
[1 0 0 1 0 0] CT
-4 14 moveto 
1 -1 scale
(0) t 
GR
GR
GS
[0.75 0 0 0.75 109 284.50001] CT
0.149 GC
/Helvetica 13.333 F
GS
[1 0 0 1 0 0] CT
-9.5 14 moveto 
1 -1 scale
(0.2) t 
GR
GR
GS
[0.75 0 0 0.75 163.25 284.50001] CT
0.149 GC
/Helvetica 13.333 F
GS
[1 0 0 1 0 0] CT
-9.5 14 moveto 
1 -1 scale
(0.4) t 
GR
GR
GS
[0.75 0 0 0.75 217.5 284.50001] CT
0.149 GC
/Helvetica 13.333 F
GS
[1 0 0 1 0 0] CT
-9.5 14 moveto 
1 -1 scale
(0.6) t 
GR
GR
GS
[0.75 0 0 0.75 271.75001 284.50001] CT
0.149 GC
/Helvetica 13.333 F
GS
[1 0 0 1 0 0] CT
-9.5 14 moveto 
1 -1 scale
(0.8) t 
GR
GR
GS
[0.75 0 0 0.75 325.99999 284.50001] CT
0.149 GC
/Helvetica 13.333 F
GS
[1 0 0 1 0 0] CT
-4 14 moveto 
1 -1 scale
(1) t 
GR
GR
GS
[0.75 0 0 0.75 380.25002 284.50001] CT
0.149 GC
/Helvetica 13.333 F
GS
[1 0 0 1 0 0] CT
-9.5 14 moveto 
1 -1 scale
(1.2) t 
GR
GR
GS
[0.75 0 0 0.75 217.50016 298.24999] CT
0.149 GC
/Helvetica 14.667 F
GS
[1 0 0 1 0 0] CT
-33.5 16 moveto 
1 -1 scale
(Threshold) t 
GR
GR
GS
[0.75 0 0 0.75 0 0] CT
0.149 GC
2 setlinecap
1 LJ
0.667 LW
N
73 374 M
73 31 L
S
GR
GS
[0.75 0 0 0.75 0 0] CT
0.149 GC
2 setlinecap
1 LJ
0.667 LW
N
73 374 M
77.34 374 L
S
GR
GS
[0.75 0 0 0.75 0 0] CT
0.149 GC
2 setlinecap
1 LJ
0.667 LW
N
73 339.7 M
77.34 339.7 L
S
GR
GS
[0.75 0 0 0.75 0 0] CT
0.149 GC
2 setlinecap
1 LJ
0.667 LW
N
73 305.4 M
77.34 305.4 L
S
GR
GS
[0.75 0 0 0.75 0 0] CT
0.149 GC
2 setlinecap
1 LJ
0.667 LW
N
73 271.1 M
77.34 271.1 L
S
GR
GS
[0.75 0 0 0.75 0 0] CT
0.149 GC
2 setlinecap
1 LJ
0.667 LW
N
73 236.8 M
77.34 236.8 L
S
GR
GS
[0.75 0 0 0.75 0 0] CT
0.149 GC
2 setlinecap
1 LJ
0.667 LW
N
73 202.5 M
77.34 202.5 L
S
GR
GS
[0.75 0 0 0.75 0 0] CT
0.149 GC
2 setlinecap
1 LJ
0.667 LW
N
73 168.2 M
77.34 168.2 L
S
GR
GS
[0.75 0 0 0.75 0 0] CT
0.149 GC
2 setlinecap
1 LJ
0.667 LW
N
73 133.9 M
77.34 133.9 L
S
GR
GS
[0.75 0 0 0.75 0 0] CT
0.149 GC
2 setlinecap
1 LJ
0.667 LW
N
73 99.6 M
77.34 99.6 L
S
GR
GS
[0.75 0 0 0.75 0 0] CT
0.149 GC
2 setlinecap
1 LJ
0.667 LW
N
73 65.3 M
77.34 65.3 L
S
GR
GS
[0.75 0 0 0.75 0 0] CT
0.149 GC
2 setlinecap
1 LJ
0.667 LW
N
73 31 M
77.34 31 L
S
GR
GS
[0.75 0 0 0.75 50.75 280.5] CT
0.149 GC
/Helvetica 13.333 F
GS
[1 0 0 1 0 0] CT
-8 5.5 moveto 
1 -1 scale
(0) t 
GR
GR
GS
[0.75 0 0 0.75 50.75 254.77501] CT
0.149 GC
/Helvetica 13.333 F
GS
[1 0 0 1 0 0] CT
-19 5.5 moveto 
1 -1 scale
(0.1) t 
GR
GR
GS
[0.75 0 0 0.75 50.75 229.05] CT
0.149 GC
/Helvetica 13.333 F
GS
[1 0 0 1 0 0] CT
-19 5.5 moveto 
1 -1 scale
(0.2) t 
GR
GR
GS
[0.75 0 0 0.75 50.75 203.325] CT
0.149 GC
/Helvetica 13.333 F
GS
[1 0 0 1 0 0] CT
-19 5.5 moveto 
1 -1 scale
(0.3) t 
GR
GR
GS
[0.75 0 0 0.75 50.75 177.6] CT
0.149 GC
/Helvetica 13.333 F
GS
[1 0 0 1 0 0] CT
-19 5.5 moveto 
1 -1 scale
(0.4) t 
GR
GR
GS
[0.75 0 0 0.75 50.75 151.875] CT
0.149 GC
/Helvetica 13.333 F
GS
[1 0 0 1 0 0] CT
-19 5.5 moveto 
1 -1 scale
(0.5) t 
GR
GR
GS
[0.75 0 0 0.75 50.75 126.15] CT
0.149 GC
/Helvetica 13.333 F
GS
[1 0 0 1 0 0] CT
-19 5.5 moveto 
1 -1 scale
(0.6) t 
GR
GR
GS
[0.75 0 0 0.75 50.75 100.42501] CT
0.149 GC
/Helvetica 13.333 F
GS
[1 0 0 1 0 0] CT
-19 5.5 moveto 
1 -1 scale
(0.7) t 
GR
GR
GS
[0.75 0 0 0.75 50.75 74.7] CT
0.149 GC
/Helvetica 13.333 F
GS
[1 0 0 1 0 0] CT
-19 5.5 moveto 
1 -1 scale
(0.8) t 
GR
GR
GS
[0.75 0 0 0.75 50.75 48.97501] CT
0.149 GC
/Helvetica 13.333 F
GS
[1 0 0 1 0 0] CT
-19 5.5 moveto 
1 -1 scale
(0.9) t 
GR
GR
GS
[0.75 0 0 0.75 50.75 23.25] CT
0.149 GC
/Helvetica 13.333 F
GS
[1 0 0 1 0 0] CT
-8 5.5 moveto 
1 -1 scale
(1) t 
GR
GR
GS
[0 -0.75 0.75 0 33.5 151.87487] CT
0.149 GC
/Helvetica 14.667 F
GS
[1 0 0 1 0 0] CT
-31 -4 moveto 
1 -1 scale
(Precision) t 
GR
GR
GS
[0.75 0 0 0.75 0 0] CT
1 0 0 RC
1 LJ
2.667 LW
N
73 374 M
78.02 373.715 L
78.902 373.43 L
80.485 373.145 L
81.126 372.86 L
82.178 372.576 L
83.437 372.291 L
83.517 372.006 L
84.65 371.721 L
86.134 371.436 L
86.318 371.151 L
86.575 370.866 L
86.877 370.581 L
86.973 370.297 L
87.068 370.012 L
87.552 369.727 L
87.965 369.442 L
89.052 369.157 L
89.224 368.872 L
89.431 368.587 L
89.58 368.302 L
89.845 368.017 L
90.164 367.733 L
90.551 367.448 L
90.662 367.163 L
90.689 366.878 L
91.048 366.593 L
92.108 366.308 L
92.28 366.023 L
92.289 365.738 L
92.427 365.453 L
92.602 365.169 L
92.824 364.884 L
93.023 364.599 L
93.049 364.314 L
93.288 364.029 L
93.923 363.744 L
94.352 363.459 L
94.436 363.174 L
95.111 362.89 L
95.37 362.605 L
95.607 362.32 L
95.85 362.035 L
96.042 361.75 L
96.26 361.465 L
96.265 361.18 L
96.494 360.895 L
96.787 360.61 L
96.805 360.326 L
98.126 360.041 L
98.644 359.756 L
98.775 359.471 L
98.8 359.186 L
98.861 358.901 L
99.145 358.616 L
99.753 358.331 L
99.954 358.047 L
100.104 357.762 L
100.245 357.477 L
100.255 357.192 L
100.683 356.907 L
100.948 356.622 L
100.98 356.337 L
101.228 356.052 L
101.469 355.767 L
101.719 355.483 L
101.894 355.198 L
101.897 354.913 L
102.089 354.628 L
102.189 354.343 L
102.202 354.058 L
102.214 353.773 L
102.39 353.488 L
102.454 353.203 L
102.718 352.919 L
102.777 352.634 L
102.805 352.349 L
102.943 352.064 L
102.946 351.779 L
102.955 351.494 L
103.021 351.209 L
103.08 350.924 L
103.099 350.64 L
103.173 350.355 L
103.202 350.07 L
103.282 349.785 L
103.303 349.5 L
103.406 349.215 L
103.633 348.93 L
104.034 348.645 L
104.137 348.36 L
104.386 348.076 L
104.479 347.791 L
104.485 347.506 L
104.615 347.221 L
104.812 346.936 L
104.879 346.651 L
104.896 346.366 L
104.939 346.081 L
104.995 345.797 L
105.173 345.512 L
105.414 345.227 L
105.646 344.942 L
105.721 344.657 L
105.75 344.372 L
105.997 344.087 L
106.052 343.802 L
106.242 343.517 L
106.927 343.233 L
106.969 342.948 L
107.128 342.663 L
107.528 342.378 L
107.81 342.093 L
107.828 341.808 L
107.985 341.523 L
108.103 341.238 L
108.146 340.954 L
108.231 340.669 L
108.255 340.384 L
108.436 340.099 L
108.475 339.814 L
108.492 339.529 L
109.002 339.244 L
109.084 338.959 L
109.144 338.674 L
109.168 338.39 L
109.427 338.105 L
109.488 337.82 L
109.494 337.535 L
109.495 337.25 L
109.66 336.965 L
109.797 336.68 L
109.81 336.395 L
110.095 336.111 L
110.114 335.826 L
110.344 335.541 L
110.441 335.256 L
110.713 334.971 L
110.811 334.686 L
110.877 334.401 L
110.942 334.116 L
110.982 333.831 L
110.99 333.547 L
111.092 333.262 L
111.257 332.977 L
111.285 332.692 L
111.367 332.407 L
111.45 332.122 L
111.566 331.837 L
111.596 331.552 L
111.597 331.267 L
111.605 330.983 L
111.772 330.698 L
111.815 330.413 L
111.832 330.128 L
111.883 329.843 L
111.948 329.558 L
112.133 329.273 L
112.14 328.988 L
112.196 328.704 L
112.287 328.419 L
112.301 328.134 L
112.413 327.849 L
112.523 327.564 L
112.575 327.279 L
112.612 326.994 L
112.614 326.709 L
113.079 326.424 L
113.255 326.14 L
113.29 325.855 L
113.356 325.57 L
113.429 325.285 L
113.458 325 L
113.735 324.715 L
113.742 324.43 L
113.825 324.145 L
113.922 323.861 L
114.041 323.576 L
114.316 323.291 L
114.5 323.006 L
114.587 322.721 L
114.745 322.436 L
114.752 322.151 L
114.852 321.866 L
114.891 321.581 L
114.973 321.297 L
114.992 321.012 L
115.028 320.727 L
115.073 320.442 L
115.102 320.157 L
115.137 319.872 L
115.145 319.587 L
115.155 319.302 L
115.369 319.017 L
115.441 318.733 L
115.499 318.448 L
115.607 318.163 L
115.792 317.878 L
115.913 317.593 L
116.02 317.308 L
116.047 317.023 L
116.056 316.738 L
116.124 316.454 L
116.263 316.169 L
116.634 315.884 L
116.649 315.599 L
116.7 315.314 L
116.777 315.029 L
116.818 314.744 L
116.945 314.459 L
117.087 314.174 L
117.149 313.89 L
117.236 313.605 L
117.31 313.32 L
117.36 313.035 L
117.393 312.75 L
117.423 312.465 L
117.471 312.18 L
117.586 311.895 L
117.688 311.611 L
117.773 311.326 L
117.813 311.041 L
117.816 310.756 L
117.903 310.471 L
117.967 310.186 L
117.981 309.901 L
117.988 309.616 L
117.999 309.331 L
118.056 309.047 L
118.11 308.762 L
118.242 308.477 L
118.266 308.192 L
118.322 307.907 L
118.373 307.622 L
118.629 307.337 L
118.642 307.052 L
118.687 306.767 L
118.732 306.483 L
118.825 306.198 L
118.829 305.913 L
118.829 305.628 L
119.085 305.343 L
119.285 305.058 L
119.423 304.773 L
119.45 304.488 L
119.52 304.204 L
119.567 303.919 L
119.677 303.634 L
119.684 303.349 L
119.736 303.064 L
119.787 302.779 L
119.83 302.494 L
119.859 302.209 L
119.973 301.924 L
119.977 301.64 L
119.996 301.355 L
120.11 301.07 L
120.37 300.785 L
120.466 300.5 L
120.481 300.215 L
120.515 299.93 L
120.624 299.645 L
120.679 299.361 L
120.743 299.076 L
120.82 298.791 L
120.862 298.506 L
120.866 298.221 L
120.918 297.936 L
120.949 297.651 L
121.182 297.366 L
121.464 297.081 L
121.492 296.797 L
121.589 296.512 L
121.67 296.227 L
121.675 295.942 L
121.903 295.657 L
121.959 295.372 L
121.972 295.087 L
122.042 294.802 L
122.168 294.517 L
122.27 294.233 L
122.275 293.948 L
122.28 293.663 L
122.296 293.378 L
122.336 293.093 L
122.349 292.808 L
122.45 292.523 L
122.587 292.238 L
122.708 291.954 L
122.751 291.669 L
122.859 291.384 L
122.864 291.099 L
122.938 290.814 L
123.005 290.529 L
123.019 290.244 L
123.306 289.959 L
123.316 289.674 L
123.57 289.39 L
123.593 289.105 L
123.625 288.82 L
123.795 288.535 L
123.909 288.25 L
123.941 287.965 L
124.051 287.68 L
124.139 287.395 L
124.252 287.111 L
124.295 286.826 L
124.296 286.541 L
124.318 286.256 L
124.46 285.971 L
124.523 285.686 L
124.545 285.401 L
124.573 285.116 L
124.645 284.831 L
124.79 284.547 L
124.825 284.262 L
124.874 283.977 L
124.899 283.692 L
125.019 283.407 L
125.139 283.122 L
125.2 282.837 L
125.218 282.552 L
125.362 282.267 L
125.478 281.983 L
125.639 281.698 L
125.712 281.413 L
125.717 281.128 L
125.735 280.843 L
125.902 280.558 L
125.981 280.273 L
126.057 279.988 L
126.221 279.704 L
126.26 279.419 L
126.27 279.134 L
126.565 278.849 L
126.623 278.564 L
126.632 278.279 L
126.632 277.994 L
126.64 277.709 L
126.784 277.424 L
126.943 277.14 L
127.124 276.855 L
127.164 276.57 L
127.266 276.285 L
127.302 276 L
127.331 275.715 L
127.339 275.43 L
127.39 275.145 L
127.396 274.861 L
127.647 274.576 L
127.671 274.291 L
127.896 274.006 L
127.953 273.721 L
127.963 273.436 L
127.971 273.151 L
128.003 272.866 L
128.122 272.581 L
128.208 272.297 L
128.461 272.012 L
128.485 271.727 L
128.58 271.442 L
128.689 271.157 L
128.73 270.872 L
128.772 270.587 L
128.818 270.302 L
128.857 270.018 L
128.948 269.733 L
128.953 269.448 L
128.996 269.163 L
129.038 268.878 L
129.112 268.593 L
129.121 268.308 L
129.155 268.023 L
129.163 267.738 L
129.22 267.454 L
129.273 267.169 L
129.344 266.884 L
129.473 266.599 L
129.554 266.314 L
129.637 266.029 L
129.824 265.744 L
129.833 265.459 L
129.834 265.174 L
130.088 264.89 L
130.167 264.605 L
130.225 264.32 L
130.305 264.035 L
130.36 263.75 L
130.414 263.465 L
130.596 263.18 L
130.602 262.895 L
130.642 262.611 L
130.67 262.326 L
130.725 262.041 L
130.74 261.756 L
130.83 261.471 L
130.882 261.186 L
130.916 260.901 L
131.032 260.616 L
131.14 260.331 L
131.183 260.047 L
131.199 259.762 L
131.229 259.477 L
131.282 259.192 L
131.338 258.907 L
131.481 258.622 L
131.494 258.337 L
131.545 258.052 L
131.572 257.768 L
131.617 257.483 L
131.854 257.198 L
131.93 256.913 L
131.95 256.628 L
131.967 256.343 L
132.08 256.058 L
132.161 255.773 L
132.212 255.488 L
132.588 255.204 L
132.742 254.919 L
132.817 254.634 L
132.991 254.349 L
133.011 254.064 L
133.059 253.779 L
133.152 253.494 L
133.192 253.209 L
133.193 252.924 L
133.195 252.64 L
133.201 252.355 L
133.21 252.07 L
133.267 251.785 L
133.305 251.5 L
133.359 251.215 L
133.523 250.93 L
133.726 250.645 L
133.8 250.361 L
133.801 250.076 L
133.875 249.791 L
133.892 249.506 L
133.903 249.221 L
133.988 248.936 L
134.01 248.651 L
134.023 248.366 L
134.051 248.081 L
134.095 247.797 L
134.194 247.512 L
134.265 247.227 L
134.296 246.942 L
134.337 246.657 L
134.35 246.372 L
134.359 246.087 L
134.651 245.802 L
134.688 245.518 L
134.774 245.233 L
134.803 244.948 L
135.044 244.663 L
135.11 244.378 L
135.161 244.093 L
135.164 243.808 L
135.182 243.523 L
135.255 243.238 L
135.317 242.954 L
135.402 242.669 L
135.432 242.384 L
135.505 242.099 L
135.556 241.814 L
135.803 241.529 L
135.862 241.244 L
135.987 240.959 L
135.999 240.674 L
136.039 240.39 L
136.106 240.105 L
136.211 239.82 L
136.255 239.535 L
136.285 239.25 L
136.354 238.965 L
136.412 238.68 L
136.427 238.395 L
136.47 238.111 L
136.952 237.826 L
136.968 237.541 L
137.066 237.256 L
137.112 236.971 L
137.123 236.686 L
137.13 236.401 L
137.139 236.116 L
137.192 235.831 L
137.218 235.547 L
137.318 235.262 L
137.328 234.977 L
137.39 234.692 L
137.495 234.407 L
137.511 234.122 L
137.574 233.837 L
137.576 233.552 L
137.628 233.268 L
137.746 232.983 L
137.777 232.698 L
137.815 232.413 L
138.071 232.128 L
138.161 231.843 L
138.162 231.558 L
138.264 231.273 L
138.294 230.988 L
138.322 230.704 L
138.38 230.419 L
138.426 230.134 L
138.455 229.849 L
138.521 229.564 L
138.562 229.279 L
138.783 228.994 L
138.826 228.709 L
138.832 228.425 L
138.847 228.14 L
138.896 227.855 L
138.918 227.57 L
138.973 227.285 L
139.127 227 L
139.168 226.715 L
139.176 226.43 L
139.24 226.145 L
139.241 225.861 L
139.262 225.576 L
139.287 225.291 L
139.299 225.006 L
139.645 224.721 L
139.721 224.436 L
139.823 224.151 L
139.905 223.866 L
139.997 223.581 L
140.242 223.297 L
140.656 223.012 L
140.987 222.727 L
141.058 222.442 L
141.078 222.157 L
141.145 221.872 L
141.517 221.587 L
141.53 221.302 L
141.574 221.018 L
141.601 220.733 L
141.61 220.448 L
141.693 220.163 L
141.813 219.878 L
141.913 219.593 L
141.932 219.308 L
141.975 219.023 L
142.404 218.738 L
142.44 218.454 L
142.532 218.169 L
142.544 217.884 L
142.566 217.599 L
142.95 217.314 L
143.204 217.029 L
143.3 216.744 L
143.434 216.459 L
143.645 216.175 L
143.69 215.89 L
143.706 215.605 L
143.764 215.32 L
143.777 215.035 L
143.837 214.75 L
143.897 214.465 L
144.014 214.18 L
144.022 213.895 L
144.117 213.611 L
144.249 213.326 L
144.268 213.041 L
144.524 212.756 L
144.617 212.471 L
144.699 212.186 L
144.741 211.901 L
144.776 211.616 L
144.97 211.332 L
145.206 211.047 L
145.353 210.762 L
145.355 210.477 L
145.395 210.192 L
145.476 209.907 L
145.483 209.622 L
145.537 209.337 L
145.669 209.052 L
145.977 208.768 L
146.008 208.483 L
146.285 208.198 L
146.325 207.913 L
146.364 207.628 L
146.399 207.343 L
146.471 207.058 L
146.532 206.773 L
146.628 206.488 L
146.733 206.204 L
146.921 205.919 L
146.98 205.634 L
147.004 205.349 L
147.033 205.064 L
147.067 204.779 L
147.134 204.494 L
147.157 204.209 L
147.239 203.925 L
147.264 203.64 L
147.399 203.355 L
147.521 203.07 L
147.655 202.785 L
147.721 202.5 L
147.726 202.215 L
147.74 201.93 L
147.784 201.645 L
147.956 201.361 L
147.975 201.076 L
148.017 200.791 L
148.033 200.506 L
148.112 200.221 L
148.204 199.936 L
148.271 199.651 L
148.369 199.366 L
148.419 199.082 L
148.526 198.797 L
148.821 198.512 L
149.205 198.227 L
149.294 197.942 L
149.308 197.657 L
149.344 197.372 L
149.451 197.087 L
149.474 196.802 L
149.829 196.518 L
149.969 196.233 L
150.01 195.948 L
150.146 195.663 L
150.176 195.378 L
150.213 195.093 L
150.71 194.808 L
150.851 194.523 L
150.915 194.238 L
151.111 193.954 L
151.214 193.669 L
151.238 193.384 L
151.314 193.099 L
151.467 192.814 L
151.707 192.529 L
151.721 192.244 L
151.789 191.959 L
151.98 191.675 L
152.412 191.39 L
152.808 191.105 L
152.878 190.82 L
153.222 190.535 L
153.622 190.25 L
153.631 189.965 L
153.635 189.68 L
153.696 189.395 L
153.697 189.111 L
153.723 188.826 L
153.795 188.541 L
153.92 188.256 L
153.946 187.971 L
153.985 187.686 L
154.023 187.401 L
154.156 187.116 L
154.167 186.832 L
154.174 186.547 L
154.246 186.262 L
154.359 185.977 L
154.392 185.692 L
154.549 185.407 L
154.56 185.122 L
154.948 184.837 L
155.319 184.552 L
155.352 184.268 L
155.477 183.983 L
155.489 183.698 L
155.501 183.413 L
155.608 183.128 L
155.883 182.843 L
155.981 182.558 L
156.031 182.273 L
156.25 181.989 L
156.322 181.704 L
156.382 181.419 L
157.046 181.134 L
157.181 180.849 L
157.25 180.564 L
157.278 180.279 L
157.373 179.994 L
157.39 179.709 L
157.413 179.425 L
157.46 179.14 L
157.522 178.855 L
157.555 178.57 L
157.823 178.285 L
157.848 178 L
157.927 177.715 L
158.165 177.43 L
158.374 177.145 L
158.381 176.861 L
158.415 176.576 L
158.747 176.291 L
158.864 176.006 L
158.921 175.721 L
159.335 175.436 L
159.377 175.151 L
159.387 174.866 L
159.498 174.582 L
159.521 174.297 L
159.996 174.012 L
160.029 173.727 L
160.064 173.442 L
160.314 173.157 L
160.328 172.872 L
160.36 172.587 L
160.39 172.302 L
160.761 172.018 L
161.011 171.733 L
161.125 171.448 L
161.128 171.163 L
161.135 170.878 L
161.22 170.593 L
161.379 170.308 L
161.616 170.023 L
161.776 169.739 L
161.937 169.454 L
162.398 169.169 L
162.402 168.884 L
162.489 168.599 L
162.539 168.314 L
162.972 168.029 L
163.16 167.744 L
163.604 167.459 L
163.691 167.175 L
164.115 166.89 L
164.342 166.605 L
164.372 166.32 L
164.384 166.035 L
165.302 165.75 L
165.439 165.465 L
165.563 165.18 L
165.616 164.895 L
165.704 164.611 L
166.112 164.326 L
166.152 164.041 L
166.165 163.756 L
166.181 163.471 L
166.31 163.186 L
166.702 162.901 L
166.784 162.616 L
166.909 162.332 L
167.332 162.047 L
167.372 161.762 L
167.435 161.477 L
167.461 161.192 L
167.579 160.907 L
168.155 160.622 L
168.177 160.337 L
168.194 160.052 L
168.197 159.768 L
168.264 159.483 L
168.485 159.198 L
168.7 158.913 L
168.894 158.628 L
169.57 158.343 L
169.588 158.058 L
169.628 157.773 L
169.862 157.489 L
169.879 157.204 L
169.899 156.919 L
170.255 156.634 L
170.301 156.349 L
170.428 156.064 L
170.651 155.779 L
170.736 155.494 L
171.225 155.209 L
171.257 154.925 L
171.261 154.64 L
171.518 154.355 L
171.917 154.07 L
172.689 153.785 L
172.902 153.5 L
172.96 153.215 L
173.014 152.93 L
173.03 152.646 L
173.101 152.361 L
173.224 152.076 L
173.414 151.791 L
173.507 151.506 L
173.627 151.221 L
174.097 150.936 L
174.487 150.651 L
175.558 150.366 L
177.286 150.082 L
177.494 149.797 L
178.123 149.512 L
178.411 149.227 L
178.571 148.942 L
178.584 148.657 L
178.694 148.372 L
178.703 148.087 L
178.773 147.802 L
179.348 147.518 L
179.381 147.233 L
179.386 146.948 L
179.403 146.663 L
180.329 146.378 L
180.353 146.093 L
180.995 145.808 L
181.078 145.523 L
181.686 145.239 L
182.022 144.954 L
182.062 144.669 L
182.67 144.384 L
184.038 144.099 L
185.996 143.814 L
186.653 143.529 L
187.759 143.244 L
188.163 142.959 L
189.994 142.675 L
190.413 142.39 L
190.616 142.105 L
190.886 141.82 L
191.086 141.535 L
191.098 141.25 L
191.442 140.965 L
192.731 140.68 L
192.822 140.396 L
193.244 140.111 L
193.271 139.826 L
193.42 139.541 L
193.484 139.256 L
194.406 138.971 L
195.359 138.686 L
197.188 138.401 L
197.351 138.116 L
197.63 137.832 L
198.197 137.547 L
198.361 137.262 L
198.595 136.977 L
199.741 136.692 L
200.279 136.407 L
200.347 136.122 L
200.925 135.837 L
202.137 135.552 L
202.704 135.268 L
203.57 134.983 L
204.251 134.698 L
204.999 134.413 L
205.021 134.128 L
205.062 133.843 L
205.577 133.558 L
205.769 133.273 L
206.352 132.989 L
206.605 132.704 L
206.704 132.419 L
207.828 132.134 L
208.294 131.849 L
208.893 131.564 L
209.071 131.279 L
211.076 130.994 L
211.186 130.709 L
211.198 130.425 L
211.251 130.14 L
213.237 129.855 L
213.27 129.57 L
213.587 129.285 L
215.028 129 L
216.018 128.715 L
216.131 128.43 L
216.355 128.146 L
216.638 127.861 L
217.271 127.576 L
217.284 127.291 L
217.744 127.006 L
217.85 126.721 L
218.445 126.436 L
219.35 126.151 L
219.986 125.866 L
220.216 125.582 L
220.398 125.297 L
221.853 125.012 L
221.978 124.727 L
221.992 124.442 L
222.55 124.157 L
222.71 123.872 L
223.009 123.587 L
223.386 123.302 L
223.862 123.018 L
223.977 122.733 L
224.262 122.448 L
224.989 122.163 L
225.28 121.878 L
225.684 121.593 L
225.761 121.308 L
225.819 121.023 L
226.513 120.739 L
227.418 120.454 L
227.447 120.169 L
228.834 119.884 L
228.882 119.599 L
229.26 119.314 L
229.278 119.029 L
229.606 118.744 L
229.74 118.459 L
230.868 118.175 L
231.237 117.89 L
231.457 117.605 L
232.02 117.32 L
232.149 117.035 L
232.914 116.75 L
233.574 116.465 L
233.844 116.18 L
234.111 115.896 L
234.908 115.611 L
235.907 115.326 L
236.208 115.041 L
236.79 114.756 L
236.89 114.471 L
236.953 114.186 L
237.388 113.901 L
238.079 113.616 L
238.228 113.332 L
238.314 113.047 L
239.607 112.762 L
239.639 112.477 L
239.691 112.192 L
240.404 111.907 L
241.933 111.622 L
242.039 111.337 L
242.897 111.053 L
242.95 110.768 L
243.594 110.483 L
243.65 110.198 L
243.714 109.913 L
243.737 109.628 L
244.102 109.343 L
244.126 109.058 L
244.915 108.773 L
245.55 108.489 L
246.323 108.204 L
246.37 107.919 L
246.609 107.634 L
246.759 107.349 L
247.669 107.064 L
248.249 106.779 L
248.452 106.494 L
250.002 106.209 L
250.156 105.925 L
251.135 105.64 L
251.144 105.355 L
251.697 105.07 L
252.07 104.785 L
252.107 104.5 L
252.184 104.215 L
252.69 103.93 L
252.793 103.646 L
252.838 103.361 L
253.557 103.076 L
254.097 102.791 L
254.471 102.506 L
254.895 102.221 L
255.272 101.936 L
255.348 101.651 L
255.715 101.366 L
256.38 101.082 L
256.467 100.797 L
256.91 100.512 L
257.19 100.227 L
257.997 99.942 L
259.467 99.657 L
259.804 99.372 L
260.233 99.087 L
260.334 98.803 L
260.539 98.518 L
260.977 98.233 L
261.173 97.948 L
261.192 97.663 L
261.674 97.378 L
262.261 97.093 L
263.246 96.808 L
264.095 96.523 L
264.18 96.239 L
264.206 95.954 L
264.454 95.669 L
264.881 95.384 L
265.228 95.099 L
265.304 94.814 L
266.295 94.529 L
266.323 94.244 L
266.365 93.959 L
266.857 93.675 L
267.105 93.39 L
267.522 93.105 L
267.989 92.82 L
268.37 92.535 L
268.492 92.25 L
268.614 91.965 L
268.658 91.68 L
268.757 91.396 L
269.431 91.111 L
269.458 90.826 L
269.67 90.541 L
269.976 90.256 L
270.524 89.971 L
271.259 89.686 L
271.314 89.401 L
271.407 89.116 L
271.552 88.832 L
271.624 88.547 L
271.778 88.262 L
272.356 87.977 L
273.089 87.692 L
273.307 87.407 L
273.779 87.122 L
273.845 86.837 L
274 86.553 L
274.819 86.268 L
275.101 85.983 L
275.14 85.698 L
275.372 85.413 L
277.075 85.128 L
277.434 84.843 L
277.895 84.558 L
278.633 84.273 L
278.909 83.989 L
279.202 83.704 L
279.363 83.419 L
279.477 83.134 L
280.18 82.849 L
280.868 82.564 L
281.046 82.279 L
281.795 81.994 L
281.922 81.709 L
282.055 81.425 L
282.236 81.14 L
282.407 80.855 L
283.639 80.57 L
283.908 80.285 L
284.397 80 L
284.923 79.715 L
285.238 79.43 L
285.633 79.146 L
285.961 78.861 L
286.582 78.576 L
286.802 78.291 L
288.52 78.006 L
289.089 77.721 L
289.262 77.436 L
290.382 77.151 L
291.692 76.866 L
291.956 76.582 L
291.991 76.297 L
292.987 76.012 L
293.149 75.727 L
293.463 75.442 L
294.066 75.157 L
294.98 74.872 L
295.715 74.587 L
295.785 74.303 L
296.09 74.018 L
296.433 73.733 L
296.433 73.448 L
297.25 73.163 L
297.317 72.878 L
297.38 72.593 L
298.287 72.308 L
298.379 72.023 L
298.715 71.739 L
299.064 71.454 L
299.67 71.169 L
299.944 70.884 L
300.006 70.599 L
300.469 70.314 L
300.844 70.029 L
301.19 69.744 L
302.566 69.46 L
302.87 69.175 L
303.255 68.89 L
303.473 68.605 L
304.594 68.32 L
304.955 68.035 L
305.107 67.75 L
305.572 67.465 L
305.608 67.18 L
306.36 66.896 L
306.626 66.611 L
306.855 66.326 L
307.08 66.041 L
307.239 65.756 L
307.536 65.471 L
308.134 65.186 L
308.391 64.901 L
308.449 64.616 L
308.523 64.332 L
308.991 64.047 L
309.595 63.762 L
309.789 63.477 L
310.101 63.192 L
310.252 62.907 L
310.274 62.622 L
311.921 62.337 L
312.739 62.053 L
313.229 61.768 L
313.418 61.483 L
313.551 61.198 L
313.648 60.913 L
314.76 60.628 L
315.188 60.343 L
315.217 60.058 L
315.279 59.773 L
315.516 59.489 L
315.661 59.204 L
316.465 58.919 L
316.491 58.634 L
316.591 58.349 L
316.721 58.064 L
318.091 57.779 L
318.543 57.494 L
319.229 57.21 L
320.097 56.925 L
322.784 56.64 L
323.09 56.355 L
323.494 56.07 L
324.153 55.785 L
324.584 55.5 L
325.494 55.215 L
326.108 54.93 L
326.407 54.646 L
326.579 54.361 L
326.657 54.076 L
327.144 53.791 L
329.641 53.506 L
329.713 53.221 L
330.349 52.936 L
330.601 52.651 L
330.929 52.366 L
331.03 52.082 L
331.18 51.797 L
332.813 51.512 L
332.889 51.227 L
333.071 50.942 L
333.107 50.657 L
335.065 50.372 L
336.583 50.087 L
336.858 49.803 L
337.354 49.518 L
337.455 49.233 L
337.668 48.948 L
339.653 48.663 L
340.931 48.378 L
341.881 48.093 L
342.052 47.808 L
342.109 47.523 L
344.139 47.239 L
344.241 46.954 L
344.897 46.669 L
345.854 46.384 L
345.892 46.099 L
346.45 45.814 L
346.853 45.529 L
347.565 45.244 L
347.928 44.96 L
348.849 44.675 L
349.684 44.39 L
349.71 44.105 L
351.875 43.82 L
352.521 43.535 L
353.645 43.25 L
353.791 42.965 L
354.371 42.68 L
355.658 42.396 L
355.738 42.111 L
357.08 41.826 L
357.778 41.541 L
357.787 41.256 L
360.094 40.971 L
360.384 40.686 L
361.459 40.401 L
361.763 40.117 L
362.274 39.832 L
363.556 39.547 L
363.586 39.262 L
363.772 38.977 L
364.622 38.692 L
366.595 38.407 L
366.703 38.122 L
368.249 37.837 L
369.552 37.553 L
372.086 37.268 L
375.073 36.983 L
375.099 36.698 L
376.355 36.413 L
380.228 36.128 L
380.402 35.843 L
381.333 35.558 L
385.868 35.273 L
386.99 34.989 L
387.566 34.704 L
388.11 34.419 L
388.881 34.134 L
390.109 33.849 L
400.322 33.564 L
400.471 33.279 L
406.281 32.994 L
406.798 32.71 L
413.693 32.425 L
416.346 32.14 L
419.34 31.855 L
420.419 31.57 L
426.588 31.285 L
432.2 31 L
507 31 L
S
GR
GS
[0.75 0 0 0.75 0 0] CT
0 1 0 RC
[8 2 4 2] 0 setdash
2 LJ
2.667 LW
N
73 374 M
73 373.712 L
73 373.424 L
73 373.136 L
73 372.848 L
73 372.56 L
73 372.272 L
73 371.984 L
73 371.696 L
73 371.408 L
73 371.12 L
73 370.832 L
73 370.544 L
73 370.256 L
73 369.968 L
73 369.68 L
73 369.392 L
73 369.104 L
73 368.816 L
73 368.528 L
73 368.24 L
73 367.952 L
73 367.664 L
73 367.376 L
73 367.088 L
73 366.8 L
73 366.512 L
73 366.224 L
73 365.936 L
73 365.648 L
73 365.36 L
73 365.072 L
73 364.784 L
80.862 364.496 L
81.037 364.208 L
81.037 363.92 L
81.22 363.632 L
81.22 363.344 L
81.22 363.056 L
81.22 362.768 L
81.22 362.48 L
81.611 362.192 L
81.611 361.904 L
81.611 361.616 L
81.611 361.328 L
81.611 361.04 L
81.611 360.752 L
81.611 360.464 L
81.821 360.176 L
81.821 359.888 L
81.821 359.6 L
81.821 359.312 L
81.821 359.024 L
81.821 358.736 L
81.821 358.448 L
81.821 358.16 L
82.042 357.872 L
82.042 357.584 L
82.042 357.296 L
82.042 357.008 L
82.042 356.72 L
82.042 356.432 L
82.274 356.144 L
82.274 355.856 L
82.274 355.568 L
82.274 355.28 L
82.274 354.992 L
82.274 354.704 L
82.274 354.416 L
82.274 354.128 L
82.274 353.84 L
82.274 353.552 L
82.274 353.264 L
82.274 352.977 L
82.274 352.689 L
82.518 352.401 L
82.518 352.113 L
82.518 351.825 L
82.518 351.537 L
82.775 351.249 L
83.046 350.961 L
83.046 350.673 L
83.046 350.385 L
83.046 350.097 L
83.333 349.809 L
83.637 349.521 L
83.637 349.233 L
83.637 348.945 L
83.637 348.657 L
83.96 348.369 L
83.96 348.081 L
84.302 347.793 L
84.302 347.505 L
84.302 347.217 L
84.667 346.929 L
84.667 346.641 L
85.056 346.353 L
85.895 346.065 L
86.204 345.777 L
86.204 345.489 L
86.324 345.201 L
86.332 344.913 L
86.443 344.625 L
86.561 344.337 L
86.561 344.049 L
86.686 343.761 L
86.819 343.473 L
86.819 343.185 L
86.819 342.897 L
86.91 342.609 L
86.91 342.321 L
86.938 342.033 L
86.961 341.745 L
87.069 341.457 L
87.069 341.169 L
87.069 340.881 L
87.209 340.593 L
87.209 340.305 L
87.209 340.017 L
87.209 339.729 L
87.337 339.441 L
87.337 339.153 L
87.337 338.865 L
87.337 338.577 L
87.337 338.289 L
87.337 338.001 L
87.337 337.713 L
87.337 337.425 L
87.337 337.137 L
87.357 336.849 L
87.474 336.561 L
87.474 336.273 L
87.474 335.985 L
87.474 335.697 L
87.62 335.409 L
87.626 335.121 L
87.76 334.833 L
87.76 334.545 L
88.069 334.257 L
88.21 333.969 L
88.414 333.681 L
88.725 333.393 L
88.725 333.105 L
88.725 332.817 L
88.725 332.529 L
88.978 332.241 L
89.065 331.953 L
89.065 331.665 L
89.074 331.377 L
89.439 331.089 L
89.439 330.801 L
89.439 330.513 L
89.439 330.225 L
89.439 329.937 L
89.439 329.649 L
89.439 329.361 L
89.439 329.073 L
89.822 328.785 L
89.822 328.497 L
90.184 328.209 L
90.222 327.921 L
90.222 327.633 L
90.222 327.345 L
90.222 327.057 L
90.222 326.769 L
90.222 326.481 L
90.222 326.193 L
90.642 325.905 L
90.642 325.617 L
90.642 325.329 L
90.642 325.041 L
90.642 324.753 L
90.694 324.465 L
90.694 324.177 L
91.03 323.889 L
91.03 323.601 L
91.03 323.313 L
91.083 323.025 L
91.083 322.737 L
91.083 322.449 L
91.083 322.161 L
91.083 321.873 L
91.083 321.585 L
91.083 321.297 L
91.083 321.009 L
91.083 320.721 L
91.083 320.433 L
91.139 320.145 L
91.139 319.857 L
91.139 319.569 L
91.139 319.281 L
91.139 318.993 L
91.139 318.705 L
91.139 318.417 L
91.139 318.129 L
91.255 317.841 L
91.381 317.553 L
91.466 317.265 L
91.547 316.977 L
91.547 316.689 L
91.558 316.401 L
91.558 316.113 L
91.657 315.825 L
91.657 315.537 L
91.762 315.249 L
91.762 314.961 L
91.762 314.673 L
91.762 314.385 L
91.875 314.097 L
91.875 313.809 L
91.996 313.521 L
92.035 313.233 L
92.035 312.945 L
92.035 312.657 L
92.035 312.369 L
92.035 312.081 L
92.035 311.793 L
92.126 311.505 L
92.126 311.217 L
92.424 310.93 L
92.476 310.642 L
92.55 310.354 L
92.581 310.066 L
92.903 309.778 L
92.903 309.49 L
93.093 309.202 L
93.093 308.914 L
93.093 308.626 L
93.093 308.338 L
93.093 308.05 L
93.093 307.762 L
93.093 307.474 L
93.242 307.186 L
93.242 306.898 L
93.35 306.61 L
93.435 306.322 L
93.6 306.034 L
93.6 305.746 L
93.6 305.458 L
93.601 305.17 L
93.769 304.882 L
93.769 304.594 L
93.769 304.306 L
93.802 304.018 L
93.802 303.73 L
93.94 303.442 L
93.952 303.154 L
93.952 302.866 L
93.952 302.578 L
93.98 302.29 L
93.98 302.002 L
94.022 301.714 L
94.022 301.426 L
94.145 301.138 L
94.145 300.85 L
94.275 300.562 L
94.275 300.274 L
94.275 299.986 L
94.275 299.698 L
94.275 299.41 L
94.275 299.122 L
94.275 298.834 L
94.275 298.546 L
94.275 298.258 L
94.275 297.97 L
94.275 297.682 L
94.325 297.394 L
94.368 297.106 L
94.52 296.818 L
94.524 296.53 L
94.719 296.242 L
94.911 295.954 L
94.919 295.666 L
94.919 295.378 L
94.919 295.09 L
94.919 294.802 L
94.919 294.514 L
94.965 294.226 L
95.129 293.938 L
95.138 293.65 L
95.138 293.362 L
95.143 293.074 L
95.504 292.786 L
95.604 292.498 L
95.604 292.21 L
95.604 291.922 L
95.749 291.634 L
95.807 291.346 L
95.877 291.058 L
95.877 290.77 L
95.877 290.482 L
95.877 290.194 L
95.951 289.906 L
96.004 289.618 L
96.031 289.33 L
96.031 289.042 L
96.097 288.754 L
96.116 288.466 L
96.202 288.178 L
96.208 287.89 L
96.321 287.602 L
96.321 287.314 L
96.333 287.026 L
96.344 286.738 L
96.55 286.45 L
96.55 286.162 L
96.587 285.874 L
96.628 285.586 L
96.628 285.298 L
96.628 285.01 L
96.628 284.722 L
96.628 284.434 L
96.711 284.146 L
96.711 283.858 L
96.711 283.57 L
96.746 283.282 L
96.8 282.994 L
96.809 282.706 L
96.809 282.418 L
96.886 282.13 L
96.886 281.842 L
96.897 281.554 L
96.932 281.266 L
96.964 280.978 L
96.964 280.69 L
97.111 280.402 L
97.114 280.114 L
97.114 279.826 L
97.114 279.538 L
97.148 279.25 L
97.316 278.962 L
97.316 278.674 L
97.316 278.386 L
97.345 278.098 L
97.345 277.81 L
97.345 277.522 L
97.345 277.234 L
97.439 276.946 L
97.439 276.658 L
97.784 276.37 L
97.784 276.082 L
97.889 275.794 L
97.889 275.506 L
97.943 275.218 L
97.945 274.93 L
98.024 274.642 L
98.024 274.354 L
98.024 274.066 L
98.024 273.778 L
98.116 273.49 L
98.151 273.202 L
98.233 272.914 L
98.31 272.626 L
98.31 272.338 L
98.361 272.05 L
98.514 271.762 L
98.536 271.474 L
98.543 271.186 L
98.751 270.898 L
98.833 270.61 L
98.833 270.323 L
98.833 270.034 L
98.833 269.746 L
98.833 269.459 L
98.833 269.171 L
98.954 268.883 L
98.961 268.595 L
99.255 268.307 L
99.255 268.019 L
99.255 267.731 L
99.255 267.443 L
99.322 267.155 L
99.886 266.867 L
100.003 266.579 L
100.032 266.291 L
100.032 266.003 L
100.032 265.715 L
100.055 265.427 L
100.055 265.139 L
100.109 264.851 L
100.125 264.563 L
100.125 264.275 L
100.125 263.987 L
100.125 263.699 L
100.286 263.411 L
100.372 263.123 L
100.372 262.835 L
100.821 262.547 L
100.821 262.259 L
100.821 261.971 L
100.821 261.683 L
100.821 261.395 L
100.821 261.107 L
100.821 260.819 L
101.034 260.531 L
101.052 260.243 L
101.052 259.955 L
101.052 259.667 L
101.052 259.379 L
101.062 259.091 L
101.137 258.803 L
101.137 258.515 L
101.224 258.227 L
101.415 257.939 L
101.547 257.651 L
101.553 257.363 L
101.553 257.075 L
101.553 256.787 L
101.589 256.499 L
101.604 256.211 L
101.643 255.923 L
101.776 255.635 L
101.776 255.347 L
101.933 255.059 L
101.933 254.771 L
101.933 254.483 L
101.933 254.195 L
101.933 253.907 L
101.947 253.619 L
101.947 253.331 L
102.136 253.043 L
102.239 252.755 L
102.308 252.467 L
102.324 252.179 L
102.324 251.891 L
102.325 251.603 L
102.385 251.315 L
102.52 251.027 L
102.551 250.739 L
102.735 250.451 L
102.939 250.163 L
103.029 249.875 L
103.029 249.587 L
103.085 249.299 L
103.139 249.011 L
103.139 248.723 L
103.243 248.435 L
103.383 248.147 L
103.453 247.859 L
103.546 247.571 L
103.62 247.283 L
103.719 246.995 L
104.03 246.707 L
104.106 246.419 L
104.154 246.131 L
104.353 245.843 L
104.376 245.555 L
104.386 245.267 L
104.386 244.979 L
104.449 244.691 L
104.449 244.403 L
104.449 244.115 L
104.718 243.827 L
104.957 243.539 L
104.957 243.251 L
104.957 242.963 L
105.029 242.675 L
105.029 242.387 L
105.029 242.099 L
105.13 241.811 L
105.155 241.523 L
105.315 241.235 L
105.315 240.947 L
105.377 240.659 L
105.596 240.371 L
105.663 240.083 L
105.663 239.795 L
105.72 239.507 L
105.723 239.219 L
105.727 238.931 L
105.879 238.643 L
105.879 238.355 L
105.879 238.067 L
106.053 237.779 L
106.138 237.491 L
106.185 237.203 L
106.227 236.915 L
106.309 236.627 L
106.345 236.339 L
106.466 236.051 L
106.466 235.763 L
106.665 235.475 L
106.671 235.187 L
106.756 234.899 L
106.792 234.611 L
106.797 234.323 L
106.847 234.035 L
106.877 233.747 L
106.879 233.459 L
106.888 233.171 L
106.938 232.883 L
106.938 232.595 L
107.042 232.307 L
107.12 232.019 L
107.21 231.731 L
107.21 231.443 L
107.21 231.155 L
107.229 230.867 L
107.331 230.579 L
107.444 230.291 L
107.617 230.003 L
107.691 229.715 L
107.9 229.427 L
107.961 229.139 L
107.961 228.851 L
108.023 228.563 L
108.089 228.275 L
108.14 227.988 L
108.167 227.7 L
108.196 227.412 L
108.226 227.124 L
108.491 226.836 L
108.607 226.548 L
108.647 226.26 L
108.647 225.972 L
108.699 225.684 L
108.735 225.396 L
108.807 225.108 L
108.807 224.82 L
108.921 224.532 L
109.041 224.244 L
109.05 223.956 L
109.06 223.668 L
109.167 223.38 L
109.167 223.092 L
109.167 222.804 L
109.167 222.516 L
109.251 222.228 L
109.446 221.94 L
109.446 221.652 L
109.446 221.364 L
109.598 221.076 L
109.805 220.788 L
109.805 220.5 L
109.855 220.212 L
109.883 219.924 L
109.891 219.636 L
110.116 219.348 L
110.32 219.06 L
110.414 218.772 L
110.414 218.484 L
110.414 218.196 L
110.474 217.908 L
110.598 217.62 L
110.749 217.332 L
110.864 217.044 L
110.864 216.756 L
110.969 216.468 L
111.348 216.18 L
111.532 215.892 L
111.532 215.604 L
111.568 215.316 L
111.953 215.028 L
111.953 214.74 L
111.953 214.452 L
111.953 214.164 L
112.063 213.876 L
112.063 213.588 L
112.099 213.3 L
112.099 213.012 L
112.396 212.724 L
112.437 212.436 L
112.876 212.148 L
112.876 211.86 L
112.876 211.572 L
112.899 211.284 L
112.899 210.996 L
113.174 210.708 L
113.185 210.42 L
113.185 210.132 L
113.185 209.844 L
113.185 209.556 L
113.185 209.268 L
113.185 208.98 L
113.185 208.692 L
113.464 208.404 L
113.548 208.116 L
113.548 207.828 L
113.574 207.54 L
113.574 207.252 L
113.71 206.964 L
113.71 206.676 L
113.87 206.388 L
113.87 206.1 L
113.87 205.812 L
113.87 205.524 L
113.87 205.236 L
113.944 204.948 L
113.948 204.66 L
114.457 204.372 L
114.731 204.084 L
114.746 203.796 L
114.819 203.508 L
114.844 203.22 L
114.844 202.932 L
114.844 202.644 L
114.844 202.356 L
114.96 202.068 L
114.96 201.78 L
114.989 201.492 L
115.177 201.204 L
115.177 200.916 L
115.177 200.628 L
115.407 200.34 L
115.407 200.052 L
115.415 199.764 L
115.434 199.476 L
115.549 199.188 L
115.549 198.9 L
115.564 198.612 L
115.649 198.324 L
115.649 198.036 L
115.796 197.748 L
116.152 197.46 L
116.178 197.172 L
116.4 196.884 L
116.4 196.596 L
116.467 196.308 L
116.559 196.02 L
116.611 195.732 L
116.611 195.444 L
116.859 195.156 L
116.887 194.868 L
116.938 194.58 L
117.066 194.292 L
117.066 194.004 L
117.077 193.716 L
117.077 193.428 L
117.077 193.14 L
117.259 192.852 L
117.275 192.564 L
117.275 192.276 L
117.275 191.988 L
117.275 191.7 L
117.275 191.412 L
117.466 191.124 L
117.466 190.836 L
117.466 190.548 L
117.466 190.26 L
117.523 189.972 L
117.608 189.684 L
117.928 189.396 L
117.984 189.108 L
117.984 188.82 L
118.063 188.532 L
118.063 188.244 L
118.163 187.956 L
118.236 187.668 L
118.366 187.38 L
118.366 187.092 L
118.629 186.804 L
118.774 186.517 L
118.807 186.229 L
118.807 185.941 L
118.859 185.653 L
118.859 185.365 L
119.161 185.077 L
119.232 184.789 L
119.374 184.501 L
119.468 184.213 L
119.561 183.925 L
119.613 183.637 L
119.745 183.349 L
120.055 183.061 L
120.151 182.773 L
120.174 182.485 L
120.174 182.197 L
120.297 181.909 L
120.297 181.621 L
120.297 181.333 L
120.391 181.045 L
120.492 180.757 L
120.557 180.469 L
120.704 180.181 L
120.756 179.893 L
121.181 179.605 L
121.556 179.317 L
121.556 179.029 L
121.556 178.741 L
122.258 178.453 L
122.26 178.165 L
122.318 177.877 L
122.318 177.589 L
122.342 177.301 L
122.463 177.013 L
122.472 176.725 L
122.726 176.437 L
122.777 176.149 L
122.867 175.861 L
123.14 175.573 L
123.231 175.285 L
123.242 174.997 L
123.303 174.709 L
123.347 174.421 L
123.481 174.133 L
123.837 173.845 L
124.48 173.557 L
124.667 173.269 L
124.667 172.981 L
124.667 172.693 L
124.667 172.405 L
124.675 172.117 L
124.749 171.829 L
124.764 171.541 L
124.843 171.253 L
124.872 170.965 L
124.872 170.677 L
124.872 170.389 L
124.872 170.101 L
124.907 169.813 L
124.922 169.525 L
124.922 169.237 L
125.115 168.949 L
125.115 168.661 L
125.133 168.373 L
125.151 168.085 L
125.151 167.797 L
125.224 167.509 L
125.241 167.221 L
125.261 166.933 L
125.288 166.645 L
125.31 166.357 L
125.707 166.069 L
125.979 165.781 L
125.979 165.493 L
126.154 165.205 L
126.154 164.917 L
126.154 164.629 L
126.261 164.341 L
126.47 164.053 L
126.47 163.765 L
126.47 163.477 L
126.56 163.189 L
126.578 162.901 L
126.734 162.613 L
126.734 162.325 L
126.734 162.037 L
127.007 161.749 L
127.007 161.461 L
127.064 161.173 L
127.064 160.885 L
127.064 160.597 L
127.064 160.309 L
127.109 160.021 L
127.232 159.733 L
127.25 159.445 L
127.25 159.157 L
127.25 158.869 L
127.25 158.581 L
127.25 158.293 L
127.688 158.005 L
127.688 157.717 L
127.712 157.429 L
127.712 157.141 L
127.75 156.853 L
127.816 156.565 L
127.842 156.277 L
127.869 155.989 L
127.869 155.701 L
127.869 155.413 L
127.869 155.125 L
127.898 154.837 L
127.898 154.549 L
127.898 154.261 L
128.062 153.973 L
128.355 153.685 L
128.641 153.397 L
128.641 153.109 L
128.843 152.821 L
128.843 152.533 L
128.875 152.245 L
128.9 151.957 L
128.94 151.669 L
129.039 151.381 L
129.039 151.093 L
129.039 150.805 L
129.068 150.517 L
129.146 150.229 L
129.146 149.941 L
129.212 149.653 L
129.212 149.365 L
129.223 149.077 L
129.304 148.789 L
129.438 148.501 L
129.581 148.213 L
129.581 147.925 L
129.589 147.637 L
129.796 147.349 L
129.796 147.061 L
129.796 146.773 L
129.83 146.485 L
129.835 146.197 L
130.094 145.909 L
130.105 145.621 L
130.493 145.333 L
130.851 145.046 L
130.867 144.758 L
131.272 144.47 L
131.335 144.182 L
131.429 143.894 L
131.429 143.606 L
131.771 143.318 L
132.103 143.03 L
132.143 142.742 L
132.147 142.454 L
132.216 142.166 L
132.507 141.878 L
132.591 141.59 L
132.591 141.302 L
132.771 141.014 L
132.771 140.726 L
133.278 140.438 L
133.487 140.15 L
133.917 139.862 L
134.089 139.574 L
134.439 139.286 L
134.439 138.998 L
134.439 138.71 L
134.97 138.422 L
134.97 138.134 L
135.059 137.846 L
135.06 137.558 L
135.06 137.27 L
135.295 136.982 L
135.932 136.694 L
136.212 136.406 L
136.297 136.118 L
136.33 135.83 L
136.538 135.542 L
136.538 135.254 L
136.922 134.966 L
137.31 134.678 L
137.377 134.39 L
137.541 134.102 L
137.608 133.814 L
138.136 133.526 L
138.339 133.238 L
138.716 132.95 L
138.758 132.662 L
138.758 132.374 L
139.03 132.086 L
139.048 131.798 L
139.336 131.51 L
139.336 131.222 L
139.336 130.934 L
139.336 130.646 L
139.399 130.358 L
139.399 130.07 L
140.086 129.782 L
140.595 129.494 L
140.989 129.206 L
141.413 128.918 L
141.635 128.63 L
141.889 128.342 L
141.945 128.054 L
142.253 127.766 L
142.356 127.478 L
142.356 127.19 L
142.378 126.902 L
143.039 126.614 L
143.182 126.326 L
143.182 126.038 L
143.229 125.75 L
143.334 125.462 L
143.433 125.174 L
143.433 124.886 L
143.451 124.598 L
143.587 124.31 L
143.618 124.022 L
143.618 123.734 L
143.618 123.446 L
143.618 123.158 L
143.638 122.87 L
143.661 122.582 L
143.727 122.294 L
143.739 122.006 L
143.739 121.718 L
143.777 121.43 L
143.823 121.142 L
143.883 120.854 L
143.892 120.566 L
144.132 120.278 L
144.214 119.99 L
144.293 119.702 L
144.293 119.414 L
145.109 119.126 L
145.109 118.838 L
145.226 118.55 L
145.333 118.262 L
145.333 117.974 L
145.333 117.686 L
145.333 117.398 L
145.333 117.11 L
145.333 116.822 L
145.445 116.534 L
145.503 116.246 L
145.503 115.958 L
145.778 115.67 L
145.799 115.382 L
145.799 115.094 L
146.028 114.806 L
146.195 114.518 L
146.359 114.23 L
146.578 113.942 L
146.782 113.654 L
146.881 113.366 L
147.098 113.078 L
147.178 112.79 L
147.178 112.502 L
147.208 112.214 L
147.315 111.926 L
147.315 111.638 L
147.315 111.35 L
147.559 111.062 L
147.559 110.774 L
147.64 110.486 L
147.718 110.198 L
147.949 109.91 L
147.949 109.622 L
148.072 109.334 L
148.072 109.046 L
148.347 108.758 L
148.397 108.47 L
148.397 108.182 L
148.421 107.894 L
149.14 107.606 L
150.064 107.318 L
150.714 107.03 L
150.768 106.742 L
150.98 106.454 L
150.98 106.166 L
150.98 105.878 L
152.111 105.59 L
152.257 105.302 L
152.582 105.014 L
152.753 104.726 L
152.993 104.438 L
153.367 104.15 L
153.871 103.862 L
153.895 103.574 L
155.398 103.287 L
155.746 102.999 L
155.746 102.711 L
156.92 102.423 L
157.293 102.135 L
157.419 101.847 L
158.246 101.559 L
158.66 101.271 L
159.998 100.983 L
160.223 100.695 L
160.299 100.407 L
160.299 100.119 L
161.133 99.831 L
161.298 99.543 L
161.412 99.255 L
161.863 98.967 L
162.205 98.679 L
163.417 98.391 L
163.417 98.103 L
163.417 97.815 L
163.807 97.527 L
165.037 97.239 L
165.207 96.951 L
165.207 96.663 L
165.207 96.375 L
165.207 96.087 L
165.399 95.799 L
165.399 95.511 L
165.622 95.223 L
165.622 94.935 L
165.886 94.647 L
165.995 94.359 L
166.576 94.071 L
167.782 93.783 L
168.583 93.495 L
169.492 93.207 L
169.492 92.919 L
170.38 92.631 L
171.105 92.343 L
171.125 92.055 L
171.125 91.767 L
171.125 91.479 L
171.305 91.191 L
171.945 90.903 L
172.928 90.615 L
174.089 90.327 L
176.843 90.039 L
177.137 89.751 L
177.481 89.463 L
178.269 89.175 L
178.367 88.887 L
178.677 88.599 L
181.254 88.311 L
181.5 88.023 L
181.5 87.735 L
183.566 87.447 L
183.585 87.159 L
183.655 86.871 L
183.673 86.583 L
183.673 86.295 L
184.891 86.007 L
185.11 85.719 L
186.021 85.431 L
187.594 85.143 L
187.594 84.855 L
187.765 84.567 L
188.703 84.279 L
188.79 83.991 L
191.521 83.703 L
191.546 83.415 L
191.667 83.127 L
191.667 82.839 L
195.418 82.551 L
197.57 82.263 L
197.959 81.975 L
198.367 81.687 L
198.797 81.399 L
198.88 81.111 L
199.583 80.823 L
199.583 80.535 L
200.137 80.247 L
200.647 79.959 L
200.672 79.671 L
200.844 79.383 L
201.007 79.095 L
202.219 78.807 L
202.219 78.519 L
203.815 78.231 L
203.907 77.943 L
206.041 77.655 L
206.397 77.367 L
207.552 77.079 L
207.598 76.791 L
207.598 76.503 L
209.825 76.215 L
210.496 75.927 L
212.173 75.639 L
214.522 75.351 L
215.076 75.063 L
215.961 74.775 L
216.551 74.487 L
216.551 74.199 L
217.667 73.911 L
218.914 73.623 L
219.223 73.335 L
220.955 73.047 L
221.631 72.759 L
221.922 72.471 L
222.592 72.183 L
223.271 71.895 L
223.434 71.607 L
223.434 71.319 L
226.466 71.031 L
229.051 70.743 L
229.297 70.455 L
230.494 70.167 L
231.229 69.879 L
231.229 69.591 L
231.229 69.303 L
231.229 69.015 L
232.259 68.727 L
232.259 68.439 L
232.37 68.151 L
232.5 67.863 L
232.653 67.575 L
232.653 67.287 L
235.31 66.999 L
235.75 66.711 L
236.986 66.423 L
237.135 66.135 L
240.964 65.847 L
240.964 65.559 L
242.654 65.271 L
242.848 64.983 L
244.378 64.695 L
244.521 64.407 L
244.521 64.119 L
244.521 63.831 L
246.979 63.543 L
246.996 63.255 L
248.596 62.967 L
253.833 62.679 L
253.833 62.391 L
253.833 62.103 L
253.833 61.816 L
253.833 61.528 L
254.735 61.24 L
254.832 60.952 L
254.946 60.664 L
254.946 60.376 L
255.08 60.088 L
255.08 59.8 L
257.415 59.512 L
257.797 59.224 L
257.797 58.936 L
264.3 58.648 L
264.471 58.36 L
265.165 58.072 L
265.414 57.784 L
265.522 57.496 L
265.522 57.208 L
265.889 56.92 L
265.889 56.632 L
265.889 56.344 L
265.889 56.056 L
266.45 55.768 L
266.933 55.48 L
269.209 55.192 L
270.273 54.904 L
272.008 54.616 L
272.929 54.328 L
274.928 54.04 L
275.935 53.752 L
276.438 53.464 L
277.24 53.176 L
277.326 52.888 L
277.689 52.6 L
279.969 52.312 L
282.386 52.024 L
285.745 51.736 L
285.745 51.448 L
285.745 51.16 L
285.745 50.872 L
286.595 50.584 L
290 50.296 L
290.928 50.008 L
291.04 49.72 L
291.04 49.432 L
293.145 49.144 L
293.314 48.856 L
293.314 48.568 L
297.589 48.28 L
297.6 47.992 L
299.764 47.704 L
299.764 47.416 L
299.842 47.128 L
302.225 46.84 L
305.976 46.552 L
306.367 46.264 L
307.881 45.976 L
308.083 45.688 L
311.265 45.4 L
314.947 45.112 L
321.646 44.824 L
321.646 44.536 L
321.985 44.248 L
322.373 43.96 L
322.373 43.672 L
324.872 43.384 L
325.488 43.096 L
328.294 42.808 L
329.084 42.52 L
329.179 42.232 L
332.034 41.944 L
332.996 41.656 L
336.177 41.368 L
337.277 41.08 L
339.407 40.792 L
343.322 40.504 L
343.322 40.216 L
343.322 39.928 L
344.25 39.64 L
347.031 39.352 L
347.031 39.064 L
350.196 38.776 L
350.298 38.488 L
350.298 38.2 L
355.69 37.912 L
355.85 37.624 L
356.397 37.336 L
357.205 37.048 L
358.882 36.76 L
359.665 36.472 L
362.609 36.184 L
367.47 35.896 L
368.523 35.608 L
383 35.32 L
383.032 35.032 L
383.347 34.744 L
386.08 34.456 L
386.444 34.168 L
387.923 33.88 L
392.826 33.592 L
393.925 33.304 L
402.83 33.016 L
404.698 32.728 L
409.273 32.44 L
413.985 32.152 L
418.925 31.864 L
421.525 31.576 L
424.672 31.288 L
430.887 31 L
507 31 L
S
GR
GS
[0.75 0 0 0.75 0 0] CT
0 0 1 RC
[8 8] 0 setdash
2 LJ
2.667 LW
N
73 374 M
77.887 373.722 L
78.167 373.444 L
78.167 373.166 L
78.319 372.888 L
78.319 372.61 L
78.319 372.332 L
78.319 372.054 L
78.319 371.776 L
78.319 371.498 L
78.651 371.22 L
78.651 370.942 L
78.651 370.665 L
78.651 370.387 L
78.651 370.109 L
78.651 369.831 L
79.028 369.553 L
82.478 369.275 L
82.633 368.997 L
82.633 368.719 L
82.709 368.441 L
82.79 368.163 L
82.79 367.885 L
82.79 367.607 L
82.871 367.329 L
82.907 367.051 L
82.951 366.773 L
82.951 366.495 L
83.042 366.217 L
83.121 365.939 L
83.121 365.661 L
83.121 365.383 L
83.121 365.105 L
83.3 364.827 L
83.3 364.549 L
83.3 364.271 L
83.3 363.994 L
83.401 363.716 L
83.401 363.438 L
83.47 363.16 L
83.476 362.882 L
83.476 362.604 L
83.476 362.326 L
83.476 362.048 L
83.476 361.77 L
83.476 361.492 L
83.476 361.214 L
83.476 360.936 L
83.476 360.658 L
83.476 360.38 L
83.49 360.102 L
83.511 359.824 L
83.573 359.546 L
83.662 359.268 L
83.662 358.99 L
83.662 358.712 L
83.86 358.434 L
83.86 358.156 L
83.86 357.878 L
83.86 357.6 L
83.86 357.323 L
83.86 357.045 L
83.86 356.767 L
84.047 356.489 L
84.06 356.211 L
84.06 355.933 L
84.06 355.655 L
84.163 355.377 L
85.139 355.099 L
88.069 354.821 L
88.5 354.543 L
88.956 354.265 L
88.956 353.987 L
88.956 353.709 L
88.956 353.431 L
89.439 353.153 L
89.439 352.875 L
89.439 352.597 L
89.439 352.319 L
89.439 352.041 L
89.467 351.763 L
89.836 351.485 L
89.903 351.207 L
89.953 350.93 L
89.953 350.652 L
89.953 350.374 L
89.953 350.096 L
89.982 349.818 L
89.997 349.54 L
89.999 349.262 L
89.999 348.984 L
90.06 348.706 L
90.09 348.428 L
90.232 348.15 L
90.232 347.872 L
90.278 347.594 L
90.309 347.316 L
90.317 347.038 L
90.323 346.76 L
90.5 346.482 L
90.5 346.204 L
90.51 345.926 L
90.517 345.648 L
90.635 345.37 L
90.642 345.092 L
90.804 344.814 L
90.823 344.536 L
90.85 344.259 L
91.037 343.981 L
91.037 343.703 L
91.083 343.425 L
91.083 343.147 L
91.083 342.869 L
91.083 342.591 L
91.126 342.313 L
91.126 342.035 L
91.126 341.757 L
91.126 341.479 L
91.126 341.201 L
91.126 340.923 L
91.126 340.645 L
91.126 340.367 L
91.183 340.089 L
91.183 339.811 L
91.183 339.533 L
91.232 339.255 L
91.232 338.977 L
91.427 338.699 L
91.427 338.421 L
91.427 338.143 L
91.466 337.866 L
91.474 337.588 L
91.474 337.31 L
91.525 337.032 L
91.525 336.754 L
91.525 336.476 L
91.525 336.198 L
91.525 335.92 L
91.558 335.642 L
91.558 335.364 L
91.582 335.086 L
91.582 334.808 L
91.582 334.53 L
91.644 334.252 L
91.657 333.974 L
91.657 333.696 L
91.657 333.418 L
91.657 333.14 L
91.707 332.862 L
91.762 332.584 L
91.762 332.306 L
91.849 332.028 L
91.875 331.75 L
91.875 331.472 L
91.946 331.195 L
91.946 330.917 L
91.946 330.639 L
91.946 330.361 L
91.946 330.083 L
92.001 329.805 L
92.001 329.527 L
92.001 329.249 L
92.062 328.971 L
92.062 328.693 L
92.111 328.415 L
92.111 328.137 L
92.214 327.859 L
92.214 327.581 L
92.214 327.303 L
92.214 327.025 L
92.214 326.747 L
92.324 326.469 L
92.375 326.191 L
92.389 325.913 L
92.443 325.635 L
92.502 325.357 L
92.598 325.079 L
92.598 324.801 L
92.698 324.524 L
92.698 324.246 L
92.808 323.968 L
92.856 323.69 L
92.856 323.412 L
92.856 323.134 L
93.12 322.856 L
93.228 322.578 L
93.36 322.3 L
94.122 322.022 L
95.951 321.744 L
96.185 321.466 L
96.185 321.188 L
96.346 320.91 L
96.346 320.632 L
96.346 320.354 L
96.478 320.076 L
96.478 319.798 L
96.508 319.52 L
96.619 319.242 L
96.746 318.964 L
96.758 318.686 L
96.758 318.408 L
96.787 318.13 L
96.809 317.853 L
96.918 317.575 L
96.918 317.297 L
96.918 317.019 L
97.052 316.741 L
97.111 316.463 L
97.114 316.185 L
97.114 315.907 L
97.114 315.629 L
97.114 315.351 L
97.114 315.073 L
97.114 314.795 L
97.116 314.517 L
97.192 314.239 L
97.455 313.961 L
97.526 313.683 L
97.526 313.405 L
97.526 313.127 L
97.591 312.849 L
97.793 312.571 L
97.961 312.293 L
98.094 312.015 L
98.158 311.737 L
98.49 311.46 L
98.621 311.182 L
98.659 310.904 L
98.821 310.626 L
99.444 310.348 L
99.444 310.07 L
99.444 309.792 L
99.444 309.514 L
99.444 309.236 L
99.593 308.958 L
99.867 308.68 L
100.025 308.402 L
100.06 308.124 L
100.399 307.846 L
100.673 307.568 L
100.673 307.29 L
100.673 307.012 L
100.892 306.734 L
100.953 306.456 L
100.99 306.178 L
101.152 305.9 L
101.389 305.622 L
101.389 305.344 L
101.784 305.066 L
102.126 304.789 L
102.167 304.511 L
102.167 304.233 L
102.167 303.955 L
102.53 303.677 L
102.667 303.399 L
102.721 303.121 L
102.754 302.843 L
102.754 302.565 L
102.754 302.287 L
103.139 302.009 L
103.139 301.731 L
103.188 301.453 L
103.313 301.175 L
103.313 300.897 L
103.313 300.619 L
103.313 300.341 L
103.313 300.063 L
103.364 299.785 L
103.399 299.507 L
103.517 299.229 L
103.536 298.951 L
103.62 298.673 L
103.754 298.396 L
103.754 298.118 L
104.187 297.84 L
104.466 297.562 L
104.47 297.284 L
104.606 297.006 L
104.606 296.728 L
104.619 296.45 L
104.619 296.172 L
104.619 295.894 L
104.683 295.616 L
104.962 295.338 L
104.987 295.06 L
105.022 294.782 L
105.081 294.504 L
105.27 294.226 L
105.285 293.948 L
105.292 293.67 L
105.293 293.392 L
105.579 293.114 L
105.892 292.836 L
105.892 292.558 L
106.301 292.28 L
106.301 292.002 L
106.452 291.725 L
106.738 291.447 L
106.738 291.169 L
107.025 290.891 L
107.025 290.613 L
107.115 290.335 L
107.516 290.057 L
107.737 289.779 L
107.737 289.501 L
107.905 289.223 L
108.148 288.945 L
108.309 288.667 L
108.427 288.389 L
108.427 288.111 L
108.734 287.833 L
108.863 287.555 L
109.235 287.277 L
109.249 286.999 L
109.398 286.721 L
109.398 286.443 L
109.417 286.165 L
109.417 285.887 L
109.417 285.609 L
109.592 285.332 L
109.592 285.054 L
109.717 284.776 L
110.089 284.498 L
110.28 284.22 L
110.329 283.942 L
110.657 283.664 L
110.809 283.386 L
110.896 283.108 L
110.961 282.83 L
110.996 282.552 L
110.996 282.274 L
110.996 281.996 L
111.788 281.718 L
111.857 281.44 L
112.099 281.162 L
112.149 280.884 L
112.149 280.606 L
112.206 280.328 L
112.23 280.05 L
112.44 279.772 L
112.66 279.494 L
112.66 279.216 L
112.66 278.938 L
112.922 278.661 L
113.162 278.383 L
113.184 278.105 L
113.548 277.827 L
114.984 277.549 L
115.586 277.271 L
116.178 276.993 L
116.321 276.715 L
116.412 276.437 L
116.476 276.159 L
116.769 275.881 L
116.87 275.603 L
117.172 275.325 L
117.173 275.047 L
117.246 274.769 L
117.385 274.491 L
117.624 274.213 L
117.624 273.935 L
118.208 273.657 L
118.279 273.379 L
118.677 273.101 L
118.801 272.823 L
118.832 272.545 L
119.311 272.267 L
119.733 271.99 L
120.386 271.712 L
120.654 271.434 L
121.215 271.156 L
121.416 270.878 L
121.483 270.6 L
121.615 270.322 L
121.615 270.044 L
121.628 269.766 L
121.628 269.488 L
121.649 269.21 L
122.093 268.932 L
122.721 268.654 L
122.721 268.376 L
122.721 268.098 L
122.721 267.82 L
122.772 267.542 L
122.777 267.264 L
122.866 266.986 L
123.259 266.708 L
123.343 266.43 L
123.457 266.152 L
123.46 265.874 L
123.46 265.596 L
123.46 265.319 L
123.544 265.041 L
123.688 264.763 L
124.751 264.485 L
124.751 264.207 L
124.751 263.929 L
124.846 263.651 L
124.874 263.373 L
124.933 263.095 L
125.178 262.817 L
125.178 262.539 L
125.206 262.261 L
125.206 261.983 L
126.318 261.705 L
126.318 261.427 L
126.417 261.149 L
126.92 260.871 L
127.305 260.593 L
127.338 260.315 L
127.349 260.037 L
127.39 259.759 L
127.39 259.481 L
127.489 259.203 L
127.936 258.926 L
128.346 258.648 L
128.732 258.37 L
128.776 258.092 L
128.776 257.814 L
128.96 257.536 L
129.873 257.258 L
130.087 256.98 L
130.177 256.702 L
130.48 256.424 L
130.765 256.146 L
132.217 255.868 L
133.952 255.59 L
133.959 255.312 L
135.295 255.034 L
137.003 254.756 L
137.003 254.478 L
137.065 254.2 L
137.084 253.922 L
137.216 253.644 L
137.596 253.366 L
138.711 253.088 L
140.544 252.81 L
140.544 252.532 L
140.575 252.255 L
140.575 251.977 L
140.705 251.699 L
140.989 251.421 L
141.315 251.143 L
142.021 250.865 L
143.101 250.587 L
143.882 250.309 L
143.882 250.031 L
143.882 249.753 L
144.5 249.475 L
144.964 249.197 L
146.782 248.919 L
146.871 248.641 L
146.878 248.363 L
148.135 248.085 L
148.807 247.807 L
148.807 247.529 L
148.807 247.251 L
151.227 246.973 L
152.079 246.695 L
152.186 246.417 L
153.388 246.139 L
153.388 245.862 L
153.513 245.584 L
153.802 245.306 L
154.328 245.028 L
154.328 244.75 L
155.067 244.472 L
155.067 244.194 L
155.156 243.916 L
155.156 243.638 L
155.156 243.36 L
156.437 243.082 L
156.903 242.804 L
157.592 242.526 L
157.872 242.248 L
158.029 241.97 L
158.197 241.692 L
158.249 241.414 L
159.239 241.136 L
159.316 240.858 L
159.316 240.58 L
159.777 240.302 L
159.9 240.024 L
160.361 239.746 L
160.403 239.468 L
160.403 239.191 L
160.403 238.913 L
160.409 238.635 L
160.409 238.357 L
161.055 238.079 L
161.156 237.801 L
161.156 237.523 L
162.05 237.245 L
162.844 236.967 L
162.844 236.689 L
163.211 236.411 L
164.409 236.133 L
164.664 235.855 L
164.894 235.577 L
165.124 235.299 L
165.788 235.021 L
166.576 234.743 L
166.576 234.465 L
166.719 234.187 L
167.015 233.909 L
168.048 233.631 L
168.366 233.353 L
168.63 233.075 L
168.883 232.798 L
168.962 232.52 L
169.209 232.242 L
169.473 231.964 L
170.215 231.686 L
170.382 231.408 L
170.382 231.13 L
170.382 230.852 L
170.615 230.574 L
170.615 230.296 L
170.743 230.018 L
170.743 229.74 L
170.879 229.462 L
171.025 229.184 L
171.182 228.906 L
171.945 228.628 L
171.945 228.35 L
172.072 228.072 L
172.072 227.794 L
172.072 227.516 L
172.319 227.238 L
172.319 226.96 L
172.807 226.682 L
172.915 226.404 L
173.026 226.127 L
173.026 225.849 L
173.026 225.571 L
173.026 225.293 L
173.029 225.015 L
173.029 224.737 L
173.098 224.459 L
173.098 224.181 L
173.186 223.903 L
173.608 223.625 L
174.008 223.347 L
174.268 223.069 L
174.316 222.791 L
174.395 222.513 L
174.983 222.235 L
175.339 221.957 L
175.339 221.679 L
175.339 221.401 L
175.345 221.123 L
175.47 220.845 L
175.47 220.567 L
175.47 220.289 L
176.524 220.011 L
176.524 219.733 L
176.547 219.456 L
176.863 219.178 L
176.889 218.9 L
176.889 218.622 L
176.925 218.344 L
177.452 218.066 L
177.452 217.788 L
177.452 217.51 L
177.74 217.232 L
177.741 216.954 L
177.752 216.676 L
177.844 216.398 L
177.994 216.12 L
177.994 215.842 L
178.079 215.564 L
178.83 215.286 L
180.27 215.008 L
180.368 214.73 L
180.518 214.452 L
180.615 214.174 L
180.615 213.896 L
180.984 213.618 L
181.42 213.34 L
181.667 213.063 L
182.449 212.785 L
182.543 212.507 L
182.85 212.229 L
183.143 211.951 L
183.245 211.673 L
183.298 211.395 L
183.301 211.117 L
183.605 210.839 L
183.965 210.561 L
184.123 210.283 L
184.211 210.005 L
184.211 209.727 L
184.211 209.449 L
184.211 209.171 L
184.587 208.893 L
184.8 208.615 L
184.971 208.337 L
185.246 208.059 L
185.543 207.781 L
185.811 207.503 L
186.093 207.225 L
186.093 206.947 L
186.111 206.669 L
186.289 206.392 L
186.289 206.114 L
186.435 205.836 L
186.495 205.558 L
186.497 205.28 L
187.162 205.002 L
187.369 204.724 L
187.391 204.446 L
187.391 204.168 L
187.458 203.89 L
187.512 203.612 L
188.025 203.334 L
188.528 203.056 L
188.601 202.778 L
189.099 202.5 L
189.374 202.222 L
189.395 201.944 L
189.482 201.666 L
189.604 201.388 L
189.636 201.11 L
189.636 200.832 L
189.673 200.554 L
189.673 200.276 L
190.131 199.998 L
190.232 199.721 L
190.44 199.443 L
190.492 199.165 L
190.542 198.887 L
190.629 198.609 L
190.688 198.331 L
190.688 198.053 L
190.696 197.775 L
190.696 197.497 L
190.721 197.219 L
190.721 196.941 L
190.992 196.663 L
191.084 196.385 L
191.56 196.107 L
191.722 195.829 L
191.939 195.551 L
191.971 195.273 L
191.971 194.995 L
192.245 194.717 L
192.245 194.439 L
192.245 194.161 L
192.25 193.883 L
192.82 193.605 L
192.989 193.327 L
193.1 193.05 L
193.1 192.772 L
193.1 192.494 L
193.1 192.216 L
193.143 191.938 L
193.157 191.66 L
193.374 191.382 L
193.475 191.104 L
193.485 190.826 L
193.485 190.548 L
194.014 190.27 L
195.053 189.992 L
195.053 189.714 L
195.148 189.436 L
195.162 189.158 L
195.162 188.88 L
195.195 188.602 L
195.327 188.324 L
195.64 188.046 L
195.64 187.768 L
195.685 187.49 L
196.049 187.212 L
196.049 186.934 L
196.1 186.657 L
196.1 186.379 L
196.259 186.101 L
196.356 185.823 L
196.414 185.545 L
196.631 185.267 L
196.631 184.989 L
196.764 184.711 L
197.221 184.433 L
197.221 184.155 L
197.243 183.877 L
197.339 183.599 L
197.392 183.321 L
197.52 183.043 L
197.551 182.765 L
197.651 182.487 L
197.651 182.209 L
197.756 181.931 L
197.836 181.653 L
198.028 181.375 L
198.108 181.097 L
198.337 180.819 L
198.611 180.541 L
198.631 180.263 L
198.668 179.986 L
198.973 179.708 L
198.975 179.43 L
199.029 179.152 L
199.103 178.874 L
199.119 178.596 L
199.303 178.318 L
199.303 178.04 L
199.722 177.762 L
199.722 177.484 L
199.809 177.206 L
200.298 176.928 L
200.418 176.65 L
200.418 176.372 L
201.016 176.094 L
201.016 175.816 L
201.165 175.538 L
201.175 175.26 L
201.44 174.982 L
201.472 174.704 L
201.49 174.426 L
201.49 174.148 L
201.49 173.87 L
201.594 173.593 L
201.755 173.315 L
201.755 173.037 L
201.755 172.759 L
201.756 172.481 L
201.988 172.203 L
202.039 171.925 L
202.346 171.647 L
202.346 171.369 L
202.346 171.091 L
202.814 170.813 L
202.814 170.535 L
203.209 170.257 L
203.602 169.979 L
203.602 169.701 L
203.602 169.423 L
203.602 169.145 L
203.638 168.867 L
203.656 168.589 L
203.947 168.311 L
203.947 168.033 L
204.122 167.755 L
204.122 167.477 L
204.122 167.199 L
204.122 166.922 L
204.122 166.644 L
204.196 166.366 L
204.224 166.088 L
204.287 165.81 L
204.361 165.532 L
204.398 165.254 L
204.499 164.976 L
204.726 164.698 L
204.726 164.42 L
205.077 164.142 L
205.096 163.864 L
206.031 163.586 L
206.037 163.308 L
206.107 163.03 L
206.223 162.752 L
206.286 162.474 L
206.353 162.196 L
206.683 161.918 L
206.683 161.64 L
207.034 161.362 L
207.034 161.084 L
207.444 160.806 L
207.931 160.529 L
208.21 160.251 L
208.624 159.973 L
208.624 159.695 L
208.758 159.417 L
208.758 159.139 L
208.878 158.861 L
209.133 158.583 L
209.133 158.305 L
209.229 158.027 L
209.229 157.749 L
209.534 157.471 L
209.675 157.193 L
209.825 156.915 L
209.954 156.637 L
210.237 156.359 L
210.237 156.081 L
210.727 155.803 L
211.026 155.525 L
211.205 155.247 L
211.238 154.969 L
211.238 154.691 L
211.466 154.413 L
211.466 154.135 L
211.553 153.858 L
211.67 153.58 L
211.693 153.302 L
211.693 153.024 L
211.693 152.746 L
211.886 152.468 L
211.933 152.19 L
211.975 151.912 L
212.171 151.634 L
212.34 151.356 L
212.603 151.078 L
212.603 150.8 L
212.723 150.522 L
212.736 150.244 L
212.805 149.966 L
213.011 149.688 L
213.027 149.41 L
213.059 149.132 L
213.423 148.854 L
213.522 148.576 L
213.641 148.298 L
213.677 148.02 L
213.855 147.742 L
213.855 147.464 L
213.867 147.187 L
213.891 146.909 L
213.9 146.631 L
213.9 146.353 L
213.9 146.075 L
213.9 145.797 L
213.971 145.519 L
214.165 145.241 L
214.474 144.963 L
214.858 144.685 L
214.878 144.407 L
214.878 144.129 L
214.96 143.851 L
214.96 143.573 L
215.139 143.295 L
215.219 143.017 L
215.263 142.739 L
215.303 142.461 L
215.343 142.183 L
215.343 141.905 L
215.343 141.627 L
215.371 141.349 L
215.38 141.071 L
215.477 140.794 L
215.541 140.516 L
215.785 140.238 L
215.785 139.96 L
215.847 139.682 L
215.995 139.404 L
216.256 139.126 L
216.32 138.848 L
216.32 138.57 L
216.431 138.292 L
216.611 138.014 L
216.731 137.736 L
216.917 137.458 L
216.917 137.18 L
216.943 136.902 L
217.121 136.624 L
217.249 136.346 L
217.297 136.068 L
217.314 135.79 L
217.339 135.512 L
217.575 135.234 L
217.575 134.956 L
217.575 134.678 L
217.724 134.4 L
217.778 134.123 L
217.778 133.845 L
217.911 133.567 L
217.959 133.289 L
218.306 133.011 L
218.347 132.733 L
218.487 132.455 L
219.218 132.177 L
219.218 131.899 L
219.222 131.621 L
219.286 131.343 L
219.286 131.065 L
219.595 130.787 L
219.596 130.509 L
219.774 130.231 L
219.816 129.953 L
219.816 129.675 L
219.941 129.397 L
220.098 129.119 L
220.205 128.841 L
220.269 128.563 L
220.27 128.285 L
220.273 128.007 L
220.312 127.729 L
220.559 127.452 L
220.616 127.174 L
220.621 126.896 L
220.621 126.618 L
220.621 126.34 L
220.887 126.062 L
220.929 125.784 L
221.02 125.506 L
221.126 125.228 L
221.16 124.95 L
221.361 124.672 L
221.373 124.394 L
221.406 124.116 L
221.406 123.838 L
221.62 123.56 L
221.62 123.282 L
222.147 123.004 L
222.75 122.726 L
222.75 122.448 L
222.75 122.17 L
222.8 121.892 L
223.337 121.614 L
223.374 121.336 L
223.405 121.059 L
223.475 120.781 L
223.475 120.503 L
223.486 120.225 L
223.694 119.947 L
223.778 119.669 L
223.79 119.391 L
223.897 119.113 L
224.139 118.835 L
224.258 118.557 L
224.258 118.279 L
224.71 118.001 L
224.827 117.723 L
224.827 117.445 L
224.827 117.167 L
225.258 116.889 L
225.28 116.611 L
225.28 116.333 L
225.323 116.055 L
225.773 115.777 L
226.223 115.499 L
226.241 115.221 L
226.241 114.943 L
226.244 114.665 L
226.244 114.388 L
226.495 114.11 L
226.65 113.832 L
226.65 113.554 L
226.7 113.276 L
226.7 112.998 L
226.725 112.72 L
226.761 112.442 L
226.921 112.164 L
226.921 111.886 L
227.036 111.608 L
227.076 111.33 L
227.123 111.052 L
227.167 110.774 L
227.315 110.496 L
227.34 110.218 L
227.493 109.94 L
227.746 109.662 L
227.77 109.384 L
228.759 109.106 L
228.96 108.828 L
229.06 108.55 L
229.815 108.272 L
230.011 107.995 L
230.231 107.717 L
230.33 107.439 L
230.448 107.161 L
230.479 106.883 L
231.005 106.605 L
231.208 106.327 L
231.296 106.049 L
231.4 105.771 L
231.483 105.493 L
231.548 105.215 L
231.846 104.937 L
231.846 104.659 L
232.052 104.381 L
232.073 104.103 L
232.073 103.825 L
232.073 103.547 L
232.073 103.269 L
232.41 102.991 L
232.559 102.713 L
232.559 102.435 L
232.842 102.157 L
232.875 101.879 L
232.875 101.601 L
232.886 101.324 L
232.913 101.046 L
233.819 100.768 L
233.971 100.49 L
233.971 100.212 L
234.057 99.934 L
234.116 99.656 L
234.326 99.378 L
235.093 99.1 L
235.283 98.822 L
235.38 98.544 L
235.629 98.266 L
236.269 97.988 L
236.542 97.71 L
236.542 97.432 L
236.585 97.154 L
236.788 96.876 L
236.948 96.598 L
236.957 96.32 L
237.056 96.042 L
237.056 95.764 L
237.115 95.486 L
237.115 95.208 L
237.28 94.93 L
237.541 94.653 L
237.581 94.375 L
237.581 94.097 L
237.765 93.819 L
238.105 93.541 L
238.414 93.263 L
238.414 92.985 L
238.414 92.707 L
238.601 92.429 L
238.604 92.151 L
239.096 91.873 L
239.217 91.595 L
239.217 91.317 L
239.41 91.039 L
239.641 90.761 L
239.823 90.483 L
240.322 90.205 L
240.404 89.927 L
240.837 89.649 L
240.881 89.371 L
240.957 89.093 L
240.957 88.815 L
241.19 88.537 L
241.25 88.26 L
241.837 87.982 L
242.019 87.704 L
242.416 87.426 L
242.531 87.148 L
242.798 86.87 L
242.829 86.592 L
242.846 86.314 L
242.858 86.036 L
242.865 85.758 L
242.865 85.48 L
243.073 85.202 L
243.597 84.924 L
243.786 84.646 L
243.8 84.368 L
243.942 84.09 L
244.399 83.812 L
244.509 83.534 L
244.688 83.256 L
244.919 82.978 L
245.055 82.7 L
245.085 82.422 L
245.1 82.144 L
245.519 81.866 L
245.941 81.589 L
245.941 81.311 L
246.426 81.033 L
246.534 80.755 L
246.753 80.477 L
247.394 80.199 L
247.415 79.921 L
247.415 79.643 L
247.63 79.365 L
248.205 79.087 L
248.338 78.809 L
248.338 78.531 L
248.451 78.253 L
249.084 77.975 L
249.084 77.697 L
249.084 77.419 L
249.42 77.141 L
249.42 76.863 L
249.969 76.585 L
250.737 76.307 L
250.793 76.029 L
253.833 75.751 L
254.059 75.473 L
254.084 75.196 L
254.084 74.918 L
254.112 74.64 L
254.112 74.362 L
254.112 74.084 L
254.112 73.806 L
254.165 73.528 L
254.735 73.25 L
254.832 72.972 L
254.946 72.694 L
255.152 72.416 L
255.669 72.138 L
255.759 71.86 L
256.074 71.582 L
256.074 71.304 L
256.328 71.026 L
256.471 70.748 L
256.628 70.47 L
257.244 70.192 L
257.599 69.914 L
257.599 69.636 L
259.855 69.358 L
259.99 69.08 L
259.99 68.802 L
259.99 68.525 L
259.99 68.247 L
259.99 67.969 L
261.608 67.691 L
262.32 67.413 L
263.173 67.135 L
263.211 66.857 L
264.44 66.579 L
264.514 66.301 L
265.252 66.023 L
265.348 65.745 L
265.398 65.467 L
265.468 65.189 L
265.889 64.911 L
266.941 64.633 L
267.041 64.355 L
267.245 64.077 L
267.245 63.799 L
267.433 63.521 L
268.359 63.243 L
269.073 62.965 L
269.073 62.687 L
269.073 62.409 L
269.727 62.131 L
270.726 61.854 L
270.866 61.576 L
270.941 61.298 L
270.941 61.02 L
271.299 60.742 L
271.31 60.464 L
273.151 60.186 L
273.887 59.908 L
275.332 59.63 L
276.002 59.352 L
276.358 59.074 L
276.92 58.796 L
277.014 58.518 L
277.014 58.24 L
277.24 57.962 L
277.343 57.684 L
277.427 57.406 L
278.682 57.128 L
278.713 56.85 L
278.738 56.572 L
278.927 56.294 L
279.287 56.016 L
279.732 55.738 L
280.635 55.461 L
281.641 55.183 L
282.958 54.905 L
283.393 54.627 L
283.397 54.349 L
285.745 54.071 L
286.692 53.793 L
288.54 53.515 L
288.791 53.237 L
289.534 52.959 L
289.63 52.681 L
292.162 52.403 L
293.536 52.125 L
295.136 51.847 L
296.585 51.569 L
296.668 51.291 L
298.108 51.013 L
299.042 50.735 L
299.042 50.457 L
299.265 50.179 L
299.265 49.901 L
299.265 49.623 L
299.265 49.345 L
299.292 49.067 L
299.603 48.79 L
301.042 48.512 L
301.042 48.234 L
301.283 47.956 L
301.283 47.678 L
301.283 47.4 L
303.57 47.122 L
304.31 46.844 L
305.717 46.566 L
305.717 46.288 L
305.717 46.01 L
305.743 45.732 L
306.947 45.454 L
307.445 45.176 L
307.985 44.898 L
309.462 44.62 L
311.176 44.342 L
311.608 44.064 L
315.651 43.786 L
317.332 43.508 L
321.646 43.23 L
322.239 42.952 L
322.239 42.674 L
324.534 42.396 L
324.534 42.119 L
324.543 41.841 L
324.753 41.563 L
328.294 41.285 L
330.17 41.007 L
331.437 40.729 L
331.555 40.451 L
335.401 40.173 L
336.758 39.895 L
336.935 39.617 L
337.143 39.339 L
338.904 39.061 L
339.976 38.783 L
339.976 38.505 L
344.917 38.227 L
344.917 37.949 L
344.993 37.671 L
352.177 37.393 L
353.372 37.115 L
353.472 36.837 L
353.493 36.559 L
354.907 36.281 L
355.102 36.003 L
357.757 35.725 L
361.979 35.448 L
362.333 35.17 L
363.03 34.892 L
368.236 34.614 L
369.071 34.336 L
370.843 34.058 L
371.451 33.78 L
371.589 33.502 L
375.574 33.224 L
382.949 32.946 L
383 32.668 L
386.444 32.39 L
390.096 32.112 L
398.5 31.834 L
409.418 31.556 L
412.063 31.278 L
414.436 31 L
507 31 L
S
GR
GS
[0.75 0 0 0.75 0 0] CT
1 GC
N
390 361 M
390 308 L
494 308 L
494 361 L
cp
f
GR
GS
[0.75 0 0 0.75 327.75 238.5] CT
/Helvetica 12 F
GS
[1 0 0 1 0 0] CT
0 5 moveto 
1 -1 scale
(Meanshift) t 
GR
GR
GS
[0.75 0 0 0.75 0 0] CT
1 0 0 RC
1 LJ
2.667 LW
N
394 318 M
434 318 L
S
GR
GS
[0.75 0 0 0.75 327.75 250.875] CT
/Helvetica 12 F
GS
[1 0 0 1 0 0] CT
0 5 moveto 
1 -1 scale
(KCF) t 
GR
GR
GS
[0.75 0 0 0.75 0 0] CT
0 1 0 RC
[8 2 4 2] 0 setdash
2 LJ
2.667 LW
N
394 334.5 M
434 334.5 L
S
GR
GS
[0.75 0 0 0.75 327.75 263.25] CT
/Helvetica 12 F
GS
[1 0 0 1 0 0] CT
0 5 moveto 
1 -1 scale
(STRUCK) t 
GR
GR
GS
[0.75 0 0 0.75 0 0] CT
0 0 1 RC
[8 8] 0 setdash
2 LJ
2.667 LW
N
394 351 M
434 351 L
S
GR
GS
[0.75 0 0 0.75 0 0] CT
0.149 GC
10.0 ML
0.667 LW
N
390 361 M
390 308 L
494 308 L
494 361 L
cp
S
GR
%%Trailer
%%Pages: 1
%%EOF
