%!PS-Adobe-3.0 EPSF-3.0
%%Creator: (MATLAB, The Mathworks, Inc. Version 9.2.0.538062 \(R2017a\). Operating System: Windows 8)
%%Title: C:/Users/jack/ANU/engn3712-report/images/surfer-success.eps
%%CreationDate: 2017-10-15T15:03:06
%%Pages: (atend)
%%BoundingBox: 0 0 420 315
%%LanguageLevel: 3
%%EndComments
%%BeginProlog
%%BeginResource: procset (Apache XML Graphics Std ProcSet) 1.2 0
%%Version: 1.2 0
%%Copyright: (Copyright 2001-2003,2010 The Apache Software Foundation. License terms: http://www.apache.org/licenses/LICENSE-2.0)
/bd{bind def}bind def
/ld{load def}bd
/GR/grestore ld
/M/moveto ld
/LJ/setlinejoin ld
/C/curveto ld
/f/fill ld
/LW/setlinewidth ld
/GC/setgray ld
/t/show ld
/N/newpath ld
/CT/concat ld
/cp/closepath ld
/S/stroke ld
/L/lineto ld
/CC/setcmykcolor ld
/A/ashow ld
/GS/gsave ld
/RC/setrgbcolor ld
/RM/rmoveto ld
/ML/setmiterlimit ld
/re {4 2 roll M
1 index 0 rlineto
0 exch rlineto
neg 0 rlineto
cp } bd
/_ctm matrix def
/_tm matrix def
/BT { _ctm currentmatrix pop matrix _tm copy pop 0 0 moveto } bd
/ET { _ctm setmatrix } bd
/iTm { _ctm setmatrix _tm concat } bd
/Tm { _tm astore pop iTm 0 0 moveto } bd
/ux 0.0 def
/uy 0.0 def
/F {
  /Tp exch def
  /Tf exch def
  Tf findfont Tp scalefont setfont
  /cf Tf def  /cs Tp def
} bd
/ULS {currentpoint /uy exch def /ux exch def} bd
/ULE {
  /Tcx currentpoint pop def
  gsave
  newpath
  cf findfont cs scalefont dup
  /FontMatrix get 0 get /Ts exch def /FontInfo get dup
  /UnderlinePosition get Ts mul /To exch def
  /UnderlineThickness get Ts mul /Tt exch def
  ux uy To add moveto  Tcx uy To add lineto
  Tt setlinewidth stroke
  grestore
} bd
/OLE {
  /Tcx currentpoint pop def
  gsave
  newpath
  cf findfont cs scalefont dup
  /FontMatrix get 0 get /Ts exch def /FontInfo get dup
  /UnderlinePosition get Ts mul /To exch def
  /UnderlineThickness get Ts mul /Tt exch def
  ux uy To add cs add moveto Tcx uy To add cs add lineto
  Tt setlinewidth stroke
  grestore
} bd
/SOE {
  /Tcx currentpoint pop def
  gsave
  newpath
  cf findfont cs scalefont dup
  /FontMatrix get 0 get /Ts exch def /FontInfo get dup
  /UnderlinePosition get Ts mul /To exch def
  /UnderlineThickness get Ts mul /Tt exch def
  ux uy To add cs 10 mul 26 idiv add moveto Tcx uy To add cs 10 mul 26 idiv add lineto
  Tt setlinewidth stroke
  grestore
} bd
/QT {
/Y22 exch store
/X22 exch store
/Y21 exch store
/X21 exch store
currentpoint
/Y21 load 2 mul add 3 div exch
/X21 load 2 mul add 3 div exch
/X21 load 2 mul /X22 load add 3 div
/Y21 load 2 mul /Y22 load add 3 div
/X22 load /Y22 load curveto
} bd
/SSPD {
dup length /d exch dict def
{
/v exch def
/k exch def
currentpagedevice k known {
/cpdv currentpagedevice k get def
v cpdv ne {
/upd false def
/nullv v type /nulltype eq def
/nullcpdv cpdv type /nulltype eq def
nullv nullcpdv or
{
/upd true def
} {
/sametype v type cpdv type eq def
sametype {
v type /arraytype eq {
/vlen v length def
/cpdvlen cpdv length def
vlen cpdvlen eq {
0 1 vlen 1 sub {
/i exch def
/obj v i get def
/cpdobj cpdv i get def
obj cpdobj ne {
/upd true def
exit
} if
} for
} {
/upd true def
} ifelse
} {
v type /dicttype eq {
v {
/dv exch def
/dk exch def
/cpddv cpdv dk get def
dv cpddv ne {
/upd true def
exit
} if
} forall
} {
/upd true def
} ifelse
} ifelse
} if
} ifelse
upd true eq {
d k v put
} if
} if
} if
} forall
d length 0 gt {
d setpagedevice
} if
} bd
/RE { % /NewFontName [NewEncodingArray] /FontName RE -
  findfont dup length dict begin
  {
    1 index /FID ne
    {def} {pop pop} ifelse
  } forall
  /Encoding exch def
  /FontName 1 index def
  currentdict definefont pop
  end
} bind def
%%EndResource
%%BeginResource: procset (Apache XML Graphics EPS ProcSet) 1.0 0
%%Version: 1.0 0
%%Copyright: (Copyright 2002-2003 The Apache Software Foundation. License terms: http://www.apache.org/licenses/LICENSE-2.0)
/BeginEPSF { %def
/b4_Inc_state save def         % Save state for cleanup
/dict_count countdictstack def % Count objects on dict stack
/op_count count 1 sub def      % Count objects on operand stack
userdict begin                 % Push userdict on dict stack
/showpage { } def              % Redefine showpage, { } = null proc
0 setgray 0 setlinecap         % Prepare graphics state
1 setlinewidth 0 setlinejoin
10 setmiterlimit [ ] 0 setdash newpath
/languagelevel where           % If level not equal to 1 then
{pop languagelevel             % set strokeadjust and
1 ne                           % overprint to their defaults.
{false setstrokeadjust false setoverprint
} if
} if
} bd
/EndEPSF { %def
count op_count sub {pop} repeat            % Clean up stacks
countdictstack dict_count sub {end} repeat
b4_Inc_state restore
} bd
%%EndResource
%FOPBeginFontDict
%%IncludeResource: font Courier-Bold
%%IncludeResource: font Helvetica
%%IncludeResource: font Courier-BoldOblique
%%IncludeResource: font Courier-Oblique
%%IncludeResource: font Times-Roman
%%IncludeResource: font Helvetica-BoldOblique
%%IncludeResource: font Helvetica-Bold
%%IncludeResource: font Helvetica-Oblique
%%IncludeResource: font Times-BoldItalic
%%IncludeResource: font Courier
%%IncludeResource: font Times-Italic
%%IncludeResource: font Times-Bold
%%IncludeResource: font Symbol
%%IncludeResource: font ZapfDingbats
%FOPEndFontDict
%%BeginResource: encoding WinAnsiEncoding
/WinAnsiEncoding [
/.notdef /.notdef /.notdef /.notdef /.notdef
/.notdef /.notdef /.notdef /.notdef /.notdef
/.notdef /.notdef /.notdef /.notdef /.notdef
/.notdef /.notdef /.notdef /.notdef /.notdef
/.notdef /.notdef /.notdef /.notdef /.notdef
/.notdef /.notdef /.notdef /.notdef /.notdef
/.notdef /.notdef /space /exclam /quotedbl
/numbersign /dollar /percent /ampersand /quotesingle
/parenleft /parenright /asterisk /plus /comma
/hyphen /period /slash /zero /one
/two /three /four /five /six
/seven /eight /nine /colon /semicolon
/less /equal /greater /question /at
/A /B /C /D /E
/F /G /H /I /J
/K /L /M /N /O
/P /Q /R /S /T
/U /V /W /X /Y
/Z /bracketleft /backslash /bracketright /asciicircum
/underscore /quoteleft /a /b /c
/d /e /f /g /h
/i /j /k /l /m
/n /o /p /q /r
/s /t /u /v /w
/x /y /z /braceleft /bar
/braceright /asciitilde /bullet /Euro /bullet
/quotesinglbase /florin /quotedblbase /ellipsis /dagger
/daggerdbl /circumflex /perthousand /Scaron /guilsinglleft
/OE /bullet /Zcaron /bullet /bullet
/quoteleft /quoteright /quotedblleft /quotedblright /bullet
/endash /emdash /asciitilde /trademark /scaron
/guilsinglright /oe /bullet /zcaron /Ydieresis
/space /exclamdown /cent /sterling /currency
/yen /brokenbar /section /dieresis /copyright
/ordfeminine /guillemotleft /logicalnot /sfthyphen /registered
/macron /degree /plusminus /twosuperior /threesuperior
/acute /mu /paragraph /middot /cedilla
/onesuperior /ordmasculine /guillemotright /onequarter /onehalf
/threequarters /questiondown /Agrave /Aacute /Acircumflex
/Atilde /Adieresis /Aring /AE /Ccedilla
/Egrave /Eacute /Ecircumflex /Edieresis /Igrave
/Iacute /Icircumflex /Idieresis /Eth /Ntilde
/Ograve /Oacute /Ocircumflex /Otilde /Odieresis
/multiply /Oslash /Ugrave /Uacute /Ucircumflex
/Udieresis /Yacute /Thorn /germandbls /agrave
/aacute /acircumflex /atilde /adieresis /aring
/ae /ccedilla /egrave /eacute /ecircumflex
/edieresis /igrave /iacute /icircumflex /idieresis
/eth /ntilde /ograve /oacute /ocircumflex
/otilde /odieresis /divide /oslash /ugrave
/uacute /ucircumflex /udieresis /yacute /thorn
/ydieresis
] def
%%EndResource
%FOPBeginFontReencode
/Courier-Bold findfont
dup length dict begin
  {1 index /FID ne {def} {pop pop} ifelse} forall
  /Encoding WinAnsiEncoding def
  currentdict
end
/Courier-Bold exch definefont pop
/Helvetica findfont
dup length dict begin
  {1 index /FID ne {def} {pop pop} ifelse} forall
  /Encoding WinAnsiEncoding def
  currentdict
end
/Helvetica exch definefont pop
/Courier-BoldOblique findfont
dup length dict begin
  {1 index /FID ne {def} {pop pop} ifelse} forall
  /Encoding WinAnsiEncoding def
  currentdict
end
/Courier-BoldOblique exch definefont pop
/Courier-Oblique findfont
dup length dict begin
  {1 index /FID ne {def} {pop pop} ifelse} forall
  /Encoding WinAnsiEncoding def
  currentdict
end
/Courier-Oblique exch definefont pop
/Times-Roman findfont
dup length dict begin
  {1 index /FID ne {def} {pop pop} ifelse} forall
  /Encoding WinAnsiEncoding def
  currentdict
end
/Times-Roman exch definefont pop
/Helvetica-BoldOblique findfont
dup length dict begin
  {1 index /FID ne {def} {pop pop} ifelse} forall
  /Encoding WinAnsiEncoding def
  currentdict
end
/Helvetica-BoldOblique exch definefont pop
/Helvetica-Bold findfont
dup length dict begin
  {1 index /FID ne {def} {pop pop} ifelse} forall
  /Encoding WinAnsiEncoding def
  currentdict
end
/Helvetica-Bold exch definefont pop
/Helvetica-Oblique findfont
dup length dict begin
  {1 index /FID ne {def} {pop pop} ifelse} forall
  /Encoding WinAnsiEncoding def
  currentdict
end
/Helvetica-Oblique exch definefont pop
/Times-BoldItalic findfont
dup length dict begin
  {1 index /FID ne {def} {pop pop} ifelse} forall
  /Encoding WinAnsiEncoding def
  currentdict
end
/Times-BoldItalic exch definefont pop
/Courier findfont
dup length dict begin
  {1 index /FID ne {def} {pop pop} ifelse} forall
  /Encoding WinAnsiEncoding def
  currentdict
end
/Courier exch definefont pop
/Times-Italic findfont
dup length dict begin
  {1 index /FID ne {def} {pop pop} ifelse} forall
  /Encoding WinAnsiEncoding def
  currentdict
end
/Times-Italic exch definefont pop
/Times-Bold findfont
dup length dict begin
  {1 index /FID ne {def} {pop pop} ifelse} forall
  /Encoding WinAnsiEncoding def
  currentdict
end
/Times-Bold exch definefont pop
%FOPEndFontReencode
%%EndProlog
%%Page: 1 1
%%PageBoundingBox: 0 0 420 315
%%BeginPageSetup
[1 0 0 -1 0 315] CT
%%EndPageSetup
GS
[0.75 0 0 0.75 0 0] CT
1 GC
N
0 0 560 420 re
f
GR
GS
[0.75 0 0 0.75 0 0] CT
1 GC
N
0 0 560 420 re
f
GR
GS
[0.75 0 0 0.75 0 0] CT
1 GC
N
73 374 M
507 374 L
507 31 L
73 31 L
cp
f
GR
GS
[0.75 0 0 0.75 0 0] CT
0.149 GC
2 setlinecap
1 LJ
0.667 LW
N
73 374 M
507 374 L
S
GR
GS
[0.75 0 0 0.75 0 0] CT
0.149 GC
2 setlinecap
1 LJ
0.667 LW
N
73 374 M
73 369.66 L
S
GR
GS
[0.75 0 0 0.75 0 0] CT
0.149 GC
2 setlinecap
1 LJ
0.667 LW
N
116.4 374 M
116.4 369.66 L
S
GR
GS
[0.75 0 0 0.75 0 0] CT
0.149 GC
2 setlinecap
1 LJ
0.667 LW
N
159.8 374 M
159.8 369.66 L
S
GR
GS
[0.75 0 0 0.75 0 0] CT
0.149 GC
2 setlinecap
1 LJ
0.667 LW
N
203.2 374 M
203.2 369.66 L
S
GR
GS
[0.75 0 0 0.75 0 0] CT
0.149 GC
2 setlinecap
1 LJ
0.667 LW
N
246.6 374 M
246.6 369.66 L
S
GR
GS
[0.75 0 0 0.75 0 0] CT
0.149 GC
2 setlinecap
1 LJ
0.667 LW
N
290 374 M
290 369.66 L
S
GR
GS
[0.75 0 0 0.75 0 0] CT
0.149 GC
2 setlinecap
1 LJ
0.667 LW
N
333.4 374 M
333.4 369.66 L
S
GR
GS
[0.75 0 0 0.75 0 0] CT
0.149 GC
2 setlinecap
1 LJ
0.667 LW
N
376.8 374 M
376.8 369.66 L
S
GR
GS
[0.75 0 0 0.75 0 0] CT
0.149 GC
2 setlinecap
1 LJ
0.667 LW
N
420.2 374 M
420.2 369.66 L
S
GR
GS
[0.75 0 0 0.75 0 0] CT
0.149 GC
2 setlinecap
1 LJ
0.667 LW
N
463.6 374 M
463.6 369.66 L
S
GR
GS
[0.75 0 0 0.75 0 0] CT
0.149 GC
2 setlinecap
1 LJ
0.667 LW
N
507 374 M
507 369.66 L
S
GR
GS
[0.75 0 0 0.75 54.75 284.50001] CT
0.149 GC
/Helvetica 13.333 F
GS
[1 0 0 1 0 0] CT
-4 14 moveto 
1 -1 scale
(0) t 
GR
GR
GS
[0.75 0 0 0.75 87.3 284.50001] CT
0.149 GC
/Helvetica 13.333 F
GS
[1 0 0 1 0 0] CT
-9.5 14 moveto 
1 -1 scale
(0.1) t 
GR
GR
GS
[0.75 0 0 0.75 119.85 284.50001] CT
0.149 GC
/Helvetica 13.333 F
GS
[1 0 0 1 0 0] CT
-9.5 14 moveto 
1 -1 scale
(0.2) t 
GR
GR
GS
[0.75 0 0 0.75 152.40001 284.50001] CT
0.149 GC
/Helvetica 13.333 F
GS
[1 0 0 1 0 0] CT
-9.5 14 moveto 
1 -1 scale
(0.3) t 
GR
GR
GS
[0.75 0 0 0.75 184.95 284.50001] CT
0.149 GC
/Helvetica 13.333 F
GS
[1 0 0 1 0 0] CT
-9.5 14 moveto 
1 -1 scale
(0.4) t 
GR
GR
GS
[0.75 0 0 0.75 217.5 284.50001] CT
0.149 GC
/Helvetica 13.333 F
GS
[1 0 0 1 0 0] CT
-9.5 14 moveto 
1 -1 scale
(0.5) t 
GR
GR
GS
[0.75 0 0 0.75 250.05002 284.50001] CT
0.149 GC
/Helvetica 13.333 F
GS
[1 0 0 1 0 0] CT
-9.5 14 moveto 
1 -1 scale
(0.6) t 
GR
GR
GS
[0.75 0 0 0.75 282.59999 284.50001] CT
0.149 GC
/Helvetica 13.333 F
GS
[1 0 0 1 0 0] CT
-9.5 14 moveto 
1 -1 scale
(0.7) t 
GR
GR
GS
[0.75 0 0 0.75 315.15001 284.50001] CT
0.149 GC
/Helvetica 13.333 F
GS
[1 0 0 1 0 0] CT
-9.5 14 moveto 
1 -1 scale
(0.8) t 
GR
GR
GS
[0.75 0 0 0.75 347.69998 284.50001] CT
0.149 GC
/Helvetica 13.333 F
GS
[1 0 0 1 0 0] CT
-9.5 14 moveto 
1 -1 scale
(0.9) t 
GR
GR
GS
[0.75 0 0 0.75 380.25 284.50001] CT
0.149 GC
/Helvetica 13.333 F
GS
[1 0 0 1 0 0] CT
-4 14 moveto 
1 -1 scale
(1) t 
GR
GR
GS
[0.75 0 0 0.75 217.50016 298.24999] CT
0.149 GC
/Helvetica 14.667 F
GS
[1 0 0 1 0 0] CT
-33.5 16 moveto 
1 -1 scale
(Threshold) t 
GR
GR
GS
[0.75 0 0 0.75 0 0] CT
0.149 GC
2 setlinecap
1 LJ
0.667 LW
N
73 374 M
73 31 L
S
GR
GS
[0.75 0 0 0.75 0 0] CT
0.149 GC
2 setlinecap
1 LJ
0.667 LW
N
73 374 M
77.34 374 L
S
GR
GS
[0.75 0 0 0.75 0 0] CT
0.149 GC
2 setlinecap
1 LJ
0.667 LW
N
73 339.7 M
77.34 339.7 L
S
GR
GS
[0.75 0 0 0.75 0 0] CT
0.149 GC
2 setlinecap
1 LJ
0.667 LW
N
73 305.4 M
77.34 305.4 L
S
GR
GS
[0.75 0 0 0.75 0 0] CT
0.149 GC
2 setlinecap
1 LJ
0.667 LW
N
73 271.1 M
77.34 271.1 L
S
GR
GS
[0.75 0 0 0.75 0 0] CT
0.149 GC
2 setlinecap
1 LJ
0.667 LW
N
73 236.8 M
77.34 236.8 L
S
GR
GS
[0.75 0 0 0.75 0 0] CT
0.149 GC
2 setlinecap
1 LJ
0.667 LW
N
73 202.5 M
77.34 202.5 L
S
GR
GS
[0.75 0 0 0.75 0 0] CT
0.149 GC
2 setlinecap
1 LJ
0.667 LW
N
73 168.2 M
77.34 168.2 L
S
GR
GS
[0.75 0 0 0.75 0 0] CT
0.149 GC
2 setlinecap
1 LJ
0.667 LW
N
73 133.9 M
77.34 133.9 L
S
GR
GS
[0.75 0 0 0.75 0 0] CT
0.149 GC
2 setlinecap
1 LJ
0.667 LW
N
73 99.6 M
77.34 99.6 L
S
GR
GS
[0.75 0 0 0.75 0 0] CT
0.149 GC
2 setlinecap
1 LJ
0.667 LW
N
73 65.3 M
77.34 65.3 L
S
GR
GS
[0.75 0 0 0.75 0 0] CT
0.149 GC
2 setlinecap
1 LJ
0.667 LW
N
73 31 M
77.34 31 L
S
GR
GS
[0.75 0 0 0.75 50.75 280.5] CT
0.149 GC
/Helvetica 13.333 F
GS
[1 0 0 1 0 0] CT
-8 5.5 moveto 
1 -1 scale
(0) t 
GR
GR
GS
[0.75 0 0 0.75 50.75 254.77501] CT
0.149 GC
/Helvetica 13.333 F
GS
[1 0 0 1 0 0] CT
-19 5.5 moveto 
1 -1 scale
(0.1) t 
GR
GR
GS
[0.75 0 0 0.75 50.75 229.05] CT
0.149 GC
/Helvetica 13.333 F
GS
[1 0 0 1 0 0] CT
-19 5.5 moveto 
1 -1 scale
(0.2) t 
GR
GR
GS
[0.75 0 0 0.75 50.75 203.325] CT
0.149 GC
/Helvetica 13.333 F
GS
[1 0 0 1 0 0] CT
-19 5.5 moveto 
1 -1 scale
(0.3) t 
GR
GR
GS
[0.75 0 0 0.75 50.75 177.6] CT
0.149 GC
/Helvetica 13.333 F
GS
[1 0 0 1 0 0] CT
-19 5.5 moveto 
1 -1 scale
(0.4) t 
GR
GR
GS
[0.75 0 0 0.75 50.75 151.875] CT
0.149 GC
/Helvetica 13.333 F
GS
[1 0 0 1 0 0] CT
-19 5.5 moveto 
1 -1 scale
(0.5) t 
GR
GR
GS
[0.75 0 0 0.75 50.75 126.15] CT
0.149 GC
/Helvetica 13.333 F
GS
[1 0 0 1 0 0] CT
-19 5.5 moveto 
1 -1 scale
(0.6) t 
GR
GR
GS
[0.75 0 0 0.75 50.75 100.42501] CT
0.149 GC
/Helvetica 13.333 F
GS
[1 0 0 1 0 0] CT
-19 5.5 moveto 
1 -1 scale
(0.7) t 
GR
GR
GS
[0.75 0 0 0.75 50.75 74.7] CT
0.149 GC
/Helvetica 13.333 F
GS
[1 0 0 1 0 0] CT
-19 5.5 moveto 
1 -1 scale
(0.8) t 
GR
GR
GS
[0.75 0 0 0.75 50.75 48.97501] CT
0.149 GC
/Helvetica 13.333 F
GS
[1 0 0 1 0 0] CT
-19 5.5 moveto 
1 -1 scale
(0.9) t 
GR
GR
GS
[0.75 0 0 0.75 50.75 23.25] CT
0.149 GC
/Helvetica 13.333 F
GS
[1 0 0 1 0 0] CT
-8 5.5 moveto 
1 -1 scale
(1) t 
GR
GR
GS
[0 -0.75 0.75 0 33.5 151.87487] CT
0.149 GC
/Helvetica 14.667 F
GS
[1 0 0 1 0 0] CT
-130 -4 moveto 
1 -1 scale
(Fraction of successfully tracked frames) t 
GR
GR
GS
[0.75 0 0 0.75 0 0] CT
1 0 0 RC
1 LJ
2.667 LW
N
507 374 M
477.458 372.964 L
474.527 371.928 L
466.789 370.891 L
454.366 369.855 L
449.811 368.819 L
449.627 367.783 L
445.009 366.746 L
444.052 365.71 L
443.256 364.674 L
442.617 363.638 L
442.417 362.601 L
440.327 361.565 L
435.682 360.529 L
434.558 359.493 L
432.908 358.456 L
427.217 357.42 L
423.589 356.384 L
422.572 355.348 L
421.933 354.311 L
421.332 353.275 L
418.364 352.239 L
417.207 351.203 L
416.095 350.166 L
415.155 349.13 L
412.416 348.094 L
411.977 347.058 L
410.924 346.021 L
407.865 344.985 L
403.067 343.949 L
401.936 342.913 L
400.488 341.876 L
400.107 340.84 L
396.83 339.804 L
396.114 338.768 L
394.23 337.731 L
393.122 336.695 L
391.872 335.659 L
390.049 334.623 L
387.549 333.586 L
387.51 332.55 L
384.394 331.514 L
384.347 330.478 L
384.163 329.441 L
383.109 328.405 L
380.037 327.369 L
377.952 326.333 L
374.413 325.297 L
374.344 324.26 L
373.81 323.224 L
372.328 322.188 L
369.495 321.152 L
365.675 320.115 L
358.803 319.079 L
356.818 318.043 L
356.609 317.007 L
355.104 315.97 L
354.954 314.934 L
352.32 313.898 L
350.094 312.862 L
349.347 311.825 L
347.958 310.789 L
342.24 309.753 L
338.466 308.717 L
337.88 307.68 L
336.882 306.644 L
335.2 305.608 L
335.089 304.572 L
333.991 303.535 L
329.466 302.499 L
327.948 301.463 L
327.36 300.427 L
327.093 299.39 L
321.297 298.354 L
319.124 297.318 L
318.857 296.282 L
317.104 295.245 L
315.239 294.209 L
314.564 293.173 L
314.069 292.137 L
311.857 291.1 L
311.766 290.064 L
310.959 289.028 L
310.304 287.992 L
309.442 286.955 L
308.41 285.919 L
305.304 284.883 L
304.789 283.847 L
304.413 282.81 L
303.596 281.774 L
303.529 280.738 L
300.843 279.702 L
300.184 278.666 L
299.199 277.629 L
298.385 276.593 L
297.814 275.557 L
297.329 274.521 L
295.964 273.484 L
295.948 272.448 L
295.387 271.412 L
294.904 270.376 L
294.4 269.339 L
293.35 268.303 L
292.42 267.267 L
291.662 266.231 L
291.424 265.194 L
290.236 264.158 L
289.89 263.122 L
289.517 262.086 L
288.228 261.049 L
286.833 260.013 L
286.83 258.977 L
285.79 257.941 L
282.772 256.904 L
280.907 255.868 L
280.49 254.832 L
279.746 253.796 L
279.658 252.759 L
278.529 251.723 L
278.136 250.687 L
278.129 249.651 L
277.18 248.614 L
276.413 247.578 L
276.389 246.542 L
276.212 245.506 L
276.068 244.469 L
275.661 243.433 L
274.999 242.397 L
272.603 241.361 L
270.902 240.324 L
270.819 239.288 L
268.77 238.252 L
267.906 237.216 L
266.876 236.18 L
264.01 235.143 L
263.512 234.107 L
261.449 233.071 L
258.628 232.035 L
253.689 230.998 L
252.22 229.962 L
251.067 228.926 L
249.654 227.89 L
248.483 226.853 L
247.531 225.817 L
247.288 224.781 L
246.113 223.745 L
245.952 222.708 L
245.727 221.672 L
245.228 220.636 L
244.782 219.6 L
244.584 218.563 L
244.36 217.527 L
243.925 216.491 L
243.151 215.455 L
242.968 214.418 L
242.363 213.382 L
239.311 212.346 L
238.869 211.31 L
236.65 210.273 L
235.36 209.237 L
235.247 208.201 L
234.668 207.165 L
233.72 206.128 L
233.271 205.092 L
232.802 204.056 L
232.007 203.02 L
231.604 201.983 L
231.521 200.947 L
231.09 199.911 L
230.952 198.875 L
230.916 197.838 L
229.741 196.802 L
228.403 195.766 L
227.973 194.73 L
226.256 193.693 L
224.443 192.657 L
224.394 191.621 L
224.243 190.585 L
223.766 189.548 L
223.354 188.512 L
222.742 187.476 L
221.762 186.44 L
221.498 185.404 L
219.828 184.367 L
219.288 183.331 L
219.16 182.295 L
218.246 181.259 L
217.053 180.222 L
216.091 179.186 L
215.477 178.15 L
215.47 177.114 L
214.496 176.077 L
214.21 175.041 L
213.151 174.005 L
211.383 172.969 L
211.093 171.932 L
211.011 170.896 L
210.097 169.86 L
209.257 168.824 L
207.369 167.787 L
206.823 166.751 L
206.625 165.715 L
205.88 164.679 L
202.608 163.642 L
202.295 162.606 L
200.355 161.57 L
200.353 160.534 L
200.282 159.497 L
199.965 158.461 L
198.72 157.425 L
198.667 156.389 L
198.282 155.352 L
197.413 154.316 L
197.086 153.28 L
196.681 152.244 L
196.522 151.207 L
195.639 150.171 L
195.171 149.135 L
195.14 148.099 L
193.311 147.062 L
193.301 146.026 L
191.98 144.99 L
191.969 143.954 L
191.856 142.917 L
191.711 141.881 L
191.247 140.845 L
190.984 139.809 L
190.877 138.773 L
190.848 137.736 L
190.321 136.7 L
188.547 135.664 L
188.328 134.628 L
188.094 133.591 L
185.593 132.555 L
185.198 131.519 L
184.438 130.483 L
184.402 129.446 L
182.83 128.41 L
182.758 127.374 L
182.738 126.338 L
182.53 125.301 L
177.427 124.265 L
177.23 123.229 L
176.838 122.193 L
174.196 121.156 L
174.113 120.12 L
173.975 119.084 L
171.225 118.048 L
170.19 117.011 L
169.784 115.975 L
169.462 114.939 L
169.274 113.903 L
167.904 112.866 L
166.735 111.83 L
165.584 110.794 L
165.57 109.758 L
165.481 108.721 L
165.257 107.685 L
165.185 106.649 L
163.831 105.613 L
163.321 104.576 L
162.096 103.54 L
161.951 102.504 L
161.439 101.468 L
161.009 100.431 L
160.977 99.395 L
160.207 98.359 L
158.131 97.323 L
157.881 96.287 L
157.799 95.25 L
157.554 94.214 L
156.672 93.178 L
156.397 92.142 L
156.119 91.105 L
153.949 90.069 L
152.742 89.033 L
152.495 87.997 L
152.369 86.96 L
151.399 85.924 L
149.885 84.888 L
149.651 83.852 L
149.432 82.815 L
148.822 81.779 L
146.674 80.743 L
146.653 79.707 L
146.434 78.67 L
146.308 77.634 L
145.058 76.598 L
144.561 75.562 L
143.758 74.525 L
142.93 73.489 L
142.179 72.453 L
141.487 71.417 L
140.369 70.38 L
140.259 69.344 L
140.173 68.308 L
140.046 67.272 L
139.883 66.235 L
139.845 65.199 L
139.237 64.163 L
138.761 63.127 L
138.492 62.09 L
136.786 61.054 L
136.616 60.018 L
135.829 58.982 L
135.635 57.945 L
133.996 56.909 L
133.447 55.873 L
133.081 54.837 L
133.055 53.8 L
132.499 52.764 L
132.077 51.728 L
131.973 50.692 L
131.321 49.656 L
130.444 48.619 L
129.718 47.583 L
129.409 46.547 L
129.305 45.511 L
129.163 44.474 L
128.447 43.438 L
128.321 42.402 L
127.999 41.366 L
125.186 40.329 L
124.863 39.293 L
122.047 38.257 L
118.447 37.221 L
117.525 36.184 L
117.517 35.148 L
114.681 34.112 L
108.933 33.076 L
101.877 32.039 L
73 31.003 L
73 31.003 L
S
GR
GS
[0.75 0 0 0.75 0 0] CT
0 1 0 RC
[8 2 4 2] 0 setdash
2 LJ
2.667 LW
N
507 374 M
457.729 373.058 L
451.555 372.115 L
449.373 371.173 L
443.256 370.231 L
440.828 369.288 L
440.828 368.346 L
439.817 367.404 L
438.851 366.462 L
438.382 365.519 L
437.948 364.577 L
437.411 363.635 L
436.321 362.692 L
434.245 361.75 L
429.682 360.808 L
428.229 359.865 L
427.865 358.923 L
427.784 357.981 L
426.927 357.039 L
426.436 356.096 L
425.132 355.154 L
423.936 354.212 L
423.401 353.269 L
423.332 352.327 L
423.332 351.385 L
420.959 350.442 L
420.926 349.5 L
420.512 348.558 L
419.073 347.616 L
418.8 346.673 L
418.52 345.731 L
418.52 344.789 L
417.705 343.846 L
416.495 342.904 L
416.042 341.962 L
415.176 341.019 L
414.249 340.077 L
411.646 339.135 L
411.055 338.193 L
410.924 337.25 L
410.82 336.308 L
410.658 335.366 L
410.624 334.423 L
410.463 333.481 L
410.101 332.539 L
409.957 331.596 L
408.807 330.654 L
408.435 329.712 L
407.968 328.77 L
407.596 327.827 L
407.083 326.885 L
406.976 325.943 L
406.669 325 L
406.243 324.058 L
405.832 323.116 L
403.455 322.173 L
403.302 321.231 L
403.177 320.289 L
403.098 319.347 L
402.787 318.404 L
402.761 317.462 L
402.503 316.52 L
401.843 315.577 L
401.826 314.635 L
401.615 313.693 L
399.959 312.75 L
399.805 311.808 L
399.701 310.866 L
399.327 309.924 L
399.172 308.981 L
399.172 308.039 L
398.59 307.097 L
398.51 306.154 L
397.958 305.212 L
396.767 304.27 L
396.758 303.327 L
394.949 302.385 L
394.731 301.443 L
394.598 300.501 L
394.3 299.558 L
394.115 298.616 L
390.903 297.674 L
390.473 296.731 L
390.413 295.789 L
390.154 294.847 L
386.69 293.904 L
386.667 292.962 L
386.534 292.02 L
386.098 291.078 L
386.035 290.135 L
384.884 289.193 L
384.571 288.251 L
384.395 287.308 L
384.188 286.366 L
383.542 285.424 L
383.369 284.481 L
383.003 283.539 L
382.93 282.597 L
382.619 281.655 L
382.46 280.712 L
382.153 279.77 L
381.783 278.828 L
381.682 277.885 L
380.493 276.943 L
380.417 276.001 L
380.417 275.058 L
380.417 274.116 L
379.491 273.174 L
379.307 272.232 L
378.894 271.289 L
378.294 270.347 L
377.727 269.405 L
377.588 268.462 L
377.512 267.52 L
376.944 266.578 L
376.932 265.635 L
376.662 264.693 L
376.596 263.751 L
376.554 262.809 L
376.395 261.866 L
375.444 260.924 L
375.367 259.982 L
375.206 259.039 L
375.065 258.097 L
374.83 257.155 L
374.688 256.212 L
373.467 255.27 L
372.864 254.328 L
372.46 253.386 L
371.159 252.443 L
370.699 251.501 L
370.5 250.559 L
370.5 249.616 L
370.346 248.674 L
370.054 247.732 L
369.83 246.789 L
369.006 245.847 L
366.009 244.905 L
365.816 243.963 L
365.174 243.02 L
364.527 242.078 L
364.472 241.136 L
362.945 240.193 L
362.672 239.251 L
362.509 238.309 L
362.105 237.366 L
361.858 236.424 L
361.203 235.482 L
360.734 234.54 L
360.398 233.597 L
360.113 232.655 L
358.969 231.713 L
358.443 230.77 L
357.813 229.828 L
357.671 228.886 L
357.598 227.943 L
357.52 227.001 L
357.134 226.059 L
356.612 225.117 L
355.898 224.174 L
355.358 223.232 L
355.066 222.29 L
354.615 221.347 L
354.067 220.405 L
353.636 219.463 L
353.494 218.52 L
353.394 217.578 L
353.269 216.636 L
353.25 215.693 L
353.051 214.751 L
352.699 213.809 L
352.47 212.867 L
351.283 211.924 L
351.121 210.982 L
350.616 210.04 L
350.493 209.097 L
348.153 208.155 L
347.213 207.213 L
346.625 206.27 L
346.433 205.328 L
345.827 204.386 L
345.745 203.444 L
345.133 202.501 L
343.659 201.559 L
343.29 200.617 L
342.397 199.674 L
342.297 198.732 L
342.238 197.79 L
341.652 196.847 L
340.832 195.905 L
340.555 194.963 L
340.555 194.021 L
338.693 193.078 L
337.208 192.136 L
337.16 191.194 L
337.099 190.251 L
336.712 189.309 L
336.458 188.367 L
336.223 187.424 L
336.03 186.482 L
335.633 185.54 L
335.582 184.598 L
333.713 183.655 L
332.972 182.713 L
331.545 181.771 L
331.007 180.828 L
330.871 179.886 L
330.094 178.944 L
328.433 178.001 L
327.195 177.059 L
327.19 176.117 L
326.098 175.175 L
325.816 174.232 L
325.616 173.29 L
325.616 172.348 L
325.321 171.405 L
325.002 170.463 L
324.379 169.521 L
323.014 168.578 L
321.591 167.636 L
320.772 166.694 L
319.095 165.752 L
318.335 164.809 L
317.946 163.867 L
317.574 162.925 L
315.654 161.982 L
314.836 161.04 L
314.75 160.098 L
312.706 159.155 L
311.773 158.213 L
310.81 157.271 L
307.904 156.329 L
307.738 155.386 L
307.42 154.444 L
306.042 153.502 L
305.891 152.559 L
305.891 151.617 L
305.048 150.675 L
305.028 149.732 L
304.867 148.79 L
304.55 147.848 L
304.203 146.906 L
304.087 145.963 L
303.959 145.021 L
303.693 144.079 L
303.227 143.136 L
299.84 142.194 L
299.031 141.252 L
297.22 140.309 L
296.308 139.367 L
295.766 138.425 L
294.118 137.483 L
294.101 136.54 L
292.976 135.598 L
292.663 134.656 L
292.011 133.713 L
291.456 132.771 L
291.428 131.829 L
291.302 130.886 L
290.92 129.944 L
290.92 129.002 L
290.174 128.06 L
289.747 127.117 L
289.006 126.175 L
288.571 125.233 L
286.707 124.29 L
285.722 123.348 L
283.788 122.406 L
282.029 121.463 L
281.648 120.521 L
278.63 119.579 L
278.63 118.637 L
278.003 117.694 L
277.936 116.752 L
276.336 115.81 L
274.255 114.867 L
272.934 113.925 L
269.797 112.983 L
269.669 112.04 L
269.164 111.098 L
268.244 110.156 L
266.44 109.214 L
265.81 108.271 L
264.912 107.329 L
264.863 106.387 L
263.638 105.444 L
262.605 104.502 L
262.476 103.56 L
262.386 102.617 L
258.219 101.675 L
254.791 100.733 L
251.767 99.791 L
248.764 98.848 L
248.114 97.906 L
248.068 96.964 L
243.405 96.021 L
240.719 95.079 L
236.831 94.137 L
233.018 93.194 L
225.343 92.252 L
224.62 91.31 L
214.797 90.368 L
208.288 89.425 L
207.389 88.483 L
204.244 87.541 L
202.36 86.598 L
198.395 85.656 L
197.778 84.714 L
194.816 83.771 L
178.962 82.829 L
177.614 81.887 L
177.346 80.945 L
174.857 80.002 L
174.067 79.06 L
173.477 78.118 L
172.596 77.175 L
171.003 76.233 L
169.346 75.291 L
166.945 74.348 L
163.361 73.406 L
162.903 72.464 L
161.917 71.521 L
160.636 70.579 L
160.127 69.637 L
158.863 68.695 L
157.832 67.752 L
157.683 66.81 L
156.218 65.868 L
156.125 64.925 L
155.235 63.983 L
154.837 63.041 L
154.717 62.098 L
153.531 61.156 L
153.488 60.214 L
151.379 59.272 L
148.994 58.329 L
148.871 57.387 L
148.837 56.445 L
146.011 55.502 L
145.357 54.56 L
145.102 53.618 L
144.221 52.675 L
144.067 51.733 L
143.104 50.791 L
142.332 49.849 L
140.121 48.906 L
139.935 47.964 L
138.971 47.022 L
138.566 46.079 L
138.172 45.137 L
137.426 44.195 L
136.362 43.252 L
136.284 42.31 L
135.978 41.368 L
134.315 40.426 L
134.206 39.483 L
131.973 38.541 L
129.189 37.599 L
127.752 36.656 L
127.54 35.714 L
127.391 34.772 L
123.792 33.829 L
120.209 32.887 L
117.725 31.945 L
116.977 31.003 L
73 31.003 L
S
GR
GS
[0.75 0 0 0.75 0 0] CT
0 0 1 RC
[8 8] 0 setdash
2 LJ
2.667 LW
N
507 374 M
439.817 373.085 L
429.801 372.171 L
423 371.256 L
420.959 370.341 L
418.199 369.427 L
417.942 368.512 L
417.705 367.597 L
416.426 366.683 L
416.042 365.768 L
411.646 364.853 L
410.101 363.939 L
409.957 363.024 L
405.861 362.109 L
404.528 361.195 L
402.787 360.28 L
399.52 359.365 L
396.661 358.451 L
393.752 357.536 L
393.727 356.621 L
393.464 355.707 L
390.154 354.792 L
390.045 353.877 L
387.733 352.963 L
387.318 352.048 L
386.584 351.133 L
381.079 350.219 L
380.257 349.304 L
379.948 348.39 L
376.404 347.475 L
373.716 346.56 L
373.716 345.646 L
373.542 344.731 L
372.46 343.816 L
371.077 342.902 L
368.071 341.987 L
363.066 341.072 L
362.536 340.158 L
360.398 339.243 L
359.28 338.328 L
356.968 337.414 L
356.66 336.499 L
353.636 335.584 L
351.499 334.67 L
350.278 333.755 L
348.786 332.84 L
347.637 331.926 L
346.858 331.011 L
346.386 330.096 L
346.3 329.182 L
336.696 328.267 L
334.096 327.352 L
332.402 326.438 L
332.054 325.523 L
331.694 324.608 L
330.72 323.694 L
326.754 322.779 L
324.746 321.864 L
324.263 320.95 L
321.912 320.035 L
321.745 319.12 L
319.469 318.206 L
318.022 317.291 L
316.463 316.376 L
315.193 315.462 L
314.875 314.547 L
313.307 313.632 L
313.307 312.718 L
311.7 311.803 L
311.452 310.888 L
310.865 309.974 L
310.397 309.059 L
309.337 308.144 L
309.216 307.23 L
308.51 306.315 L
307.173 305.4 L
306.813 304.486 L
306.692 303.571 L
305.878 302.656 L
305.681 301.742 L
303.757 300.827 L
303.072 299.913 L
302.471 298.998 L
299.042 298.083 L
298.885 297.169 L
298.795 296.254 L
297.735 295.339 L
297.734 294.425 L
297.553 293.51 L
296.502 292.595 L
295.084 291.681 L
294.822 290.766 L
293.316 289.851 L
292.199 288.937 L
291.461 288.022 L
291.038 287.107 L
290 286.193 L
290 285.278 L
289.621 284.363 L
289.277 283.449 L
287.667 282.534 L
287.667 281.619 L
287.667 280.705 L
287.658 279.79 L
287.562 278.875 L
287.562 277.961 L
287.447 277.046 L
287.447 276.131 L
285.557 275.217 L
285.547 274.302 L
284.871 273.387 L
284.395 272.473 L
282.332 271.558 L
282.315 270.643 L
282.315 269.729 L
282.3 268.814 L
282.3 267.899 L
281.125 266.985 L
280.958 266.07 L
280.565 265.155 L
280.31 264.241 L
280.136 263.326 L
279.667 262.411 L
279.186 261.497 L
278.978 260.582 L
278.702 259.667 L
278.341 258.753 L
278.341 257.838 L
278.164 256.923 L
277.195 256.009 L
276.665 255.094 L
275.759 254.18 L
275.585 253.265 L
275.533 252.35 L
275.486 251.436 L
275.486 250.521 L
275.252 249.606 L
275.252 248.692 L
274.86 247.777 L
274.657 246.862 L
274.188 245.948 L
274.122 245.033 L
273.411 244.118 L
273.308 243.204 L
272.941 242.289 L
272.878 241.374 L
272.54 240.46 L
272.54 239.545 L
271.934 238.63 L
271.795 237.716 L
270.814 236.801 L
270.782 235.886 L
270.415 234.972 L
270.355 234.057 L
270.273 233.142 L
270.013 232.228 L
269.708 231.313 L
269.615 230.398 L
269.615 229.484 L
269.131 228.569 L
269.073 227.654 L
268.725 226.74 L
268.515 225.825 L
267.857 224.91 L
267.771 223.996 L
267.05 223.081 L
266.104 222.166 L
266.039 221.252 L
265.967 220.337 L
265.889 219.422 L
265.654 218.508 L
264.82 217.593 L
263.832 216.678 L
263.832 215.764 L
263.475 214.849 L
262.716 213.934 L
262.716 213.02 L
262.716 212.105 L
262.268 211.19 L
262.069 210.276 L
261.532 209.361 L
261.067 208.447 L
260.782 207.532 L
260.434 206.617 L
260.253 205.703 L
259.667 204.788 L
259.317 203.873 L
258.785 202.959 L
257.852 202.044 L
257.839 201.129 L
257.589 200.215 L
257.434 199.3 L
257.283 198.385 L
257.229 197.471 L
257.078 196.556 L
256.718 195.641 L
256.074 194.727 L
256.033 193.812 L
255.898 192.897 L
255.646 191.983 L
254.203 191.068 L
253.889 190.153 L
253.859 189.239 L
253.859 188.324 L
253.859 187.409 L
253.859 186.495 L
253.02 185.58 L
252.856 184.665 L
252.856 183.751 L
251.827 182.836 L
251.666 181.921 L
251.262 181.007 L
251.122 180.092 L
251.083 179.177 L
250.561 178.263 L
250.3 177.348 L
250.243 176.433 L
250.067 175.519 L
249.552 174.604 L
249.037 173.689 L
248.813 172.775 L
248.789 171.86 L
248.359 170.945 L
248.16 170.031 L
247.877 169.116 L
247.7 168.201 L
247.488 167.287 L
247.245 166.372 L
247.203 165.457 L
247.136 164.543 L
247.087 163.628 L
246.6 162.714 L
246.484 161.799 L
246.358 160.884 L
246.128 159.97 L
245.714 159.055 L
245.583 158.14 L
245.447 157.226 L
245.447 156.311 L
244.703 155.396 L
244.648 154.482 L
244.648 153.567 L
244.093 152.652 L
243.97 151.738 L
243.735 150.823 L
243.735 149.908 L
243.735 148.994 L
242.916 148.079 L
242.745 147.164 L
242.642 146.25 L
242.337 145.335 L
242.337 144.42 L
241.658 143.506 L
241.527 142.591 L
241.286 141.676 L
241.247 140.762 L
241 139.847 L
240.962 138.932 L
240.822 138.018 L
240.656 137.103 L
240.294 136.188 L
239.58 135.274 L
239.367 134.359 L
239.186 133.444 L
238.941 132.53 L
238.813 131.615 L
238.685 130.7 L
238.351 129.786 L
238.333 128.871 L
237.782 127.956 L
237.73 127.042 L
237.25 126.127 L
237.197 125.212 L
236.911 124.298 L
236.846 123.383 L
236.846 122.468 L
236.846 121.554 L
236.536 120.639 L
236.125 119.724 L
236.125 118.81 L
236.125 117.895 L
235.304 116.98 L
235.208 116.066 L
235.208 115.151 L
235.208 114.237 L
234.443 113.322 L
234.431 112.407 L
234.217 111.493 L
234.2 110.578 L
233.599 109.663 L
233.327 108.749 L
233.205 107.834 L
233.205 106.919 L
233.057 106.005 L
232.783 105.09 L
232.418 104.175 L
232.357 103.261 L
232.203 102.346 L
232.087 101.431 L
231.832 100.517 L
231.694 99.602 L
231.524 98.687 L
231.251 97.773 L
231.026 96.858 L
229.722 95.943 L
229.24 95.029 L
229.162 94.114 L
229.131 93.199 L
229.115 92.285 L
228.222 91.37 L
228.213 90.455 L
227.475 89.541 L
227.391 88.626 L
227.153 87.711 L
227.153 86.797 L
226.958 85.882 L
226.795 84.967 L
226.249 84.053 L
225.714 83.138 L
223.819 82.223 L
223.755 81.309 L
223.192 80.394 L
222.547 79.479 L
222.197 78.565 L
221.669 77.65 L
221.669 76.735 L
221.376 75.821 L
221.257 74.906 L
221.064 73.991 L
220.503 73.077 L
220.469 72.162 L
220.461 71.247 L
220.127 70.333 L
220.127 69.418 L
219.636 68.504 L
219.545 67.589 L
219.545 66.674 L
219.495 65.76 L
219.226 64.845 L
219.046 63.93 L
218.788 63.016 L
218.315 62.101 L
217.667 61.186 L
216.38 60.272 L
216.302 59.357 L
216.122 58.442 L
215.6 57.528 L
214.725 56.613 L
214.589 55.698 L
214.589 54.784 L
214.458 53.869 L
213.348 52.954 L
213.335 52.04 L
212.945 51.125 L
210.053 50.21 L
209.4 49.296 L
208.81 48.381 L
208.358 47.466 L
207.815 46.552 L
206.697 45.637 L
205.828 44.722 L
204.515 43.808 L
203.69 42.893 L
200.583 41.978 L
200.012 41.064 L
198.517 40.149 L
198.499 39.234 L
196.806 38.32 L
196.235 37.405 L
195.586 36.49 L
194.589 35.576 L
192.482 34.661 L
188.703 33.746 L
188.165 32.832 L
183.68 31.917 L
132.074 31.002 L
73 31.002 L
S
GR
GS
[0.75 0 0 0.75 0 0] CT
1 GC
N
390 97 M
390 44 L
494 44 L
494 97 L
cp
f
GR
GS
[0.75 0 0 0.75 327.75 40.5] CT
/Helvetica 12 F
GS
[1 0 0 1 0 0] CT
0 5 moveto 
1 -1 scale
(Meanshift) t 
GR
GR
GS
[0.75 0 0 0.75 0 0] CT
1 0 0 RC
1 LJ
2.667 LW
N
394 54 M
434 54 L
S
GR
GS
[0.75 0 0 0.75 327.75 52.875] CT
/Helvetica 12 F
GS
[1 0 0 1 0 0] CT
0 5 moveto 
1 -1 scale
(KCF) t 
GR
GR
GS
[0.75 0 0 0.75 0 0] CT
0 1 0 RC
[8 2 4 2] 0 setdash
2 LJ
2.667 LW
N
394 70.5 M
434 70.5 L
S
GR
GS
[0.75 0 0 0.75 327.75 65.25] CT
/Helvetica 12 F
GS
[1 0 0 1 0 0] CT
0 5 moveto 
1 -1 scale
(STRUCK) t 
GR
GR
GS
[0.75 0 0 0.75 0 0] CT
0 0 1 RC
[8 8] 0 setdash
2 LJ
2.667 LW
N
394 87 M
434 87 L
S
GR
GS
[0.75 0 0 0.75 0 0] CT
0.149 GC
10.0 ML
0.667 LW
N
390 97 M
390 44 L
494 44 L
494 97 L
cp
S
GR
%%Trailer
%%Pages: 1
%%EOF
