%!PS-Adobe-3.0 EPSF-3.0
%%Creator: (MATLAB, The Mathworks, Inc. Version 9.2.0.538062 \(R2017a\). Operating System: Windows 8)
%%Title: C:/Users/jack/ANU/engn3712-report/images/surfer-precision.eps
%%CreationDate: 2017-10-15T15:02:49
%%Pages: (atend)
%%BoundingBox: 0 0 420 315
%%LanguageLevel: 3
%%EndComments
%%BeginProlog
%%BeginResource: procset (Apache XML Graphics Std ProcSet) 1.2 0
%%Version: 1.2 0
%%Copyright: (Copyright 2001-2003,2010 The Apache Software Foundation. License terms: http://www.apache.org/licenses/LICENSE-2.0)
/bd{bind def}bind def
/ld{load def}bd
/GR/grestore ld
/M/moveto ld
/LJ/setlinejoin ld
/C/curveto ld
/f/fill ld
/LW/setlinewidth ld
/GC/setgray ld
/t/show ld
/N/newpath ld
/CT/concat ld
/cp/closepath ld
/S/stroke ld
/L/lineto ld
/CC/setcmykcolor ld
/A/ashow ld
/GS/gsave ld
/RC/setrgbcolor ld
/RM/rmoveto ld
/ML/setmiterlimit ld
/re {4 2 roll M
1 index 0 rlineto
0 exch rlineto
neg 0 rlineto
cp } bd
/_ctm matrix def
/_tm matrix def
/BT { _ctm currentmatrix pop matrix _tm copy pop 0 0 moveto } bd
/ET { _ctm setmatrix } bd
/iTm { _ctm setmatrix _tm concat } bd
/Tm { _tm astore pop iTm 0 0 moveto } bd
/ux 0.0 def
/uy 0.0 def
/F {
  /Tp exch def
  /Tf exch def
  Tf findfont Tp scalefont setfont
  /cf Tf def  /cs Tp def
} bd
/ULS {currentpoint /uy exch def /ux exch def} bd
/ULE {
  /Tcx currentpoint pop def
  gsave
  newpath
  cf findfont cs scalefont dup
  /FontMatrix get 0 get /Ts exch def /FontInfo get dup
  /UnderlinePosition get Ts mul /To exch def
  /UnderlineThickness get Ts mul /Tt exch def
  ux uy To add moveto  Tcx uy To add lineto
  Tt setlinewidth stroke
  grestore
} bd
/OLE {
  /Tcx currentpoint pop def
  gsave
  newpath
  cf findfont cs scalefont dup
  /FontMatrix get 0 get /Ts exch def /FontInfo get dup
  /UnderlinePosition get Ts mul /To exch def
  /UnderlineThickness get Ts mul /Tt exch def
  ux uy To add cs add moveto Tcx uy To add cs add lineto
  Tt setlinewidth stroke
  grestore
} bd
/SOE {
  /Tcx currentpoint pop def
  gsave
  newpath
  cf findfont cs scalefont dup
  /FontMatrix get 0 get /Ts exch def /FontInfo get dup
  /UnderlinePosition get Ts mul /To exch def
  /UnderlineThickness get Ts mul /Tt exch def
  ux uy To add cs 10 mul 26 idiv add moveto Tcx uy To add cs 10 mul 26 idiv add lineto
  Tt setlinewidth stroke
  grestore
} bd
/QT {
/Y22 exch store
/X22 exch store
/Y21 exch store
/X21 exch store
currentpoint
/Y21 load 2 mul add 3 div exch
/X21 load 2 mul add 3 div exch
/X21 load 2 mul /X22 load add 3 div
/Y21 load 2 mul /Y22 load add 3 div
/X22 load /Y22 load curveto
} bd
/SSPD {
dup length /d exch dict def
{
/v exch def
/k exch def
currentpagedevice k known {
/cpdv currentpagedevice k get def
v cpdv ne {
/upd false def
/nullv v type /nulltype eq def
/nullcpdv cpdv type /nulltype eq def
nullv nullcpdv or
{
/upd true def
} {
/sametype v type cpdv type eq def
sametype {
v type /arraytype eq {
/vlen v length def
/cpdvlen cpdv length def
vlen cpdvlen eq {
0 1 vlen 1 sub {
/i exch def
/obj v i get def
/cpdobj cpdv i get def
obj cpdobj ne {
/upd true def
exit
} if
} for
} {
/upd true def
} ifelse
} {
v type /dicttype eq {
v {
/dv exch def
/dk exch def
/cpddv cpdv dk get def
dv cpddv ne {
/upd true def
exit
} if
} forall
} {
/upd true def
} ifelse
} ifelse
} if
} ifelse
upd true eq {
d k v put
} if
} if
} if
} forall
d length 0 gt {
d setpagedevice
} if
} bd
/RE { % /NewFontName [NewEncodingArray] /FontName RE -
  findfont dup length dict begin
  {
    1 index /FID ne
    {def} {pop pop} ifelse
  } forall
  /Encoding exch def
  /FontName 1 index def
  currentdict definefont pop
  end
} bind def
%%EndResource
%%BeginResource: procset (Apache XML Graphics EPS ProcSet) 1.0 0
%%Version: 1.0 0
%%Copyright: (Copyright 2002-2003 The Apache Software Foundation. License terms: http://www.apache.org/licenses/LICENSE-2.0)
/BeginEPSF { %def
/b4_Inc_state save def         % Save state for cleanup
/dict_count countdictstack def % Count objects on dict stack
/op_count count 1 sub def      % Count objects on operand stack
userdict begin                 % Push userdict on dict stack
/showpage { } def              % Redefine showpage, { } = null proc
0 setgray 0 setlinecap         % Prepare graphics state
1 setlinewidth 0 setlinejoin
10 setmiterlimit [ ] 0 setdash newpath
/languagelevel where           % If level not equal to 1 then
{pop languagelevel             % set strokeadjust and
1 ne                           % overprint to their defaults.
{false setstrokeadjust false setoverprint
} if
} if
} bd
/EndEPSF { %def
count op_count sub {pop} repeat            % Clean up stacks
countdictstack dict_count sub {end} repeat
b4_Inc_state restore
} bd
%%EndResource
%FOPBeginFontDict
%%IncludeResource: font Courier-Bold
%%IncludeResource: font Helvetica
%%IncludeResource: font Courier-BoldOblique
%%IncludeResource: font Courier-Oblique
%%IncludeResource: font Times-Roman
%%IncludeResource: font Helvetica-BoldOblique
%%IncludeResource: font Helvetica-Bold
%%IncludeResource: font Helvetica-Oblique
%%IncludeResource: font Times-BoldItalic
%%IncludeResource: font Courier
%%IncludeResource: font Times-Italic
%%IncludeResource: font Times-Bold
%%IncludeResource: font Symbol
%%IncludeResource: font ZapfDingbats
%FOPEndFontDict
%%BeginResource: encoding WinAnsiEncoding
/WinAnsiEncoding [
/.notdef /.notdef /.notdef /.notdef /.notdef
/.notdef /.notdef /.notdef /.notdef /.notdef
/.notdef /.notdef /.notdef /.notdef /.notdef
/.notdef /.notdef /.notdef /.notdef /.notdef
/.notdef /.notdef /.notdef /.notdef /.notdef
/.notdef /.notdef /.notdef /.notdef /.notdef
/.notdef /.notdef /space /exclam /quotedbl
/numbersign /dollar /percent /ampersand /quotesingle
/parenleft /parenright /asterisk /plus /comma
/hyphen /period /slash /zero /one
/two /three /four /five /six
/seven /eight /nine /colon /semicolon
/less /equal /greater /question /at
/A /B /C /D /E
/F /G /H /I /J
/K /L /M /N /O
/P /Q /R /S /T
/U /V /W /X /Y
/Z /bracketleft /backslash /bracketright /asciicircum
/underscore /quoteleft /a /b /c
/d /e /f /g /h
/i /j /k /l /m
/n /o /p /q /r
/s /t /u /v /w
/x /y /z /braceleft /bar
/braceright /asciitilde /bullet /Euro /bullet
/quotesinglbase /florin /quotedblbase /ellipsis /dagger
/daggerdbl /circumflex /perthousand /Scaron /guilsinglleft
/OE /bullet /Zcaron /bullet /bullet
/quoteleft /quoteright /quotedblleft /quotedblright /bullet
/endash /emdash /asciitilde /trademark /scaron
/guilsinglright /oe /bullet /zcaron /Ydieresis
/space /exclamdown /cent /sterling /currency
/yen /brokenbar /section /dieresis /copyright
/ordfeminine /guillemotleft /logicalnot /sfthyphen /registered
/macron /degree /plusminus /twosuperior /threesuperior
/acute /mu /paragraph /middot /cedilla
/onesuperior /ordmasculine /guillemotright /onequarter /onehalf
/threequarters /questiondown /Agrave /Aacute /Acircumflex
/Atilde /Adieresis /Aring /AE /Ccedilla
/Egrave /Eacute /Ecircumflex /Edieresis /Igrave
/Iacute /Icircumflex /Idieresis /Eth /Ntilde
/Ograve /Oacute /Ocircumflex /Otilde /Odieresis
/multiply /Oslash /Ugrave /Uacute /Ucircumflex
/Udieresis /Yacute /Thorn /germandbls /agrave
/aacute /acircumflex /atilde /adieresis /aring
/ae /ccedilla /egrave /eacute /ecircumflex
/edieresis /igrave /iacute /icircumflex /idieresis
/eth /ntilde /ograve /oacute /ocircumflex
/otilde /odieresis /divide /oslash /ugrave
/uacute /ucircumflex /udieresis /yacute /thorn
/ydieresis
] def
%%EndResource
%FOPBeginFontReencode
/Courier-Bold findfont
dup length dict begin
  {1 index /FID ne {def} {pop pop} ifelse} forall
  /Encoding WinAnsiEncoding def
  currentdict
end
/Courier-Bold exch definefont pop
/Helvetica findfont
dup length dict begin
  {1 index /FID ne {def} {pop pop} ifelse} forall
  /Encoding WinAnsiEncoding def
  currentdict
end
/Helvetica exch definefont pop
/Courier-BoldOblique findfont
dup length dict begin
  {1 index /FID ne {def} {pop pop} ifelse} forall
  /Encoding WinAnsiEncoding def
  currentdict
end
/Courier-BoldOblique exch definefont pop
/Courier-Oblique findfont
dup length dict begin
  {1 index /FID ne {def} {pop pop} ifelse} forall
  /Encoding WinAnsiEncoding def
  currentdict
end
/Courier-Oblique exch definefont pop
/Times-Roman findfont
dup length dict begin
  {1 index /FID ne {def} {pop pop} ifelse} forall
  /Encoding WinAnsiEncoding def
  currentdict
end
/Times-Roman exch definefont pop
/Helvetica-BoldOblique findfont
dup length dict begin
  {1 index /FID ne {def} {pop pop} ifelse} forall
  /Encoding WinAnsiEncoding def
  currentdict
end
/Helvetica-BoldOblique exch definefont pop
/Helvetica-Bold findfont
dup length dict begin
  {1 index /FID ne {def} {pop pop} ifelse} forall
  /Encoding WinAnsiEncoding def
  currentdict
end
/Helvetica-Bold exch definefont pop
/Helvetica-Oblique findfont
dup length dict begin
  {1 index /FID ne {def} {pop pop} ifelse} forall
  /Encoding WinAnsiEncoding def
  currentdict
end
/Helvetica-Oblique exch definefont pop
/Times-BoldItalic findfont
dup length dict begin
  {1 index /FID ne {def} {pop pop} ifelse} forall
  /Encoding WinAnsiEncoding def
  currentdict
end
/Times-BoldItalic exch definefont pop
/Courier findfont
dup length dict begin
  {1 index /FID ne {def} {pop pop} ifelse} forall
  /Encoding WinAnsiEncoding def
  currentdict
end
/Courier exch definefont pop
/Times-Italic findfont
dup length dict begin
  {1 index /FID ne {def} {pop pop} ifelse} forall
  /Encoding WinAnsiEncoding def
  currentdict
end
/Times-Italic exch definefont pop
/Times-Bold findfont
dup length dict begin
  {1 index /FID ne {def} {pop pop} ifelse} forall
  /Encoding WinAnsiEncoding def
  currentdict
end
/Times-Bold exch definefont pop
%FOPEndFontReencode
%%EndProlog
%%Page: 1 1
%%PageBoundingBox: 0 0 420 315
%%BeginPageSetup
[1 0 0 -1 0 315] CT
%%EndPageSetup
GS
[0.75 0 0 0.75 0 0] CT
1 GC
N
0 0 560 420 re
f
GR
GS
[0.75 0 0 0.75 0 0] CT
1 GC
N
0 0 560 420 re
f
GR
GS
[0.75 0 0 0.75 0 0] CT
1 GC
N
73 374 M
507 374 L
507 31 L
73 31 L
cp
f
GR
GS
[0.75 0 0 0.75 0 0] CT
0.149 GC
2 setlinecap
1 LJ
0.667 LW
N
73 374 M
507 374 L
S
GR
GS
[0.75 0 0 0.75 0 0] CT
0.149 GC
2 setlinecap
1 LJ
0.667 LW
N
73 374 M
73 369.66 L
S
GR
GS
[0.75 0 0 0.75 0 0] CT
0.149 GC
2 setlinecap
1 LJ
0.667 LW
N
145.333 374 M
145.333 369.66 L
S
GR
GS
[0.75 0 0 0.75 0 0] CT
0.149 GC
2 setlinecap
1 LJ
0.667 LW
N
217.667 374 M
217.667 369.66 L
S
GR
GS
[0.75 0 0 0.75 0 0] CT
0.149 GC
2 setlinecap
1 LJ
0.667 LW
N
290 374 M
290 369.66 L
S
GR
GS
[0.75 0 0 0.75 0 0] CT
0.149 GC
2 setlinecap
1 LJ
0.667 LW
N
362.333 374 M
362.333 369.66 L
S
GR
GS
[0.75 0 0 0.75 0 0] CT
0.149 GC
2 setlinecap
1 LJ
0.667 LW
N
434.667 374 M
434.667 369.66 L
S
GR
GS
[0.75 0 0 0.75 0 0] CT
0.149 GC
2 setlinecap
1 LJ
0.667 LW
N
507 374 M
507 369.66 L
S
GR
GS
[0.75 0 0 0.75 54.75 284.50001] CT
0.149 GC
/Helvetica 13.333 F
GS
[1 0 0 1 0 0] CT
-4 14 moveto 
1 -1 scale
(0) t 
GR
GR
GS
[0.75 0 0 0.75 109 284.50001] CT
0.149 GC
/Helvetica 13.333 F
GS
[1 0 0 1 0 0] CT
-9.5 14 moveto 
1 -1 scale
(0.2) t 
GR
GR
GS
[0.75 0 0 0.75 163.25 284.50001] CT
0.149 GC
/Helvetica 13.333 F
GS
[1 0 0 1 0 0] CT
-9.5 14 moveto 
1 -1 scale
(0.4) t 
GR
GR
GS
[0.75 0 0 0.75 217.5 284.50001] CT
0.149 GC
/Helvetica 13.333 F
GS
[1 0 0 1 0 0] CT
-9.5 14 moveto 
1 -1 scale
(0.6) t 
GR
GR
GS
[0.75 0 0 0.75 271.75001 284.50001] CT
0.149 GC
/Helvetica 13.333 F
GS
[1 0 0 1 0 0] CT
-9.5 14 moveto 
1 -1 scale
(0.8) t 
GR
GR
GS
[0.75 0 0 0.75 325.99999 284.50001] CT
0.149 GC
/Helvetica 13.333 F
GS
[1 0 0 1 0 0] CT
-4 14 moveto 
1 -1 scale
(1) t 
GR
GR
GS
[0.75 0 0 0.75 380.25002 284.50001] CT
0.149 GC
/Helvetica 13.333 F
GS
[1 0 0 1 0 0] CT
-9.5 14 moveto 
1 -1 scale
(1.2) t 
GR
GR
GS
[0.75 0 0 0.75 217.50016 298.24999] CT
0.149 GC
/Helvetica 14.667 F
GS
[1 0 0 1 0 0] CT
-33.5 16 moveto 
1 -1 scale
(Threshold) t 
GR
GR
GS
[0.75 0 0 0.75 0 0] CT
0.149 GC
2 setlinecap
1 LJ
0.667 LW
N
73 374 M
73 31 L
S
GR
GS
[0.75 0 0 0.75 0 0] CT
0.149 GC
2 setlinecap
1 LJ
0.667 LW
N
73 374 M
77.34 374 L
S
GR
GS
[0.75 0 0 0.75 0 0] CT
0.149 GC
2 setlinecap
1 LJ
0.667 LW
N
73 339.7 M
77.34 339.7 L
S
GR
GS
[0.75 0 0 0.75 0 0] CT
0.149 GC
2 setlinecap
1 LJ
0.667 LW
N
73 305.4 M
77.34 305.4 L
S
GR
GS
[0.75 0 0 0.75 0 0] CT
0.149 GC
2 setlinecap
1 LJ
0.667 LW
N
73 271.1 M
77.34 271.1 L
S
GR
GS
[0.75 0 0 0.75 0 0] CT
0.149 GC
2 setlinecap
1 LJ
0.667 LW
N
73 236.8 M
77.34 236.8 L
S
GR
GS
[0.75 0 0 0.75 0 0] CT
0.149 GC
2 setlinecap
1 LJ
0.667 LW
N
73 202.5 M
77.34 202.5 L
S
GR
GS
[0.75 0 0 0.75 0 0] CT
0.149 GC
2 setlinecap
1 LJ
0.667 LW
N
73 168.2 M
77.34 168.2 L
S
GR
GS
[0.75 0 0 0.75 0 0] CT
0.149 GC
2 setlinecap
1 LJ
0.667 LW
N
73 133.9 M
77.34 133.9 L
S
GR
GS
[0.75 0 0 0.75 0 0] CT
0.149 GC
2 setlinecap
1 LJ
0.667 LW
N
73 99.6 M
77.34 99.6 L
S
GR
GS
[0.75 0 0 0.75 0 0] CT
0.149 GC
2 setlinecap
1 LJ
0.667 LW
N
73 65.3 M
77.34 65.3 L
S
GR
GS
[0.75 0 0 0.75 0 0] CT
0.149 GC
2 setlinecap
1 LJ
0.667 LW
N
73 31 M
77.34 31 L
S
GR
GS
[0.75 0 0 0.75 50.75 280.5] CT
0.149 GC
/Helvetica 13.333 F
GS
[1 0 0 1 0 0] CT
-8 5.5 moveto 
1 -1 scale
(0) t 
GR
GR
GS
[0.75 0 0 0.75 50.75 254.77501] CT
0.149 GC
/Helvetica 13.333 F
GS
[1 0 0 1 0 0] CT
-19 5.5 moveto 
1 -1 scale
(0.1) t 
GR
GR
GS
[0.75 0 0 0.75 50.75 229.05] CT
0.149 GC
/Helvetica 13.333 F
GS
[1 0 0 1 0 0] CT
-19 5.5 moveto 
1 -1 scale
(0.2) t 
GR
GR
GS
[0.75 0 0 0.75 50.75 203.325] CT
0.149 GC
/Helvetica 13.333 F
GS
[1 0 0 1 0 0] CT
-19 5.5 moveto 
1 -1 scale
(0.3) t 
GR
GR
GS
[0.75 0 0 0.75 50.75 177.6] CT
0.149 GC
/Helvetica 13.333 F
GS
[1 0 0 1 0 0] CT
-19 5.5 moveto 
1 -1 scale
(0.4) t 
GR
GR
GS
[0.75 0 0 0.75 50.75 151.875] CT
0.149 GC
/Helvetica 13.333 F
GS
[1 0 0 1 0 0] CT
-19 5.5 moveto 
1 -1 scale
(0.5) t 
GR
GR
GS
[0.75 0 0 0.75 50.75 126.15] CT
0.149 GC
/Helvetica 13.333 F
GS
[1 0 0 1 0 0] CT
-19 5.5 moveto 
1 -1 scale
(0.6) t 
GR
GR
GS
[0.75 0 0 0.75 50.75 100.42501] CT
0.149 GC
/Helvetica 13.333 F
GS
[1 0 0 1 0 0] CT
-19 5.5 moveto 
1 -1 scale
(0.7) t 
GR
GR
GS
[0.75 0 0 0.75 50.75 74.7] CT
0.149 GC
/Helvetica 13.333 F
GS
[1 0 0 1 0 0] CT
-19 5.5 moveto 
1 -1 scale
(0.8) t 
GR
GR
GS
[0.75 0 0 0.75 50.75 48.97501] CT
0.149 GC
/Helvetica 13.333 F
GS
[1 0 0 1 0 0] CT
-19 5.5 moveto 
1 -1 scale
(0.9) t 
GR
GR
GS
[0.75 0 0 0.75 50.75 23.25] CT
0.149 GC
/Helvetica 13.333 F
GS
[1 0 0 1 0 0] CT
-8 5.5 moveto 
1 -1 scale
(1) t 
GR
GR
GS
[0 -0.75 0.75 0 33.5 151.87487] CT
0.149 GC
/Helvetica 14.667 F
GS
[1 0 0 1 0 0] CT
-31 -4 moveto 
1 -1 scale
(Precision) t 
GR
GR
GS
[0.75 0 0 0.75 0 0] CT
1 0 0 RC
1 LJ
2.667 LW
N
73 374 M
74.957 372.964 L
77.872 371.928 L
78.557 370.891 L
80.604 369.855 L
81.104 368.819 L
82.779 367.783 L
83.085 366.746 L
84.099 365.71 L
84.162 364.674 L
84.68 363.638 L
85.527 362.601 L
85.588 361.565 L
87.795 360.529 L
87.964 359.493 L
89.303 358.456 L
90.792 357.42 L
92.025 356.384 L
92.148 355.348 L
93.262 354.311 L
93.776 353.275 L
94.096 352.239 L
95.217 351.203 L
95.661 350.166 L
95.841 349.13 L
97.492 348.094 L
97.567 347.058 L
98.063 346.021 L
98.962 344.985 L
99.959 343.949 L
100.166 342.913 L
100.384 341.876 L
100.625 340.84 L
100.649 339.804 L
100.827 338.768 L
101.254 337.731 L
101.506 336.695 L
103.898 335.659 L
105.099 334.623 L
106.571 333.586 L
106.815 332.55 L
106.872 331.514 L
107.066 330.478 L
108.189 329.441 L
110.392 328.405 L
110.766 327.369 L
111.656 326.333 L
112.829 325.297 L
113.77 324.26 L
115.893 323.224 L
115.9 322.188 L
117.68 321.152 L
118.252 320.115 L
118.575 319.079 L
119.04 318.043 L
119.269 317.007 L
119.806 315.97 L
120.005 314.934 L
120.365 313.898 L
121.137 312.862 L
122.066 311.825 L
122.318 310.789 L
122.655 309.753 L
122.745 308.717 L
122.888 307.68 L
123.623 306.644 L
123.636 305.608 L
124.889 304.572 L
126.192 303.535 L
126.405 302.499 L
128.993 301.463 L
131.066 300.427 L
131.441 299.39 L
132.203 298.354 L
132.409 297.318 L
132.611 296.282 L
132.882 295.245 L
133.222 294.209 L
136.037 293.173 L
136.42 292.137 L
136.68 291.1 L
137.044 290.064 L
137.125 289.028 L
138.566 287.992 L
139.517 286.955 L
139.681 285.919 L
139.895 284.883 L
140.854 283.847 L
141.429 282.81 L
143.557 281.774 L
145.313 280.738 L
146.658 279.702 L
147.078 278.666 L
147.821 277.629 L
147.956 276.593 L
148.4 275.557 L
148.595 274.521 L
148.681 273.484 L
150.247 272.448 L
150.629 271.412 L
152.015 270.376 L
152.349 269.339 L
152.948 268.303 L
153.1 267.267 L
153.435 266.231 L
156.639 265.194 L
157.037 264.158 L
157.156 263.122 L
158.007 262.086 L
160.903 261.049 L
162.163 260.013 L
162.76 258.977 L
163.606 257.941 L
164.679 256.904 L
164.784 255.868 L
165.005 254.832 L
165.064 253.796 L
165.785 252.759 L
166.149 251.723 L
166.491 250.687 L
167.048 249.651 L
167.25 248.614 L
167.566 247.578 L
168.437 246.542 L
168.656 245.506 L
168.721 244.469 L
171.557 243.433 L
171.729 242.397 L
172.754 241.361 L
173.479 240.324 L
173.541 239.288 L
173.948 238.252 L
174.317 237.216 L
175.481 236.18 L
177.063 235.143 L
177.144 234.107 L
177.6 233.071 L
178.114 232.035 L
178.543 230.998 L
179.042 229.962 L
179.854 228.926 L
180.42 227.89 L
180.718 226.853 L
182.941 225.817 L
183.948 224.781 L
184.885 223.745 L
185.33 222.708 L
185.712 221.672 L
186.226 220.636 L
188.363 219.6 L
188.621 218.563 L
188.624 217.527 L
189.64 216.491 L
191.073 215.455 L
192.046 214.418 L
192.18 213.382 L
195.382 212.346 L
196.18 211.31 L
196.703 210.273 L
197.272 209.237 L
197.344 208.201 L
197.419 207.165 L
198.067 206.128 L
198.226 205.092 L
198.393 204.056 L
203.056 203.02 L
206.348 201.983 L
206.656 200.947 L
207.152 199.911 L
207.822 198.875 L
208.16 197.838 L
208.391 196.802 L
209.84 195.766 L
210.923 194.73 L
214.136 193.693 L
214.172 192.657 L
214.39 191.621 L
214.391 190.585 L
214.895 189.548 L
215.995 188.512 L
216.241 187.476 L
219.893 186.44 L
220.534 185.404 L
221.202 184.367 L
221.419 183.331 L
222.692 182.295 L
225.313 181.259 L
226.381 180.222 L
226.822 179.186 L
228.372 178.15 L
228.594 177.114 L
229.09 176.077 L
231.046 175.041 L
231.898 174.005 L
231.96 172.969 L
232.361 171.932 L
232.893 170.896 L
235.615 169.86 L
235.658 168.824 L
237.106 167.787 L
238.677 166.751 L
240.738 165.715 L
241.141 164.679 L
241.261 163.642 L
242.289 162.606 L
242.716 161.57 L
242.77 160.534 L
242.995 159.497 L
243.616 158.461 L
243.655 157.425 L
244.77 156.389 L
245.351 155.352 L
248.875 154.316 L
250.173 153.28 L
250.895 152.244 L
251.067 151.207 L
251.525 150.171 L
251.591 149.135 L
252.44 148.099 L
254.342 147.062 L
254.426 146.026 L
255.217 144.99 L
256.081 143.954 L
256.687 142.917 L
256.982 141.881 L
258.809 140.845 L
259.219 139.809 L
259.325 138.773 L
260.515 137.736 L
261.3 136.7 L
263.817 135.664 L
264.661 134.628 L
265.664 133.591 L
268.057 132.555 L
268.479 131.519 L
268.852 130.483 L
269.927 129.446 L
270.732 128.41 L
271.882 127.374 L
272.078 126.338 L
272.099 125.301 L
272.761 124.265 L
272.845 123.229 L
273.634 122.193 L
274.1 121.156 L
274.141 120.12 L
274.746 119.084 L
274.873 118.048 L
277.3 117.011 L
277.721 115.975 L
280.712 114.939 L
282.006 113.903 L
283.71 112.866 L
284.38 111.83 L
285.54 110.794 L
286.036 109.758 L
286.967 108.721 L
287.036 107.685 L
289.478 106.649 L
289.884 105.613 L
290.565 104.576 L
291.742 103.54 L
292.245 102.504 L
292.622 101.468 L
293.169 100.431 L
294.951 99.395 L
296.088 98.359 L
298.468 97.323 L
298.473 96.287 L
298.608 95.25 L
299.324 94.214 L
299.463 93.178 L
299.623 92.142 L
299.76 91.105 L
300.405 90.069 L
301.81 89.033 L
302.153 87.997 L
303.354 86.96 L
303.663 85.924 L
303.671 84.888 L
303.94 83.852 L
304.458 82.815 L
305.782 81.779 L
305.919 80.743 L
306.141 79.707 L
306.329 78.67 L
306.517 77.634 L
306.701 76.598 L
307.148 75.562 L
307.567 74.525 L
307.881 73.489 L
310.511 72.453 L
310.7 71.417 L
311.718 70.38 L
311.763 69.344 L
311.818 68.308 L
312.013 67.272 L
317.792 66.235 L
320.464 65.199 L
320.758 64.163 L
323.286 63.127 L
323.535 62.09 L
325.404 61.054 L
327.506 60.018 L
329.502 58.982 L
330.7 57.945 L
331.927 56.909 L
332.977 55.873 L
333.795 54.837 L
334.914 53.8 L
337.889 52.764 L
338.509 51.728 L
338.715 50.692 L
339.139 49.656 L
342.037 48.619 L
343.739 47.583 L
343.938 46.547 L
346.971 45.511 L
347.3 44.474 L
348.544 43.438 L
349.955 42.402 L
356.672 41.366 L
356.749 40.329 L
358.204 39.293 L
359.328 38.257 L
385.924 37.221 L
394.079 36.184 L
394.769 35.148 L
401.196 34.112 L
416.234 33.076 L
416.346 32.039 L
427.66 31.003 L
507 31.003 L
S
GR
GS
[0.75 0 0 0.75 0 0] CT
0 1 0 RC
[8 2 4 2] 0 setdash
2 LJ
2.667 LW
N
73 374 M
77.887 373.058 L
78.167 372.115 L
78.651 371.173 L
79.028 370.231 L
79.028 369.288 L
79.725 368.346 L
79.744 367.404 L
80.223 366.462 L
80.471 365.519 L
80.535 364.577 L
81.501 363.635 L
82.042 362.692 L
82.518 361.75 L
82.628 360.808 L
82.628 359.865 L
82.79 358.923 L
82.932 357.981 L
82.969 357.039 L
83.046 356.096 L
83.081 355.154 L
83.317 354.212 L
83.49 353.269 L
83.764 352.327 L
84.069 351.385 L
84.653 350.442 L
85.917 349.5 L
86.305 348.558 L
86.938 347.616 L
87.175 346.673 L
87.474 345.731 L
88.16 344.789 L
88.767 343.846 L
89.712 342.904 L
89.903 341.962 L
90.001 341.019 L
90.092 340.077 L
90.517 339.135 L
90.574 338.193 L
90.613 337.25 L
90.956 336.308 L
91.135 335.366 L
91.237 334.423 L
91.306 333.481 L
91.358 332.539 L
92.015 331.596 L
92.035 330.654 L
92.035 329.712 L
92.253 328.77 L
92.394 327.827 L
92.656 326.885 L
92.805 325.943 L
92.814 325 L
93.12 324.058 L
93.266 323.116 L
93.549 322.173 L
93.595 321.231 L
93.745 320.289 L
94.374 319.347 L
94.528 318.404 L
95.053 317.462 L
95.359 316.52 L
95.492 315.577 L
95.815 314.635 L
95.85 313.693 L
96.004 312.75 L
96.075 311.808 L
96.55 310.866 L
96.587 309.924 L
96.615 308.981 L
96.747 308.039 L
97.166 307.097 L
97.707 306.154 L
97.943 305.212 L
98.024 304.27 L
98.024 303.327 L
98.272 302.385 L
98.37 301.443 L
98.435 300.501 L
98.552 299.558 L
98.574 298.616 L
98.603 297.674 L
98.833 296.731 L
98.833 295.789 L
98.857 294.847 L
99.047 293.904 L
99.775 292.962 L
99.859 292.02 L
100.05 291.078 L
100.188 290.135 L
100.286 289.193 L
100.37 288.251 L
100.621 287.308 L
101.241 286.366 L
101.416 285.424 L
101.592 284.481 L
101.847 283.539 L
101.866 282.597 L
102.253 281.655 L
102.538 280.712 L
102.579 279.77 L
102.667 278.828 L
102.884 277.885 L
103.139 276.943 L
103.139 276.001 L
103.214 275.058 L
103.243 274.116 L
103.426 273.174 L
103.455 272.232 L
103.484 271.289 L
103.498 270.347 L
103.605 269.405 L
103.762 268.462 L
104.048 267.52 L
104.143 266.578 L
104.387 265.635 L
104.683 264.693 L
104.905 263.751 L
104.957 262.809 L
105.243 261.866 L
105.457 260.924 L
105.476 259.982 L
105.557 259.039 L
105.6 258.097 L
105.673 257.155 L
105.704 256.212 L
106.05 255.27 L
106.05 254.328 L
106.288 253.386 L
106.431 252.443 L
106.643 251.501 L
106.655 250.559 L
106.681 249.616 L
106.706 248.674 L
107.444 247.732 L
107.851 246.789 L
108.083 245.847 L
108.117 244.905 L
108.829 243.963 L
108.932 243.02 L
108.961 242.078 L
109.146 241.136 L
109.167 240.193 L
109.406 239.251 L
109.448 238.309 L
109.891 237.366 L
110.147 236.424 L
110.524 235.482 L
110.674 234.54 L
111.017 233.597 L
111.186 232.655 L
111.404 231.713 L
111.487 230.77 L
111.73 229.828 L
111.75 228.886 L
111.953 227.943 L
112.121 227.001 L
112.751 226.059 L
112.916 225.117 L
113.185 224.174 L
113.688 223.232 L
113.804 222.29 L
113.996 221.347 L
114.333 220.405 L
114.731 219.463 L
114.932 218.52 L
115.138 217.578 L
115.285 216.636 L
115.626 215.693 L
115.697 214.751 L
116.08 213.809 L
116.173 212.867 L
116.374 211.924 L
116.742 210.982 L
116.828 210.04 L
116.876 209.097 L
117.293 208.155 L
117.458 207.213 L
117.483 206.27 L
117.548 205.328 L
117.602 204.386 L
117.785 203.444 L
117.806 202.501 L
117.847 201.559 L
118.297 200.617 L
118.562 199.674 L
119.583 198.732 L
119.788 197.79 L
119.936 196.847 L
120.032 195.905 L
120.14 194.963 L
120.3 194.021 L
120.627 193.078 L
120.733 192.136 L
121.38 191.194 L
121.691 190.251 L
122.175 189.309 L
123.173 188.367 L
123.231 187.424 L
123.748 186.482 L
123.808 185.54 L
124.503 184.598 L
124.936 183.655 L
125.069 182.713 L
125.683 181.771 L
125.91 180.828 L
125.979 179.886 L
126.131 178.944 L
126.743 178.001 L
126.781 177.059 L
127.321 176.117 L
127.364 175.175 L
128.57 174.232 L
128.902 173.29 L
129.694 172.348 L
129.837 171.405 L
130.105 170.463 L
130.261 169.521 L
131.269 168.578 L
131.73 167.636 L
131.787 166.694 L
132.243 165.752 L
132.331 164.809 L
132.483 163.867 L
133.045 162.925 L
133.148 161.982 L
133.503 161.04 L
133.801 160.098 L
133.945 159.155 L
135.356 158.213 L
135.528 157.271 L
136.292 156.329 L
137.854 155.386 L
138.1 154.444 L
139 153.502 L
139.623 152.559 L
140.685 151.617 L
141.413 150.675 L
143.913 149.732 L
144.237 148.79 L
144.528 147.848 L
144.778 146.906 L
147.987 145.963 L
150.499 145.021 L
151.44 144.079 L
154.135 143.136 L
155 142.194 L
155.422 141.252 L
155.758 140.309 L
155.929 139.367 L
157.496 138.425 L
157.593 137.483 L
157.605 136.54 L
157.861 135.598 L
158.623 134.656 L
158.785 133.713 L
158.909 132.771 L
160.547 131.829 L
163.556 130.886 L
163.879 129.944 L
164.091 129.002 L
164.202 128.06 L
169.086 127.117 L
169.438 126.175 L
170.119 125.233 L
170.536 124.29 L
170.801 123.348 L
170.929 122.406 L
171.363 121.463 L
175.303 120.521 L
176.108 119.579 L
177.775 118.637 L
180.036 117.694 L
180.144 116.752 L
180.965 115.81 L
180.988 114.867 L
186.372 113.925 L
187.365 112.983 L
187.875 112.04 L
188.735 111.098 L
189.16 110.156 L
189.38 109.214 L
189.985 108.271 L
192.127 107.329 L
193.103 106.387 L
195.625 105.444 L
197.63 104.502 L
201.655 103.56 L
202.168 102.617 L
203.288 101.675 L
203.861 100.733 L
205.339 99.791 L
212.455 98.848 L
215.894 97.906 L
224.08 96.964 L
224.183 96.021 L
224.296 95.079 L
224.423 94.137 L
230.323 93.194 L
235.914 92.252 L
237.681 91.31 L
254.011 90.368 L
260.618 89.425 L
262.364 88.483 L
263.202 87.541 L
268.138 86.598 L
273.302 85.656 L
277.792 84.714 L
281.943 83.771 L
284.944 82.829 L
288.914 81.887 L
290.047 80.945 L
290.299 80.002 L
294.532 79.06 L
296.133 78.118 L
296.23 77.175 L
301.782 76.233 L
301.797 75.291 L
307.533 74.348 L
310.274 73.406 L
310.768 72.464 L
311.282 71.521 L
312.376 70.579 L
316.201 69.637 L
318.524 68.695 L
319.466 67.752 L
319.977 66.81 L
320.361 65.868 L
320.841 64.925 L
321.717 63.983 L
322.345 63.041 L
322.704 62.098 L
323.834 61.156 L
330.652 60.214 L
334.033 59.272 L
334.169 58.329 L
334.371 57.387 L
335.203 56.445 L
335.64 55.502 L
336.067 54.56 L
344.227 53.618 L
345.271 52.675 L
346.081 51.733 L
347.513 50.791 L
348.48 49.849 L
349.964 48.906 L
350.605 47.964 L
352.758 47.022 L
356.485 46.079 L
356.791 45.137 L
356.948 44.195 L
357.485 43.252 L
358.291 42.31 L
361.521 41.368 L
370.884 40.426 L
373.513 39.483 L
375.031 38.541 L
378.98 37.599 L
380.128 36.656 L
381.612 35.714 L
383.564 34.772 L
388.183 33.829 L
396.201 32.887 L
401.43 31.945 L
402.87 31.003 L
507 31.003 L
S
GR
GS
[0.75 0 0 0.75 0 0] CT
0 0 1 RC
[8 8] 0 setdash
2 LJ
2.667 LW
N
73 374 M
88.069 373.085 L
90.159 372.171 L
94.7 371.256 L
96.004 370.341 L
98.514 369.427 L
98.552 368.512 L
98.833 367.597 L
100.125 366.683 L
100.37 365.768 L
103.139 364.853 L
103.243 363.939 L
103.951 363.024 L
103.952 362.109 L
104.957 361.195 L
105.089 360.28 L
105.243 359.365 L
106.418 358.451 L
107.325 357.536 L
107.327 356.621 L
107.331 355.707 L
109.167 354.792 L
110.147 353.877 L
111.855 352.963 L
111.874 352.048 L
112.751 351.133 L
115.147 350.219 L
115.405 349.304 L
116.152 348.39 L
117.417 347.475 L
117.573 346.56 L
117.729 345.646 L
118.008 344.731 L
118.052 343.816 L
118.747 342.902 L
118.931 341.987 L
119.246 341.072 L
120.3 340.158 L
120.569 339.243 L
121.38 338.328 L
121.617 337.414 L
121.783 336.499 L
122.59 335.584 L
122.772 334.67 L
122.944 333.755 L
123.173 332.84 L
124.094 331.926 L
124.49 331.011 L
124.499 330.096 L
124.846 329.182 L
126.11 328.267 L
126.257 327.352 L
126.387 326.438 L
126.951 325.523 L
127.746 324.608 L
129.288 323.694 L
129.546 322.779 L
130.895 321.864 L
130.934 320.95 L
131.492 320.035 L
132.216 319.12 L
132.266 318.206 L
132.331 317.291 L
132.384 316.376 L
132.435 315.462 L
132.791 314.547 L
133.071 313.632 L
133.284 312.718 L
133.534 311.803 L
134.049 310.888 L
134.269 309.974 L
134.524 309.059 L
135.613 308.144 L
135.789 307.23 L
135.973 306.315 L
136.732 305.4 L
137.328 304.486 L
137.922 303.571 L
137.974 302.656 L
138.022 301.742 L
138.038 300.827 L
138.1 299.913 L
138.176 298.998 L
138.2 298.083 L
138.36 297.169 L
138.448 296.254 L
138.613 295.339 L
139.012 294.425 L
139.383 293.51 L
139.439 292.595 L
139.508 291.681 L
139.702 290.766 L
139.876 289.851 L
139.934 288.937 L
139.964 288.022 L
139.99 287.107 L
140.12 286.193 L
140.232 285.278 L
140.393 284.363 L
140.813 283.449 L
140.914 282.534 L
140.917 281.619 L
141.815 280.705 L
143.182 279.79 L
143.511 278.875 L
143.513 277.961 L
143.582 277.046 L
143.816 276.131 L
144.071 275.217 L
144.208 274.302 L
144.426 273.387 L
144.56 272.473 L
144.648 271.558 L
144.834 270.643 L
144.848 269.729 L
145.293 268.814 L
145.335 267.899 L
145.445 266.985 L
145.547 266.07 L
145.778 265.155 L
145.89 264.241 L
145.896 263.326 L
145.957 262.411 L
146.059 261.497 L
146.138 260.582 L
146.342 259.667 L
146.519 258.753 L
146.619 257.838 L
146.699 256.923 L
146.748 256.009 L
147.01 255.094 L
147.188 254.18 L
147.276 253.265 L
147.461 252.35 L
147.591 251.436 L
147.647 250.521 L
147.87 249.606 L
148.032 248.692 L
148.314 247.777 L
148.347 246.862 L
148.493 245.948 L
148.621 245.033 L
148.973 244.118 L
149.014 243.204 L
149.15 242.289 L
149.2 241.374 L
149.231 240.46 L
149.249 239.545 L
149.484 238.63 L
149.604 237.716 L
149.627 236.801 L
149.721 235.886 L
149.766 234.972 L
150.02 234.057 L
150.11 233.142 L
150.347 232.228 L
150.356 231.313 L
150.384 230.398 L
150.575 229.484 L
150.62 228.569 L
151.198 227.654 L
151.243 226.74 L
151.44 225.825 L
151.726 224.91 L
151.726 223.996 L
151.868 223.081 L
151.912 222.166 L
152.06 221.252 L
152.197 220.337 L
152.257 219.422 L
152.312 218.508 L
152.355 217.593 L
152.39 216.678 L
152.461 215.764 L
152.984 214.849 L
153.095 213.934 L
153.116 213.02 L
153.277 212.105 L
153.513 211.19 L
153.588 210.276 L
153.631 209.361 L
153.649 208.447 L
153.649 207.532 L
153.83 206.617 L
153.961 205.703 L
154.114 204.788 L
154.615 203.873 L
154.718 202.959 L
154.771 202.044 L
154.771 201.129 L
155.057 200.215 L
155.223 199.3 L
155.664 198.385 L
155.707 197.471 L
155.77 196.556 L
155.936 195.641 L
156.07 194.727 L
156.112 193.812 L
156.197 192.897 L
156.22 191.983 L
156.302 191.068 L
156.357 190.153 L
156.578 189.239 L
156.627 188.324 L
156.737 187.409 L
156.859 186.495 L
156.882 185.58 L
157.102 184.665 L
157.39 183.751 L
157.41 182.836 L
157.644 181.921 L
157.757 181.007 L
158.247 180.092 L
158.299 179.177 L
158.377 178.263 L
158.666 177.348 L
158.89 176.433 L
159.155 175.519 L
159.221 174.604 L
159.314 173.689 L
159.495 172.775 L
159.588 171.86 L
159.798 170.945 L
160.097 170.031 L
160.455 169.116 L
160.542 168.201 L
160.55 167.287 L
160.658 166.372 L
161.483 165.457 L
161.575 164.543 L
161.819 163.628 L
161.825 162.714 L
161.891 161.799 L
162.045 160.884 L
162.091 159.97 L
162.122 159.055 L
162.317 158.14 L
162.413 157.226 L
162.643 156.311 L
162.657 155.396 L
162.782 154.482 L
163.106 153.567 L
163.556 152.652 L
163.557 151.738 L
163.771 150.823 L
163.932 149.908 L
164.102 148.994 L
164.293 148.079 L
164.664 147.164 L
164.779 146.25 L
164.899 145.335 L
165.225 144.42 L
165.335 143.506 L
165.427 142.591 L
165.624 141.676 L
165.624 140.762 L
165.648 139.847 L
165.853 138.932 L
165.886 138.018 L
167.098 137.103 L
167.27 136.188 L
167.818 135.274 L
168.028 134.359 L
168.402 133.444 L
168.967 132.53 L
168.975 131.615 L
169.15 130.7 L
169.243 129.786 L
169.275 128.871 L
169.477 127.956 L
169.556 127.042 L
169.654 126.127 L
169.817 125.212 L
169.83 124.298 L
169.845 123.383 L
169.952 122.468 L
170.101 121.554 L
170.471 120.639 L
170.603 119.724 L
170.756 118.81 L
170.774 117.895 L
172.15 116.98 L
172.237 116.066 L
172.259 115.151 L
172.48 114.237 L
172.505 113.322 L
172.582 112.407 L
172.753 111.493 L
173.605 110.578 L
173.844 109.663 L
173.867 108.749 L
174.037 107.834 L
174.044 106.919 L
174.308 106.005 L
174.386 105.09 L
174.552 104.175 L
174.608 103.261 L
176.044 102.346 L
176.33 101.431 L
176.461 100.517 L
177.336 99.602 L
177.368 98.687 L
177.525 97.773 L
178.016 96.858 L
178.102 95.943 L
178.501 95.029 L
178.606 94.114 L
178.788 93.199 L
178.847 92.285 L
179.092 91.37 L
179.398 90.455 L
179.398 89.541 L
179.673 88.626 L
180.273 87.711 L
180.308 86.797 L
180.717 85.882 L
180.797 84.967 L
180.962 84.053 L
181.065 83.138 L
181.134 82.223 L
182.309 81.309 L
182.43 80.394 L
182.536 79.479 L
182.596 78.565 L
182.781 77.65 L
182.817 76.735 L
182.857 75.821 L
182.907 74.906 L
183.368 73.991 L
183.455 73.077 L
183.714 72.162 L
183.77 71.247 L
183.826 70.333 L
184.088 69.418 L
184.461 68.504 L
184.999 67.589 L
185.311 66.674 L
185.635 65.76 L
185.837 64.845 L
186.13 63.93 L
186.413 63.016 L
186.941 62.101 L
187.581 61.186 L
187.741 60.272 L
188.167 59.357 L
188.266 58.442 L
188.591 57.528 L
188.838 56.613 L
189.187 55.698 L
189.824 54.784 L
189.909 53.869 L
190.019 52.954 L
190.568 52.04 L
190.666 51.125 L
190.992 50.21 L
191.152 49.296 L
191.342 48.381 L
192.096 47.466 L
192.112 46.552 L
192.969 45.637 L
193.867 44.722 L
194.361 43.808 L
194.643 42.893 L
195.6 41.978 L
197.353 41.064 L
199.134 40.149 L
200.009 39.234 L
202.282 38.32 L
205.409 37.405 L
207.632 36.49 L
214.737 35.576 L
215.388 34.661 L
217.089 33.746 L
217.492 32.832 L
237.32 31.917 L
281.4 31.002 L
507 31.002 L
S
GR
GS
[0.75 0 0 0.75 0 0] CT
1 GC
N
390 361 M
390 308 L
494 308 L
494 361 L
cp
f
GR
GS
[0.75 0 0 0.75 327.75 238.5] CT
/Helvetica 12 F
GS
[1 0 0 1 0 0] CT
0 5 moveto 
1 -1 scale
(Meanshift) t 
GR
GR
GS
[0.75 0 0 0.75 0 0] CT
1 0 0 RC
1 LJ
2.667 LW
N
394 318 M
434 318 L
S
GR
GS
[0.75 0 0 0.75 327.75 250.875] CT
/Helvetica 12 F
GS
[1 0 0 1 0 0] CT
0 5 moveto 
1 -1 scale
(KCF) t 
GR
GR
GS
[0.75 0 0 0.75 0 0] CT
0 1 0 RC
[8 2 4 2] 0 setdash
2 LJ
2.667 LW
N
394 334.5 M
434 334.5 L
S
GR
GS
[0.75 0 0 0.75 327.75 263.25] CT
/Helvetica 12 F
GS
[1 0 0 1 0 0] CT
0 5 moveto 
1 -1 scale
(STRUCK) t 
GR
GR
GS
[0.75 0 0 0.75 0 0] CT
0 0 1 RC
[8 8] 0 setdash
2 LJ
2.667 LW
N
394 351 M
434 351 L
S
GR
GS
[0.75 0 0 0.75 0 0] CT
0.149 GC
10.0 ML
0.667 LW
N
390 361 M
390 308 L
494 308 L
494 361 L
cp
S
GR
%%Trailer
%%Pages: 1
%%EOF
