%!PS-Adobe-3.0 EPSF-3.0
%%Creator: (MATLAB, The Mathworks, Inc. Version 9.2.0.538062 \(R2017a\). Operating System: Windows 8)
%%Title: C:/Users/jack/ANU/engn3712-report/images/typical_spad_pixel_movingAwayDark1_sawtooth.eps
%%CreationDate: 2017-09-14T12:35:38
%%Pages: (atend)
%%BoundingBox: 0 0 470 243
%%LanguageLevel: 3
%%EndComments
%%BeginProlog
%%BeginResource: procset (Apache XML Graphics Std ProcSet) 1.2 0
%%Version: 1.2 0
%%Copyright: (Copyright 2001-2003,2010 The Apache Software Foundation. License terms: http://www.apache.org/licenses/LICENSE-2.0)
/bd{bind def}bind def
/ld{load def}bd
/GR/grestore ld
/M/moveto ld
/LJ/setlinejoin ld
/C/curveto ld
/f/fill ld
/LW/setlinewidth ld
/GC/setgray ld
/t/show ld
/N/newpath ld
/CT/concat ld
/cp/closepath ld
/S/stroke ld
/L/lineto ld
/CC/setcmykcolor ld
/A/ashow ld
/GS/gsave ld
/RC/setrgbcolor ld
/RM/rmoveto ld
/ML/setmiterlimit ld
/re {4 2 roll M
1 index 0 rlineto
0 exch rlineto
neg 0 rlineto
cp } bd
/_ctm matrix def
/_tm matrix def
/BT { _ctm currentmatrix pop matrix _tm copy pop 0 0 moveto } bd
/ET { _ctm setmatrix } bd
/iTm { _ctm setmatrix _tm concat } bd
/Tm { _tm astore pop iTm 0 0 moveto } bd
/ux 0.0 def
/uy 0.0 def
/F {
  /Tp exch def
  /Tf exch def
  Tf findfont Tp scalefont setfont
  /cf Tf def  /cs Tp def
} bd
/ULS {currentpoint /uy exch def /ux exch def} bd
/ULE {
  /Tcx currentpoint pop def
  gsave
  newpath
  cf findfont cs scalefont dup
  /FontMatrix get 0 get /Ts exch def /FontInfo get dup
  /UnderlinePosition get Ts mul /To exch def
  /UnderlineThickness get Ts mul /Tt exch def
  ux uy To add moveto  Tcx uy To add lineto
  Tt setlinewidth stroke
  grestore
} bd
/OLE {
  /Tcx currentpoint pop def
  gsave
  newpath
  cf findfont cs scalefont dup
  /FontMatrix get 0 get /Ts exch def /FontInfo get dup
  /UnderlinePosition get Ts mul /To exch def
  /UnderlineThickness get Ts mul /Tt exch def
  ux uy To add cs add moveto Tcx uy To add cs add lineto
  Tt setlinewidth stroke
  grestore
} bd
/SOE {
  /Tcx currentpoint pop def
  gsave
  newpath
  cf findfont cs scalefont dup
  /FontMatrix get 0 get /Ts exch def /FontInfo get dup
  /UnderlinePosition get Ts mul /To exch def
  /UnderlineThickness get Ts mul /Tt exch def
  ux uy To add cs 10 mul 26 idiv add moveto Tcx uy To add cs 10 mul 26 idiv add lineto
  Tt setlinewidth stroke
  grestore
} bd
/QT {
/Y22 exch store
/X22 exch store
/Y21 exch store
/X21 exch store
currentpoint
/Y21 load 2 mul add 3 div exch
/X21 load 2 mul add 3 div exch
/X21 load 2 mul /X22 load add 3 div
/Y21 load 2 mul /Y22 load add 3 div
/X22 load /Y22 load curveto
} bd
/SSPD {
dup length /d exch dict def
{
/v exch def
/k exch def
currentpagedevice k known {
/cpdv currentpagedevice k get def
v cpdv ne {
/upd false def
/nullv v type /nulltype eq def
/nullcpdv cpdv type /nulltype eq def
nullv nullcpdv or
{
/upd true def
} {
/sametype v type cpdv type eq def
sametype {
v type /arraytype eq {
/vlen v length def
/cpdvlen cpdv length def
vlen cpdvlen eq {
0 1 vlen 1 sub {
/i exch def
/obj v i get def
/cpdobj cpdv i get def
obj cpdobj ne {
/upd true def
exit
} if
} for
} {
/upd true def
} ifelse
} {
v type /dicttype eq {
v {
/dv exch def
/dk exch def
/cpddv cpdv dk get def
dv cpddv ne {
/upd true def
exit
} if
} forall
} {
/upd true def
} ifelse
} ifelse
} if
} ifelse
upd true eq {
d k v put
} if
} if
} if
} forall
d length 0 gt {
d setpagedevice
} if
} bd
/RE { % /NewFontName [NewEncodingArray] /FontName RE -
  findfont dup length dict begin
  {
    1 index /FID ne
    {def} {pop pop} ifelse
  } forall
  /Encoding exch def
  /FontName 1 index def
  currentdict definefont pop
  end
} bind def
%%EndResource
%%BeginResource: procset (Apache XML Graphics EPS ProcSet) 1.0 0
%%Version: 1.0 0
%%Copyright: (Copyright 2002-2003 The Apache Software Foundation. License terms: http://www.apache.org/licenses/LICENSE-2.0)
/BeginEPSF { %def
/b4_Inc_state save def         % Save state for cleanup
/dict_count countdictstack def % Count objects on dict stack
/op_count count 1 sub def      % Count objects on operand stack
userdict begin                 % Push userdict on dict stack
/showpage { } def              % Redefine showpage, { } = null proc
0 setgray 0 setlinecap         % Prepare graphics state
1 setlinewidth 0 setlinejoin
10 setmiterlimit [ ] 0 setdash newpath
/languagelevel where           % If level not equal to 1 then
{pop languagelevel             % set strokeadjust and
1 ne                           % overprint to their defaults.
{false setstrokeadjust false setoverprint
} if
} if
} bd
/EndEPSF { %def
count op_count sub {pop} repeat            % Clean up stacks
countdictstack dict_count sub {end} repeat
b4_Inc_state restore
} bd
%%EndResource
%FOPBeginFontDict
%%IncludeResource: font Courier-Bold
%%IncludeResource: font Helvetica
%%IncludeResource: font Courier-BoldOblique
%%IncludeResource: font Courier-Oblique
%%IncludeResource: font Times-Roman
%%IncludeResource: font Helvetica-BoldOblique
%%IncludeResource: font Helvetica-Bold
%%IncludeResource: font Helvetica-Oblique
%%IncludeResource: font Times-BoldItalic
%%IncludeResource: font Courier
%%IncludeResource: font Times-Italic
%%IncludeResource: font Times-Bold
%%IncludeResource: font Symbol
%%IncludeResource: font ZapfDingbats
%FOPEndFontDict
%%BeginResource: encoding WinAnsiEncoding
/WinAnsiEncoding [
/.notdef /.notdef /.notdef /.notdef /.notdef
/.notdef /.notdef /.notdef /.notdef /.notdef
/.notdef /.notdef /.notdef /.notdef /.notdef
/.notdef /.notdef /.notdef /.notdef /.notdef
/.notdef /.notdef /.notdef /.notdef /.notdef
/.notdef /.notdef /.notdef /.notdef /.notdef
/.notdef /.notdef /space /exclam /quotedbl
/numbersign /dollar /percent /ampersand /quotesingle
/parenleft /parenright /asterisk /plus /comma
/hyphen /period /slash /zero /one
/two /three /four /five /six
/seven /eight /nine /colon /semicolon
/less /equal /greater /question /at
/A /B /C /D /E
/F /G /H /I /J
/K /L /M /N /O
/P /Q /R /S /T
/U /V /W /X /Y
/Z /bracketleft /backslash /bracketright /asciicircum
/underscore /quoteleft /a /b /c
/d /e /f /g /h
/i /j /k /l /m
/n /o /p /q /r
/s /t /u /v /w
/x /y /z /braceleft /bar
/braceright /asciitilde /bullet /Euro /bullet
/quotesinglbase /florin /quotedblbase /ellipsis /dagger
/daggerdbl /circumflex /perthousand /Scaron /guilsinglleft
/OE /bullet /Zcaron /bullet /bullet
/quoteleft /quoteright /quotedblleft /quotedblright /bullet
/endash /emdash /asciitilde /trademark /scaron
/guilsinglright /oe /bullet /zcaron /Ydieresis
/space /exclamdown /cent /sterling /currency
/yen /brokenbar /section /dieresis /copyright
/ordfeminine /guillemotleft /logicalnot /sfthyphen /registered
/macron /degree /plusminus /twosuperior /threesuperior
/acute /mu /paragraph /middot /cedilla
/onesuperior /ordmasculine /guillemotright /onequarter /onehalf
/threequarters /questiondown /Agrave /Aacute /Acircumflex
/Atilde /Adieresis /Aring /AE /Ccedilla
/Egrave /Eacute /Ecircumflex /Edieresis /Igrave
/Iacute /Icircumflex /Idieresis /Eth /Ntilde
/Ograve /Oacute /Ocircumflex /Otilde /Odieresis
/multiply /Oslash /Ugrave /Uacute /Ucircumflex
/Udieresis /Yacute /Thorn /germandbls /agrave
/aacute /acircumflex /atilde /adieresis /aring
/ae /ccedilla /egrave /eacute /ecircumflex
/edieresis /igrave /iacute /icircumflex /idieresis
/eth /ntilde /ograve /oacute /ocircumflex
/otilde /odieresis /divide /oslash /ugrave
/uacute /ucircumflex /udieresis /yacute /thorn
/ydieresis
] def
%%EndResource
%FOPBeginFontReencode
/Courier-Bold findfont
dup length dict begin
  {1 index /FID ne {def} {pop pop} ifelse} forall
  /Encoding WinAnsiEncoding def
  currentdict
end
/Courier-Bold exch definefont pop
/Helvetica findfont
dup length dict begin
  {1 index /FID ne {def} {pop pop} ifelse} forall
  /Encoding WinAnsiEncoding def
  currentdict
end
/Helvetica exch definefont pop
/Courier-BoldOblique findfont
dup length dict begin
  {1 index /FID ne {def} {pop pop} ifelse} forall
  /Encoding WinAnsiEncoding def
  currentdict
end
/Courier-BoldOblique exch definefont pop
/Courier-Oblique findfont
dup length dict begin
  {1 index /FID ne {def} {pop pop} ifelse} forall
  /Encoding WinAnsiEncoding def
  currentdict
end
/Courier-Oblique exch definefont pop
/Times-Roman findfont
dup length dict begin
  {1 index /FID ne {def} {pop pop} ifelse} forall
  /Encoding WinAnsiEncoding def
  currentdict
end
/Times-Roman exch definefont pop
/Helvetica-BoldOblique findfont
dup length dict begin
  {1 index /FID ne {def} {pop pop} ifelse} forall
  /Encoding WinAnsiEncoding def
  currentdict
end
/Helvetica-BoldOblique exch definefont pop
/Helvetica-Bold findfont
dup length dict begin
  {1 index /FID ne {def} {pop pop} ifelse} forall
  /Encoding WinAnsiEncoding def
  currentdict
end
/Helvetica-Bold exch definefont pop
/Helvetica-Oblique findfont
dup length dict begin
  {1 index /FID ne {def} {pop pop} ifelse} forall
  /Encoding WinAnsiEncoding def
  currentdict
end
/Helvetica-Oblique exch definefont pop
/Times-BoldItalic findfont
dup length dict begin
  {1 index /FID ne {def} {pop pop} ifelse} forall
  /Encoding WinAnsiEncoding def
  currentdict
end
/Times-BoldItalic exch definefont pop
/Courier findfont
dup length dict begin
  {1 index /FID ne {def} {pop pop} ifelse} forall
  /Encoding WinAnsiEncoding def
  currentdict
end
/Courier exch definefont pop
/Times-Italic findfont
dup length dict begin
  {1 index /FID ne {def} {pop pop} ifelse} forall
  /Encoding WinAnsiEncoding def
  currentdict
end
/Times-Italic exch definefont pop
/Times-Bold findfont
dup length dict begin
  {1 index /FID ne {def} {pop pop} ifelse} forall
  /Encoding WinAnsiEncoding def
  currentdict
end
/Times-Bold exch definefont pop
%FOPEndFontReencode
%%EndProlog
%%Page: 1 1
%%PageBoundingBox: 0 0 470 243
%%BeginPageSetup
[1 0 0 -1 0 243] CT
%%EndPageSetup
GS
[0.75 0 0 0.75 0 0] CT
1 GC
N
0 0 627 324 re
f
GR
GS
[0.75 0 0 0.75 0 0] CT
1 GC
N
0 0 627 324 re
f
GR
GS
[0.75 0 0 0.75 0 0] CT
1 GC
N
82 281 M
567.001 281 L
567.001 24 L
82 24 L
cp
f
GR
GS
[0.75 0 0 0.75 0 0] CT
0.149 GC
2 setlinecap
1 LJ
0.667 LW
N
82 281 M
567.001 281 L
S
GR
GS
[0.75 0 0 0.75 0 0] CT
0.149 GC
2 setlinecap
1 LJ
0.667 LW
N
82 24 M
567.001 24 L
S
GR
GS
[0.75 0 0 0.75 0 0] CT
0.149 GC
2 setlinecap
1 LJ
0.667 LW
N
125.179 281 M
125.179 276.15 L
S
GR
GS
[0.75 0 0 0.75 0 0] CT
0.149 GC
2 setlinecap
1 LJ
0.667 LW
N
178.296 281 M
178.296 276.15 L
S
GR
GS
[0.75 0 0 0.75 0 0] CT
0.149 GC
2 setlinecap
1 LJ
0.667 LW
N
231.412 281 M
231.412 276.15 L
S
GR
GS
[0.75 0 0 0.75 0 0] CT
0.149 GC
2 setlinecap
1 LJ
0.667 LW
N
284.529 281 M
284.529 276.15 L
S
GR
GS
[0.75 0 0 0.75 0 0] CT
0.149 GC
2 setlinecap
1 LJ
0.667 LW
N
337.646 281 M
337.646 276.15 L
S
GR
GS
[0.75 0 0 0.75 0 0] CT
0.149 GC
2 setlinecap
1 LJ
0.667 LW
N
390.762 281 M
390.762 276.15 L
S
GR
GS
[0.75 0 0 0.75 0 0] CT
0.149 GC
2 setlinecap
1 LJ
0.667 LW
N
443.879 281 M
443.879 276.15 L
S
GR
GS
[0.75 0 0 0.75 0 0] CT
0.149 GC
2 setlinecap
1 LJ
0.667 LW
N
496.996 281 M
496.996 276.15 L
S
GR
GS
[0.75 0 0 0.75 0 0] CT
0.149 GC
2 setlinecap
1 LJ
0.667 LW
N
550.112 281 M
550.112 276.15 L
S
GR
GS
[0.75 0 0 0.75 0 0] CT
0.149 GC
2 setlinecap
1 LJ
0.667 LW
N
125.179 24 M
125.179 28.85 L
S
GR
GS
[0.75 0 0 0.75 0 0] CT
0.149 GC
2 setlinecap
1 LJ
0.667 LW
N
178.296 24 M
178.296 28.85 L
S
GR
GS
[0.75 0 0 0.75 0 0] CT
0.149 GC
2 setlinecap
1 LJ
0.667 LW
N
231.412 24 M
231.412 28.85 L
S
GR
GS
[0.75 0 0 0.75 0 0] CT
0.149 GC
2 setlinecap
1 LJ
0.667 LW
N
284.529 24 M
284.529 28.85 L
S
GR
GS
[0.75 0 0 0.75 0 0] CT
0.149 GC
2 setlinecap
1 LJ
0.667 LW
N
337.646 24 M
337.646 28.85 L
S
GR
GS
[0.75 0 0 0.75 0 0] CT
0.149 GC
2 setlinecap
1 LJ
0.667 LW
N
390.762 24 M
390.762 28.85 L
S
GR
GS
[0.75 0 0 0.75 0 0] CT
0.149 GC
2 setlinecap
1 LJ
0.667 LW
N
443.879 24 M
443.879 28.85 L
S
GR
GS
[0.75 0 0 0.75 0 0] CT
0.149 GC
2 setlinecap
1 LJ
0.667 LW
N
496.996 24 M
496.996 28.85 L
S
GR
GS
[0.75 0 0 0.75 0 0] CT
0.149 GC
2 setlinecap
1 LJ
0.667 LW
N
550.112 24 M
550.112 28.85 L
S
GR
GS
[0.75 0 0 0.75 93.88416 214.75012] CT
0.149 GC
/Helvetica 13.333 F
GS
[1 0 0 1 0 0] CT
-14.5 14 moveto 
1 -1 scale
(7640) t 
GR
GR
GS
[0.75 0 0 0.75 133.72168 214.75012] CT
0.149 GC
/Helvetica 13.333 F
GS
[1 0 0 1 0 0] CT
-14.5 14 moveto 
1 -1 scale
(7660) t 
GR
GR
GS
[0.75 0 0 0.75 173.55921 214.75012] CT
0.149 GC
/Helvetica 13.333 F
GS
[1 0 0 1 0 0] CT
-14.5 14 moveto 
1 -1 scale
(7680) t 
GR
GR
GS
[0.75 0 0 0.75 213.39672 214.75012] CT
0.149 GC
/Helvetica 13.333 F
GS
[1 0 0 1 0 0] CT
-14.5 14 moveto 
1 -1 scale
(7700) t 
GR
GR
GS
[0.75 0 0 0.75 253.23425 214.75012] CT
0.149 GC
/Helvetica 13.333 F
GS
[1 0 0 1 0 0] CT
-14.5 14 moveto 
1 -1 scale
(7720) t 
GR
GR
GS
[0.75 0 0 0.75 293.07177 214.75012] CT
0.149 GC
/Helvetica 13.333 F
GS
[1 0 0 1 0 0] CT
-14.5 14 moveto 
1 -1 scale
(7740) t 
GR
GR
GS
[0.75 0 0 0.75 332.90927 214.75012] CT
0.149 GC
/Helvetica 13.333 F
GS
[1 0 0 1 0 0] CT
-14.5 14 moveto 
1 -1 scale
(7760) t 
GR
GR
GS
[0.75 0 0 0.75 372.7468 214.75012] CT
0.149 GC
/Helvetica 13.333 F
GS
[1 0 0 1 0 0] CT
-14.5 14 moveto 
1 -1 scale
(7780) t 
GR
GR
GS
[0.75 0 0 0.75 412.58432 214.75012] CT
0.149 GC
/Helvetica 13.333 F
GS
[1 0 0 1 0 0] CT
-14.5 14 moveto 
1 -1 scale
(7800) t 
GR
GR
GS
[0.75 0 0 0.75 243.37505 228.00011] CT
0.149 GC
/Helvetica 14.667 F
GS
[1 0 0 1 0 0] CT
-22 16 moveto 
1 -1 scale
(Frame) t 
GR
GR
GS
[0.75 0 0 0.75 0 0] CT
0.149 GC
2 setlinecap
1 LJ
0.667 LW
N
82 281 M
82 24 L
S
GR
GS
[0.75 0 0 0.75 0 0] CT
0.149 GC
2 setlinecap
1 LJ
0.667 LW
N
567.001 281 M
567.001 24 L
S
GR
GS
[0.75 0 0 0.75 0 0] CT
0.149 GC
2 setlinecap
1 LJ
0.667 LW
N
82 253.205 M
86.85 253.205 L
S
GR
GS
[0.75 0 0 0.75 0 0] CT
0.149 GC
2 setlinecap
1 LJ
0.667 LW
N
82 220.595 M
86.85 220.595 L
S
GR
GS
[0.75 0 0 0.75 0 0] CT
0.149 GC
2 setlinecap
1 LJ
0.667 LW
N
82 187.984 M
86.85 187.984 L
S
GR
GS
[0.75 0 0 0.75 0 0] CT
0.149 GC
2 setlinecap
1 LJ
0.667 LW
N
82 155.374 M
86.85 155.374 L
S
GR
GS
[0.75 0 0 0.75 0 0] CT
0.149 GC
2 setlinecap
1 LJ
0.667 LW
N
82 122.763 M
86.85 122.763 L
S
GR
GS
[0.75 0 0 0.75 0 0] CT
0.149 GC
2 setlinecap
1 LJ
0.667 LW
N
82 90.153 M
86.85 90.153 L
S
GR
GS
[0.75 0 0 0.75 0 0] CT
0.149 GC
2 setlinecap
1 LJ
0.667 LW
N
82 57.542 M
86.85 57.542 L
S
GR
GS
[0.75 0 0 0.75 0 0] CT
0.149 GC
2 setlinecap
1 LJ
0.667 LW
N
82 24.932 M
86.85 24.932 L
S
GR
GS
[0.75 0 0 0.75 0 0] CT
0.149 GC
2 setlinecap
1 LJ
0.667 LW
N
567.001 253.205 M
562.151 253.205 L
S
GR
GS
[0.75 0 0 0.75 0 0] CT
0.149 GC
2 setlinecap
1 LJ
0.667 LW
N
567.001 220.595 M
562.151 220.595 L
S
GR
GS
[0.75 0 0 0.75 0 0] CT
0.149 GC
2 setlinecap
1 LJ
0.667 LW
N
567.001 187.984 M
562.151 187.984 L
S
GR
GS
[0.75 0 0 0.75 0 0] CT
0.149 GC
2 setlinecap
1 LJ
0.667 LW
N
567.001 155.374 M
562.151 155.374 L
S
GR
GS
[0.75 0 0 0.75 0 0] CT
0.149 GC
2 setlinecap
1 LJ
0.667 LW
N
567.001 122.763 M
562.151 122.763 L
S
GR
GS
[0.75 0 0 0.75 0 0] CT
0.149 GC
2 setlinecap
1 LJ
0.667 LW
N
567.001 90.153 M
562.151 90.153 L
S
GR
GS
[0.75 0 0 0.75 0 0] CT
0.149 GC
2 setlinecap
1 LJ
0.667 LW
N
567.001 57.542 M
562.151 57.542 L
S
GR
GS
[0.75 0 0 0.75 0 0] CT
0.149 GC
2 setlinecap
1 LJ
0.667 LW
N
567.001 24.932 M
562.151 24.932 L
S
GR
GS
[0.75 0 0 0.75 57.49936 189.90385] CT
0.149 GC
/Helvetica 13.333 F
GS
[1 0 0 1 0 0] CT
-22 5.5 moveto 
1 -1 scale
(995) t 
GR
GR
GS
[0.75 0 0 0.75 57.49936 165.44602] CT
0.149 GC
/Helvetica 13.333 F
GS
[1 0 0 1 0 0] CT
-29 5.5 moveto 
1 -1 scale
(1000) t 
GR
GR
GS
[0.75 0 0 0.75 57.49936 140.98818] CT
0.149 GC
/Helvetica 13.333 F
GS
[1 0 0 1 0 0] CT
-29 5.5 moveto 
1 -1 scale
(1005) t 
GR
GR
GS
[0.75 0 0 0.75 57.49936 116.53033] CT
0.149 GC
/Helvetica 13.333 F
GS
[1 0 0 1 0 0] CT
-29 5.5 moveto 
1 -1 scale
(1010) t 
GR
GR
GS
[0.75 0 0 0.75 57.49936 92.0725] CT
0.149 GC
/Helvetica 13.333 F
GS
[1 0 0 1 0 0] CT
-29 5.5 moveto 
1 -1 scale
(1015) t 
GR
GR
GS
[0.75 0 0 0.75 57.49936 67.61466] CT
0.149 GC
/Helvetica 13.333 F
GS
[1 0 0 1 0 0] CT
-29 5.5 moveto 
1 -1 scale
(1020) t 
GR
GR
GS
[0.75 0 0 0.75 57.49936 43.15682] CT
0.149 GC
/Helvetica 13.333 F
GS
[1 0 0 1 0 0] CT
-29 5.5 moveto 
1 -1 scale
(1025) t 
GR
GR
GS
[0.75 0 0 0.75 57.49936 18.69898] CT
0.149 GC
/Helvetica 13.333 F
GS
[1 0 0 1 0 0] CT
-29 5.5 moveto 
1 -1 scale
(1030) t 
GR
GR
GS
[0 -0.75 0.75 0 32.74971 114.37475] CT
0.149 GC
/Helvetica 14.667 F
GS
[1 0 0 1 0 0] CT
-20.5 -4 moveto 
1 -1 scale
(Depth) t 
GR
GR
GS
[0.75 0 0 0.75 0 0] CT
0 0.447 0.741 RC
1 LJ
0.667 LW
N
81.942 182.247 M
82.686 174.94 L
85.341 181.462 L
87.997 168.418 L
90.653 174.94 L
93.309 155.374 L
95.965 168.418 L
98.621 148.852 L
101.276 155.374 L
103.932 246.683 L
106.588 246.683 L
109.244 246.683 L
111.9 246.683 L
114.556 233.639 L
117.211 233.639 L
119.867 240.161 L
122.523 227.117 L
125.179 233.639 L
127.835 220.595 L
130.491 220.595 L
133.146 207.551 L
135.802 214.073 L
138.458 207.551 L
141.114 207.551 L
143.77 194.506 L
146.426 194.506 L
149.081 181.462 L
151.737 220.595 L
154.393 168.418 L
157.049 174.94 L
159.705 161.896 L
162.361 161.896 L
165.016 148.852 L
167.672 148.852 L
170.328 246.683 L
172.984 246.683 L
175.64 233.639 L
178.296 240.161 L
180.951 220.595 L
183.607 227.117 L
186.263 214.073 L
188.919 220.595 L
191.575 207.551 L
194.231 207.551 L
196.886 194.506 L
199.542 194.506 L
202.198 187.984 L
204.854 187.984 L
207.51 181.462 L
210.166 174.94 L
212.821 168.418 L
215.477 174.94 L
218.133 161.896 L
220.789 161.896 L
223.445 148.852 L
226.101 155.374 L
228.756 161.896 L
231.412 148.852 L
234.068 148.852 L
236.724 174.94 L
239.38 187.984 L
242.036 174.94 L
244.691 174.94 L
247.347 168.418 L
250.003 168.418 L
252.659 155.374 L
255.315 161.896 L
257.971 148.852 L
260.626 148.852 L
263.282 233.639 L
265.938 240.161 L
268.594 227.117 L
271.25 233.639 L
273.906 214.073 L
276.561 220.595 L
279.217 207.551 L
281.873 214.073 L
284.529 201.028 L
287.185 207.551 L
289.841 194.506 L
292.496 194.506 L
295.152 187.984 L
297.808 187.984 L
300.464 194.506 L
303.12 181.462 L
305.776 187.984 L
308.431 168.418 L
311.087 174.94 L
313.743 161.896 L
316.399 161.896 L
319.055 155.374 L
321.711 246.683 L
324.366 246.683 L
327.022 187.984 L
329.678 194.506 L
332.334 181.462 L
334.99 187.984 L
337.646 168.418 L
340.301 174.94 L
342.957 161.896 L
345.613 168.418 L
348.269 155.374 L
350.925 161.896 L
353.581 246.683 L
356.237 148.852 L
358.892 155.374 L
361.548 246.683 L
364.204 148.852 L
366.86 240.161 L
369.516 240.161 L
372.172 233.639 L
374.827 233.639 L
377.483 227.117 L
380.139 227.117 L
382.795 214.073 L
385.451 214.073 L
388.107 201.028 L
390.762 214.073 L
393.418 187.984 L
396.074 201.028 L
398.73 181.462 L
401.386 187.984 L
404.042 168.418 L
406.697 181.462 L
409.353 227.117 L
412.009 233.639 L
414.665 214.073 L
417.321 220.595 L
419.977 207.551 L
422.632 214.073 L
425.288 201.028 L
427.944 207.551 L
430.6 194.506 L
433.256 194.506 L
435.912 181.462 L
438.567 187.984 L
441.223 174.94 L
443.879 174.94 L
446.535 168.418 L
449.191 174.94 L
451.847 174.94 L
454.502 161.896 L
457.158 168.418 L
459.814 155.374 L
462.47 155.374 L
465.126 246.683 L
467.782 148.852 L
470.437 246.683 L
473.093 246.683 L
475.749 233.639 L
478.405 233.639 L
481.061 220.595 L
483.717 220.595 L
486.372 201.028 L
489.028 214.073 L
491.684 148.852 L
494.34 207.551 L
496.996 207.551 L
499.652 207.551 L
502.307 201.028 L
504.963 201.028 L
507.619 194.506 L
510.275 194.506 L
512.931 181.462 L
515.587 181.462 L
518.242 168.418 L
520.898 174.94 L
523.554 161.896 L
526.21 161.896 L
528.866 246.683 L
531.522 148.852 L
534.177 240.161 L
536.833 246.683 L
539.489 227.117 L
542.145 233.639 L
544.801 227.117 L
547.457 227.117 L
550.112 214.073 L
552.768 220.595 L
555.424 207.551 L
558.08 207.551 L
560.736 201.028 L
563.392 201.028 L
566.047 187.984 L
567.058 192.95 L
S
GR
GS
[0.75 0 0 0.75 0 0] CT
0.851 0.325 0.098 RC
1 LJ
0.667 LW
N
82.581 281.031 M
82.686 135.808 L
85.341 142.33 L
87.997 129.285 L
90.653 135.808 L
93.309 116.241 L
95.965 129.285 L
98.621 109.719 L
101.276 116.241 L
103.932 207.551 L
106.588 207.551 L
109.244 207.551 L
111.9 207.551 L
114.556 194.506 L
117.211 194.506 L
119.867 201.028 L
122.523 187.984 L
125.179 194.506 L
127.835 181.462 L
130.491 181.462 L
133.146 168.418 L
135.802 174.94 L
138.458 168.418 L
141.114 168.418 L
143.77 155.374 L
146.426 155.374 L
149.081 142.33 L
151.737 181.462 L
154.393 129.285 L
157.049 135.808 L
159.705 122.763 L
162.361 122.763 L
165.016 109.719 L
167.672 109.719 L
170.328 207.551 L
172.984 207.551 L
175.64 194.506 L
178.296 201.028 L
180.951 181.462 L
183.607 187.984 L
186.263 174.94 L
188.919 181.462 L
191.575 168.418 L
194.231 168.418 L
196.886 155.374 L
199.542 155.374 L
202.198 148.852 L
204.854 148.852 L
207.51 142.33 L
210.166 135.808 L
212.821 129.285 L
215.477 135.808 L
218.133 122.763 L
220.789 122.763 L
223.445 109.719 L
226.101 116.241 L
228.756 122.763 L
231.412 109.719 L
234.068 109.719 L
236.724 135.808 L
239.38 148.852 L
242.036 135.808 L
244.691 135.808 L
247.347 129.285 L
250.003 129.285 L
252.659 116.241 L
255.315 122.763 L
257.971 109.719 L
260.626 109.719 L
263.282 194.506 L
265.938 201.028 L
268.594 187.984 L
271.25 194.506 L
273.906 174.94 L
276.561 181.462 L
279.217 168.418 L
281.873 174.94 L
284.529 161.896 L
287.185 168.418 L
289.841 155.374 L
292.496 155.374 L
295.152 148.852 L
297.808 148.852 L
300.464 155.374 L
303.12 142.33 L
305.776 148.852 L
308.431 129.285 L
311.087 135.808 L
313.743 122.763 L
316.399 122.763 L
319.055 116.241 L
321.711 207.551 L
324.366 207.551 L
327.022 148.852 L
329.678 155.374 L
332.334 142.33 L
334.99 148.852 L
337.646 129.285 L
340.301 135.808 L
342.957 122.763 L
345.613 129.285 L
348.269 116.241 L
350.925 122.763 L
353.581 207.551 L
356.237 109.719 L
358.892 116.241 L
361.548 207.551 L
364.204 109.719 L
366.86 201.028 L
369.516 201.028 L
372.172 194.506 L
374.827 194.506 L
377.483 187.984 L
380.139 187.984 L
382.795 174.94 L
385.451 174.94 L
388.107 161.896 L
390.762 174.94 L
393.418 148.852 L
396.074 161.896 L
398.73 142.33 L
401.386 148.852 L
404.042 129.285 L
406.697 142.33 L
409.353 187.984 L
412.009 194.506 L
414.665 174.94 L
417.321 181.462 L
419.977 168.418 L
422.632 174.94 L
425.288 161.896 L
427.944 168.418 L
430.6 155.374 L
433.256 155.374 L
435.912 142.33 L
438.567 148.852 L
441.223 135.808 L
443.879 135.808 L
446.535 129.285 L
449.191 135.808 L
451.847 135.808 L
454.502 122.763 L
457.158 129.285 L
459.814 116.241 L
462.47 116.241 L
465.126 207.551 L
467.782 109.719 L
470.437 207.551 L
473.093 207.551 L
475.749 194.506 L
478.405 194.506 L
481.061 181.462 L
483.717 181.462 L
486.372 161.896 L
489.028 174.94 L
491.684 109.719 L
494.34 168.418 L
496.996 168.418 L
499.652 168.418 L
502.307 161.896 L
504.963 161.896 L
507.619 155.374 L
510.275 155.374 L
512.931 142.33 L
515.587 142.33 L
518.242 129.285 L
520.898 135.808 L
523.554 122.763 L
526.21 122.763 L
528.866 207.551 L
531.522 109.719 L
534.177 201.028 L
536.833 207.551 L
539.489 187.984 L
542.145 194.506 L
544.801 187.984 L
547.457 187.984 L
550.112 174.94 L
552.768 181.462 L
555.424 168.418 L
558.08 168.418 L
560.736 161.896 L
563.392 161.896 L
566.047 148.852 L
567.058 153.817 L
S
GR
GS
[0.75 0 0 0.75 0 0] CT
1 GC
N
435 74 M
435 37 L
554 37 L
554 74 L
cp
f
GR
GS
[0.75 0 0 0.75 361.5 35.35274] CT
/Helvetica 12 F
GS
[1 0 0 1 0 0] CT
0 5 moveto 
1 -1 scale
(Pixel \(20,20\)) t 
GR
GR
GS
[0.75 0 0 0.75 0 0] CT
0 0.447 0.741 RC
1 LJ
0.667 LW
N
439 47.137 M
479 47.137 L
S
GR
GS
[0.75 0 0 0.75 361.5 47.89726] CT
/Helvetica 12 F
GS
[1 0 0 1 0 0] CT
0 5 moveto 
1 -1 scale
(Pixel \(20,21\)) t 
GR
GR
GS
[0.75 0 0 0.75 0 0] CT
0.851 0.325 0.098 RC
1 LJ
0.667 LW
N
439 63.863 M
479 63.863 L
S
GR
GS
[0.75 0 0 0.75 0 0] CT
0.149 GC
10.0 ML
0.667 LW
N
435 74 M
435 37 L
554 37 L
554 74 L
cp
S
GR
%%Trailer
%%Pages: 1
%%EOF
